{"componentChunkName":"component---node-modules-gatsby-theme-buzzing-src-gatsby-theme-timeline-templates-posts-query-js","path":"/en/tags/pics/page/15","result":{"data":{"site":{"siteMetadata":{"title":"Reddit 热门","description":"用中文浏览Reddit热门内容","social":[{"name":"Reddit","url":"https://www.reddit.com","external":true,"prefetch":null},{"name":"Buzzing","url":"https://www.buzzing.cc/","external":true,"prefetch":null}],"menuLinks":[{"name":"每周精选","url":"/issues","external":null,"prefetch":null}],"localize":[{"locale":"en","title":"Buzzing on Reddit","description":"See what's buzzing on Reddit in your native language","social":[{"name":"Reddit","url":"https://www.reddit.com/","external":true,"prefetch":null}],"menuLinks":[{"name":"Weekly Selection","url":"/en/issues","external":null,"prefetch":null}]},{"locale":"zh-Hant","title":"Reddit 熱門","description":"用中文瀏覽Reddit熱門內容","social":null,"menuLinks":[{"name":"每週精選","url":"/zh-Hant/issues","external":null,"prefetch":null}]},{"locale":"ja","title":"Reddit 人気の記事","description":"人気のReddit記事を日本語で閲覧","social":null,"menuLinks":[]}]}},"tagsGroup":{"group":[{"fieldValue":"ABoringDystopia","totalCount":3},{"fieldValue":"AOC","totalCount":1},{"fieldValue":"AbruptChaos","totalCount":1},{"fieldValue":"AmongUs","totalCount":2},{"fieldValue":"AnimalsBeingBros","totalCount":1},{"fieldValue":"Art","totalCount":1},{"fieldValue":"AskReddit","totalCount":43},{"fieldValue":"Bad_Cop_No_Donut","totalCount":2},{"fieldValue":"BeAmazed","totalCount":4},{"fieldValue":"BikiniBottomTwitter","totalCount":7},{"fieldValue":"BlackPeopleTwitter","totalCount":87},{"fieldValue":"Bossfight","totalCount":1},{"fieldValue":"CapitolConsequences","totalCount":1},{"fieldValue":"Conservative","totalCount":1},{"fieldValue":"Coronavirus","totalCount":2},{"fieldValue":"Cringetopia","totalCount":11},{"fieldValue":"Damnthatsinteresting","totalCount":80},{"fieldValue":"DunderMifflin","totalCount":1},{"fieldValue":"FuckYouKaren","totalCount":7},{"fieldValue":"FunnyandSad","totalCount":1},{"fieldValue":"Futurology","totalCount":5},{"fieldValue":"GetMotivated","totalCount":1},{"fieldValue":"HolUp","totalCount":100},{"fieldValue":"HumansBeingBros","totalCount":13},{"fieldValue":"IdiotsInCars","totalCount":22},{"fieldValue":"IsTodayFridayThe13th","totalCount":1},{"fieldValue":"JusticeServed","totalCount":4},{"fieldValue":"KamikazeByWords","totalCount":1},{"fieldValue":"KidsAreFuckingStupid","totalCount":5},{"fieldValue":"LeopardsAteMyFace","totalCount":11},{"fieldValue":"LifeProTips","totalCount":25},{"fieldValue":"MadeMeSmile","totalCount":297},{"fieldValue":"Minecraft","totalCount":23},{"fieldValue":"MovieDetails","totalCount":3},{"fieldValue":"MurderedByAOC","totalCount":5},{"fieldValue":"MurderedByWords","totalCount":106},{"fieldValue":"Music","totalCount":2},{"fieldValue":"NatureIsFuckingLit","totalCount":10},{"fieldValue":"NoStupidQuestions","totalCount":1},{"fieldValue":"OldSchoolCool","totalCount":4},{"fieldValue":"PoliticalHumor","totalCount":54},{"fieldValue":"PrequelMemes","totalCount":23},{"fieldValue":"PublicFreakout","totalCount":105},{"fieldValue":"SelfAwarewolves","totalCount":2},{"fieldValue":"ShitPostCrusaders","totalCount":1},{"fieldValue":"ShittyLifeProTips","totalCount":3},{"fieldValue":"Showerthoughts","totalCount":11},{"fieldValue":"StarWars","totalCount":1},{"fieldValue":"TIHI","totalCount":4},{"fieldValue":"ThatsInsane","totalCount":6},{"fieldValue":"TheBoys","totalCount":1},{"fieldValue":"TheRightCantMeme","totalCount":1},{"fieldValue":"TikTokCringe","totalCount":3},{"fieldValue":"Tinder","totalCount":5},{"fieldValue":"ToiletPaperUSA","totalCount":2},{"fieldValue":"TwoXChromosomes","totalCount":2},{"fieldValue":"Unexpected","totalCount":135},{"fieldValue":"UpliftingNews","totalCount":5},{"fieldValue":"WTF","totalCount":1},{"fieldValue":"WallStreetbetsELITE","totalCount":1},{"fieldValue":"WatchPeopleDieInside","totalCount":65},{"fieldValue":"Wellthatsucks","totalCount":32},{"fieldValue":"Whatcouldgowrong","totalCount":17},{"fieldValue":"WhitePeopleTwitter","totalCount":281},{"fieldValue":"WinStupidPrizes","totalCount":1},{"fieldValue":"agedlikemilk","totalCount":2},{"fieldValue":"announcements","totalCount":1},{"fieldValue":"assholedesign","totalCount":4},{"fieldValue":"awfuleverything","totalCount":7},{"fieldValue":"aww","totalCount":386},{"fieldValue":"blackmagicfuckery","totalCount":6},{"fieldValue":"blog","totalCount":2},{"fieldValue":"blursedimages","totalCount":7},{"fieldValue":"canada","totalCount":1},{"fieldValue":"clevercomebacks","totalCount":2},{"fieldValue":"comedyheaven","totalCount":10},{"fieldValue":"confidentlyincorrect","totalCount":2},{"fieldValue":"coolguides","totalCount":5},{"fieldValue":"cursedcomments","totalCount":53},{"fieldValue":"cyberpunkgame","totalCount":3},{"fieldValue":"dankmemes","totalCount":444},{"fieldValue":"dataisbeautiful","totalCount":6},{"fieldValue":"dndmemes","totalCount":1},{"fieldValue":"dogecoin","totalCount":1},{"fieldValue":"europe","totalCount":1},{"fieldValue":"facepalm","totalCount":141},{"fieldValue":"funny","totalCount":332},{"fieldValue":"gaming","totalCount":249},{"fieldValue":"gatekeeping","totalCount":1},{"fieldValue":"gifs","totalCount":49},{"fieldValue":"harrypotter","totalCount":1},{"fieldValue":"iamatotalpieceofshit","totalCount":15},{"fieldValue":"insanepeoplefacebook","totalCount":9},{"fieldValue":"instant_regret","totalCount":8},{"fieldValue":"instantkarma","totalCount":1},{"fieldValue":"interestingasfuck","totalCount":431},{"fieldValue":"intermittentfasting","totalCount":1},{"fieldValue":"lotrmemes","totalCount":1},{"fieldValue":"madlads","totalCount":9},{"fieldValue":"marvelstudios","totalCount":2},{"fieldValue":"me_irl","totalCount":17},{"fieldValue":"memes","totalCount":1069},{"fieldValue":"mildlyinfuriating","totalCount":23},{"fieldValue":"mildlyinteresting","totalCount":98},{"fieldValue":"movies","totalCount":11},{"fieldValue":"natureismetal","totalCount":3},{"fieldValue":"nevertellmetheodds","totalCount":3},{"fieldValue":"news","totalCount":127},{"fieldValue":"nextfuckinglevel","totalCount":582},{"fieldValue":"nottheonion","totalCount":20},{"fieldValue":"oddlysatisfying","totalCount":46},{"fieldValue":"pcmasterrace","totalCount":11},{"fieldValue":"perfectlycutscreams","totalCount":1},{"fieldValue":"pics","totalCount":366},{"fieldValue":"politics","totalCount":186},{"fieldValue":"povertyfinance","totalCount":1},{"fieldValue":"quityourbullshit","totalCount":2},{"fieldValue":"rareinsults","totalCount":15},{"fieldValue":"rarepuppers","totalCount":1},{"fieldValue":"reddit","totalCount":7053},{"fieldValue":"sadcringe","totalCount":1},{"fieldValue":"science","totalCount":23},{"fieldValue":"shittymoviedetails","totalCount":2},{"fieldValue":"space","totalCount":9},{"fieldValue":"specializedtools","totalCount":1},{"fieldValue":"sports","totalCount":2},{"fieldValue":"starterpacks","totalCount":11},{"fieldValue":"stocks","totalCount":1},{"fieldValue":"suspiciouslyspecific","totalCount":1},{"fieldValue":"technicallythetruth","totalCount":12},{"fieldValue":"technology","totalCount":16},{"fieldValue":"teenagers","totalCount":19},{"fieldValue":"therewasanattempt","totalCount":3},{"fieldValue":"tifu","totalCount":1},{"fieldValue":"todayilearned","totalCount":104},{"fieldValue":"toptalent","totalCount":2},{"fieldValue":"trashy","totalCount":2},{"fieldValue":"trippinthroughtime","totalCount":2},{"fieldValue":"videos","totalCount":4},{"fieldValue":"wallstreetbets","totalCount":176},{"fieldValue":"wholesomememes","totalCount":118},{"fieldValue":"woahdude","totalCount":1},{"fieldValue":"worldnews","totalCount":107},{"fieldValue":"youseeingthisshit","totalCount":1}]},"allBlogPost":{"nodes":[{"__typename":"SocialMediaPost","id":"RedditPost-juz8ro","excerpt":"","slug":"/reddit/r/pics/comments/juz8ro/a_nurse_comforts_a_woman_as_her_husband_dies_from/","title":"A nurse comforts a woman as her husband dies from COVID-19 in the ICU","date":"November 16, 2020","dateISO":"2020-11-16T13:16:41.000Z","datetime":"2020-11-16 13:16","tags":["pics","reddit"],"image":null,"imageAlt":"Reddit Image","provider":"Reddit","thirdPartyId":"juz8ro","url":"https://www.reddit.com/r/pics/comments/juz8ro/a_nurse_comforts_a_woman_as_her_husband_dies_from/","originalUrl":"https://www.reddit.com/r/pics/comments/juz8ro/a_nurse_comforts_a_woman_as_her_husband_dies_from/","imageRemote":"https://external-preview.redd.it/-k-YelM6TOGGJOJ0EYfn8QXqZ8tCpAadWVl9aW7Zxeg.jpg?width=1080&crop=smart&auto=webp&s=f5c21d2b1ec4f22e8251cfc2994b9d361ab11131","video":null,"channel":"pics","channelUrl":"https://www.reddit.com/r/pics","author":"jcepiano","authorUrl":"https://www.reddit.com/user/jcepiano","authorImage":null,"authorSlug":"jcepiano","score":122520,"views":null,"sharedCount":null,"likeCount":null,"sharedContent":null,"parent":{"__typename":"RedditJson","localize":[{"title":"一名护士在ICU安慰一名妇女，因为她的丈夫死于冠状病毒。","the_new_excerpt":null,"locale":"zh"},{"title":"壹名護士在ICU安慰壹名婦女，因為她的丈夫死於冠狀病毒。","the_new_excerpt":null,"locale":"zh-Hant"}]}},{"__typename":"SocialMediaPost","id":"RedditPost-juthwx","excerpt":"","slug":"/reddit/r/pics/comments/juthwx/amazon_tribe_wins_lawsuit_blocks_big_oils_bid_to/","title":"Amazon Tribe wins lawsuit, blocks Big Oil’s bid to destroy millions of acres of rainforest","date":"November 16, 2020","dateISO":"2020-11-16T03:17:59.000Z","datetime":"2020-11-16 03:17","tags":["pics","reddit"],"image":null,"imageAlt":"Reddit Image","provider":"Reddit","thirdPartyId":"juthwx","url":"https://www.reddit.com/r/pics/comments/juthwx/amazon_tribe_wins_lawsuit_blocks_big_oils_bid_to/","originalUrl":"https://www.reddit.com/r/pics/comments/juthwx/amazon_tribe_wins_lawsuit_blocks_big_oils_bid_to/","imageRemote":"https://preview.redd.it/spb062uqxgz51.jpg?width=640&crop=smart&auto=webp&s=5f3add07859a5715438cb9ec1918148729086d5a","video":null,"channel":"pics","channelUrl":"https://www.reddit.com/r/pics","author":"DizzySkunknuts","authorUrl":"https://www.reddit.com/user/DizzySkunknuts","authorImage":null,"authorSlug":"DizzySkunknuts","score":117434,"views":null,"sharedCount":null,"likeCount":null,"sharedContent":null,"parent":{"__typename":"RedditJson","localize":[{"title":"亚马逊部落赢得诉讼，阻止大型石油公司破坏数百万英亩热带雨林","the_new_excerpt":null,"locale":"zh"},{"title":"亞馬遜部落贏得訴訟，阻止大型石油公司破壞數百萬英畝熱帶雨林","the_new_excerpt":null,"locale":"zh-Hant"}]}},{"__typename":"SocialMediaPost","id":"RedditPost-jup2zb","excerpt":"","slug":"/reddit/r/pics/comments/jup2zb/bandaid_the_no_fog_no_slip_mask_solution/","title":"Band-aid: the no fog, no slip mask solution","date":"November 15, 2020","dateISO":"2020-11-15T23:16:53.000Z","datetime":"2020-11-15 23:16","tags":["pics","reddit"],"image":null,"imageAlt":"Reddit Image","provider":"Reddit","thirdPartyId":"jup2zb","url":"https://www.reddit.com/r/pics/comments/jup2zb/bandaid_the_no_fog_no_slip_mask_solution/","originalUrl":"https://www.reddit.com/r/pics/comments/jup2zb/bandaid_the_no_fog_no_slip_mask_solution/","imageRemote":"https://preview.redd.it/ivt1jicmpfz51.jpg?width=1080&crop=smart&auto=webp&s=01cd36c926be9f7b4dcb77bbd69d423a6bf4d949","video":null,"channel":"pics","channelUrl":"https://www.reddit.com/r/pics","author":"Pessimist2020","authorUrl":"https://www.reddit.com/user/Pessimist2020","authorImage":null,"authorSlug":"Pessimist2020","score":111745,"views":null,"sharedCount":null,"likeCount":null,"sharedContent":null,"parent":{"__typename":"RedditJson","localize":[{"title":"创可贴：无雾、无滑面膜解决方案","the_new_excerpt":null,"locale":"zh"},{"title":"創可貼：無霧、無滑面膜解決方案","the_new_excerpt":null,"locale":"zh-Hant"}]}},{"__typename":"SocialMediaPost","id":"RedditPost-jukh4j","excerpt":"","slug":"/reddit/r/pics/comments/jukh4j/picture_from_the_bush_to_obama_transition/","title":"Picture from the Bush to Obama transition","date":"November 15, 2020","dateISO":"2020-11-15T19:15:40.000Z","datetime":"2020-11-15 19:15","tags":["pics","reddit"],"image":null,"imageAlt":"Reddit Image","provider":"Reddit","thirdPartyId":"jukh4j","url":"https://www.reddit.com/r/pics/comments/jukh4j/picture_from_the_bush_to_obama_transition/","originalUrl":"https://www.reddit.com/r/pics/comments/jukh4j/picture_from_the_bush_to_obama_transition/","imageRemote":"https://preview.redd.it/k2uj4b9d2ez51.jpg?width=640&crop=smart&auto=webp&s=4768e6163fa55aee9479c0f932632d98b484d5f6","video":null,"channel":"pics","channelUrl":"https://www.reddit.com/r/pics","author":"DaFunkJunkie","authorUrl":"https://www.reddit.com/user/DaFunkJunkie","authorImage":null,"authorSlug":"DaFunkJunkie","score":102866,"views":null,"sharedCount":null,"likeCount":null,"sharedContent":null,"parent":{"__typename":"RedditJson","localize":[{"title":"从布什到奥巴马过渡的画面","the_new_excerpt":null,"locale":"zh"},{"title":"從布什到奧巴馬過渡的畫面","the_new_excerpt":null,"locale":"zh-Hant"}]}},{"__typename":"SocialMediaPost","id":"RedditPost-jue9qf","excerpt":"","slug":"/reddit/r/pics/comments/jue9qf/protester_at_million_maga_march/","title":"Protester at Million MAGA March","date":"November 15, 2020","dateISO":"2020-11-15T02:22:08.000Z","datetime":"2020-11-15 02:22","tags":["pics","reddit"],"image":null,"imageAlt":"Reddit Image","provider":"Reddit","thirdPartyId":"jue9qf","url":"https://www.reddit.com/r/pics/comments/jue9qf/protester_at_million_maga_march/","originalUrl":"https://www.reddit.com/r/pics/comments/jue9qf/protester_at_million_maga_march/","imageRemote":"https://preview.redd.it/y0hgj6sidbz51.jpg?width=1080&crop=smart&auto=webp&s=88642bef465896bb501ca6deb693b51e50b66d25","video":null,"channel":"pics","channelUrl":"https://www.reddit.com/r/pics","author":"holyfruits","authorUrl":"https://www.reddit.com/user/holyfruits","authorImage":null,"authorSlug":"holyfruits","score":143483,"views":null,"sharedCount":null,"likeCount":null,"sharedContent":null,"parent":{"__typename":"RedditJson","localize":[{"title":"百万马加游行的抗议者","the_new_excerpt":null,"locale":"zh"},{"title":"百萬馬加遊行的抗議者","the_new_excerpt":null,"locale":"zh-Hant"}]}},{"__typename":"SocialMediaPost","id":"RedditPost-ju82uy","excerpt":"","slug":"/reddit/r/pics/comments/ju82uy/two_navajo_women_exercising_their_1st_amendment/","title":"Two Navajo women exercising their 1st amendment right","date":"November 14, 2020","dateISO":"2020-11-14T19:53:23.000Z","datetime":"2020-11-14 19:53","tags":["pics","reddit"],"image":null,"imageAlt":"Reddit Image","provider":"Reddit","thirdPartyId":"ju82uy","url":"https://www.reddit.com/r/pics/comments/ju82uy/two_navajo_women_exercising_their_1st_amendment/","originalUrl":"https://www.reddit.com/r/pics/comments/ju82uy/two_navajo_women_exercising_their_1st_amendment/","imageRemote":"https://preview.redd.it/cppmhrw5g9z51.jpg?width=640&crop=smart&auto=webp&s=30cd41deba9501bae2fef9452d42cfc714b92ef5","video":null,"channel":"pics","channelUrl":"https://www.reddit.com/r/pics","author":"DontSearchMyBasement","authorUrl":"https://www.reddit.com/user/DontSearchMyBasement","authorImage":null,"authorSlug":"DontSearchMyBasement","score":99537,"views":null,"sharedCount":null,"likeCount":null,"sharedContent":null,"parent":{"__typename":"RedditJson","localize":[{"title":"两名纳瓦霍妇女行使第一修正案权利","the_new_excerpt":null,"locale":"zh"},{"title":"兩名納瓦霍婦女行使第壹修正案權利","the_new_excerpt":null,"locale":"zh-Hant"}]}},{"__typename":"SocialMediaPost","id":"RedditPost-ju3p1t","excerpt":"","slug":"/reddit/r/pics/comments/ju3p1t/tattooed_some_new_brows_on_a_client_with_alopecia/","title":"Tattooed some new brows on a client with alopecia!","date":"November 14, 2020","dateISO":"2020-11-14T15:33:37.000Z","datetime":"2020-11-14 15:33","tags":["pics","reddit"],"image":null,"imageAlt":"Reddit Image","provider":"Reddit","thirdPartyId":"ju3p1t","url":"https://www.reddit.com/r/pics/comments/ju3p1t/tattooed_some_new_brows_on_a_client_with_alopecia/","originalUrl":"https://www.reddit.com/r/pics/comments/ju3p1t/tattooed_some_new_brows_on_a_client_with_alopecia/","imageRemote":"https://preview.redd.it/mnb5uplt58z51.jpg?width=960&crop=smart&auto=webp&s=72da51b7f3b6ead5f5527a8a5ccad72f1b97d63d","video":null,"channel":"pics","channelUrl":"https://www.reddit.com/r/pics","author":"lynneasomething","authorUrl":"https://www.reddit.com/user/lynneasomething","authorImage":null,"authorSlug":"lynneasomething","score":108369,"views":null,"sharedCount":null,"likeCount":null,"sharedContent":null,"parent":{"__typename":"RedditJson","localize":[{"title":"在一个脱发的客户身上纹了一些新的眉毛！","the_new_excerpt":null,"locale":"zh"},{"title":"在壹個脫發的客戶身上紋了壹些新的眉毛！","the_new_excerpt":null,"locale":"zh-Hant"}]}},{"__typename":"SocialMediaPost","id":"RedditPost-jtrshy","excerpt":"","slug":"/reddit/r/pics/comments/jtrshy/night/","title":"Night","date":"November 14, 2020","dateISO":"2020-11-14T00:07:50.000Z","datetime":"2020-11-14 00:07","tags":["pics","reddit"],"image":null,"imageAlt":"Reddit Image","provider":"Reddit","thirdPartyId":"jtrshy","url":"https://www.reddit.com/r/pics/comments/jtrshy/night/","originalUrl":"https://www.reddit.com/r/pics/comments/jtrshy/night/","imageRemote":"https://preview.redd.it/8s9ke0cnk3z51.jpg?width=1080&crop=smart&auto=webp&s=343ed680c4ade7ab1150abbadc58d1878f831130","video":null,"channel":"pics","channelUrl":"https://www.reddit.com/r/pics","author":"esotericspeech","authorUrl":"https://www.reddit.com/user/esotericspeech","authorImage":null,"authorSlug":"esotericspeech","score":91745,"views":null,"sharedCount":null,"likeCount":null,"sharedContent":null,"parent":{"__typename":"RedditJson","localize":[{"title":"夜晚","the_new_excerpt":null,"locale":"zh"},{"title":"夜晚","the_new_excerpt":null,"locale":"zh-Hant"}]}},{"__typename":"SocialMediaPost","id":"RedditPost-jtoyt2","excerpt":"","slug":"/reddit/r/pics/comments/jtoyt2/bush_graciously_did_all_he_could_to_ease_the/","title":"Bush graciously did \"all he could\" to ease the transition between administrations","date":"November 13, 2020","dateISO":"2020-11-13T21:30:07.000Z","datetime":"2020-11-13 21:30","tags":["pics","reddit"],"image":null,"imageAlt":"Reddit Image","provider":"Reddit","thirdPartyId":"jtoyt2","url":"https://www.reddit.com/r/pics/comments/jtoyt2/bush_graciously_did_all_he_could_to_ease_the/","originalUrl":"https://www.reddit.com/r/pics/comments/jtoyt2/bush_graciously_did_all_he_could_to_ease_the/","imageRemote":"https://preview.redd.it/64vdu39fs2z51.jpg?width=640&crop=smart&auto=webp&s=6051e815b771cf8cf99ea041d22dd8c9309bc4e8","video":null,"channel":"pics","channelUrl":"https://www.reddit.com/r/pics","author":"Pessimist2020","authorUrl":"https://www.reddit.com/user/Pessimist2020","authorImage":null,"authorSlug":"Pessimist2020","score":83223,"views":null,"sharedCount":null,"likeCount":null,"sharedContent":null,"parent":{"__typename":"RedditJson","localize":[{"title":"布什彬彬有礼地“尽其所能”缓和了两届政府之间的过渡。","the_new_excerpt":null,"locale":"zh"},{"title":"布什彬彬有禮地“盡其所能”緩和了兩屆政府之間的過渡。","the_new_excerpt":null,"locale":"zh-Hant"}]}},{"__typename":"SocialMediaPost","id":"RedditPost-jtkydj","excerpt":"","slug":"/reddit/r/pics/comments/jtkydj/before_you_throw_a_non_working_dryer_out_get/","title":"Before you throw a non working dryer out, get screw driver and open it up.","date":"November 13, 2020","dateISO":"2020-11-13T18:15:04.000Z","datetime":"2020-11-13 18:15","tags":["pics","reddit"],"image":null,"imageAlt":"Reddit Image","provider":"Reddit","thirdPartyId":"jtkydj","url":"https://www.reddit.com/r/pics/comments/jtkydj/before_you_throw_a_non_working_dryer_out_get/","originalUrl":"https://www.reddit.com/r/pics/comments/jtkydj/before_you_throw_a_non_working_dryer_out_get/","imageRemote":"https://preview.redd.it/uyvbnlomt1z51.jpg?width=1080&crop=smart&auto=webp&s=ea7afe3b625f2842c20fb19c04012a6f7e82cb74","video":null,"channel":"pics","channelUrl":"https://www.reddit.com/r/pics","author":"WritesUaSong","authorUrl":"https://www.reddit.com/user/WritesUaSong","authorImage":null,"authorSlug":"WritesUaSong","score":72972,"views":null,"sharedCount":null,"likeCount":null,"sharedContent":null,"parent":{"__typename":"RedditJson","localize":[{"title":"在你扔掉不能工作的烘干机之前，拿起螺丝刀并把它打开。","the_new_excerpt":null,"locale":"zh"},{"title":"在妳扔掉不能工作的烘幹機之前，拿起螺絲刀並把它打開。","the_new_excerpt":null,"locale":"zh-Hant"}]}},{"__typename":"SocialMediaPost","id":"RedditPost-jtixgo","excerpt":"","slug":"/reddit/r/pics/comments/jtixgo/in_front_of_the_white_house_now/","title":"In front of the White House now","date":"November 13, 2020","dateISO":"2020-11-13T16:33:31.000Z","datetime":"2020-11-13 16:33","tags":["pics","reddit"],"image":null,"imageAlt":"Reddit Image","provider":"Reddit","thirdPartyId":"jtixgo","url":"https://www.reddit.com/r/pics/comments/jtixgo/in_front_of_the_white_house_now/","originalUrl":"https://www.reddit.com/r/pics/comments/jtixgo/in_front_of_the_white_house_now/","imageRemote":"https://preview.redd.it/wohxljiib1z51.jpg?width=1080&crop=smart&auto=webp&s=0fbd412bf7915c845a04f1425aab143b674d6936","video":null,"channel":"pics","channelUrl":"https://www.reddit.com/r/pics","author":"ohnoh18","authorUrl":"https://www.reddit.com/user/ohnoh18","authorImage":null,"authorSlug":"ohnoh18","score":80748,"views":null,"sharedCount":null,"likeCount":null,"sharedContent":null,"parent":{"__typename":"RedditJson","localize":[{"title":"现在就在白宫门前","the_new_excerpt":null,"locale":"zh"},{"title":"現在就在白宮門前","the_new_excerpt":null,"locale":"zh-Hant"}]}},{"__typename":"SocialMediaPost","id":"RedditPost-jth5x2","excerpt":"","slug":"/reddit/r/pics/comments/jth5x2/donald_trump_is_boss_nass/","title":"Donald Trump is Boss Nass","date":"November 13, 2020","dateISO":"2020-11-13T15:04:24.000Z","datetime":"2020-11-13 15:04","tags":["pics","reddit"],"image":null,"imageAlt":"Reddit Image","provider":"Reddit","thirdPartyId":"jth5x2","url":"https://www.reddit.com/r/pics/comments/jth5x2/donald_trump_is_boss_nass/","originalUrl":"https://www.reddit.com/r/pics/comments/jth5x2/donald_trump_is_boss_nass/","imageRemote":"https://preview.redd.it/l6vrgbkov0z51.jpg?width=640&crop=smart&auto=webp&s=42d1247fce10955c573f158cc09af0aab65f7256","video":null,"channel":"pics","channelUrl":"https://www.reddit.com/r/pics","author":"DraftDraw","authorUrl":"https://www.reddit.com/user/DraftDraw","authorImage":null,"authorSlug":"DraftDraw","score":85853,"views":null,"sharedCount":null,"likeCount":null,"sharedContent":null,"parent":{"__typename":"RedditJson","localize":[{"title":"唐纳德·特朗普是纳斯老板","the_new_excerpt":null,"locale":"zh"},{"title":"唐納德·特朗普是納斯老板","the_new_excerpt":null,"locale":"zh-Hant"}]}},{"__typename":"SocialMediaPost","id":"RedditPost-jtdvbx","excerpt":"","slug":"/reddit/r/pics/comments/jtdvbx/after_1_year_and_eleven_months_my_braces_are/","title":"After 1 year and eleven months. My braces are finnaly removed.","date":"November 13, 2020","dateISO":"2020-11-13T08:57:47.000Z","datetime":"2020-11-13 08:57","tags":["pics","reddit"],"image":null,"imageAlt":"Reddit Image","provider":"Reddit","thirdPartyId":"jtdvbx","url":"https://www.reddit.com/r/pics/comments/jtdvbx/after_1_year_and_eleven_months_my_braces_are/","originalUrl":"https://www.reddit.com/r/pics/comments/jtdvbx/after_1_year_and_eleven_months_my_braces_are/","imageRemote":"https://preview.redd.it/htdh6kaa2zy51.jpg?width=1080&crop=smart&auto=webp&s=f39ebba50e8232994b19f868c3f5813332630d63","video":null,"channel":"pics","channelUrl":"https://www.reddit.com/r/pics","author":"jerra_10","authorUrl":"https://www.reddit.com/user/jerra_10","authorImage":null,"authorSlug":"jerra_10","score":75723,"views":null,"sharedCount":null,"likeCount":null,"sharedContent":null,"parent":{"__typename":"RedditJson","localize":[{"title":"一年零十一个月后。我的牙套终于拔掉了。","the_new_excerpt":null,"locale":"zh"},{"title":"壹年零十壹個月後。我的牙套終於拔掉了。","the_new_excerpt":null,"locale":"zh-Hant"}]}},{"__typename":"SocialMediaPost","id":"RedditPost-jt8ehg","excerpt":"","slug":"/reddit/r/pics/comments/jt8ehg/alex_trebeks_wife_of_30_years_jean_currivan/","title":"Alex Trebek’s wife of 30 years, Jean Currivan, shared this photo from their wedding day.","date":"November 13, 2020","dateISO":"2020-11-13T02:03:15.000Z","datetime":"2020-11-13 02:03","tags":["pics","reddit"],"image":null,"imageAlt":"Reddit Image","provider":"Reddit","thirdPartyId":"jt8ehg","url":"https://www.reddit.com/r/pics/comments/jt8ehg/alex_trebeks_wife_of_30_years_jean_currivan/","originalUrl":"https://www.reddit.com/r/pics/comments/jt8ehg/alex_trebeks_wife_of_30_years_jean_currivan/","imageRemote":"https://preview.redd.it/dgu5hqyb0xy51.jpg?width=640&crop=smart&auto=webp&s=501b4fc38fe37e947c30fa0dfce109e60a5a8b2a","video":null,"channel":"pics","channelUrl":"https://www.reddit.com/r/pics","author":"gangbangkang","authorUrl":"https://www.reddit.com/user/gangbangkang","authorImage":null,"authorSlug":"gangbangkang","score":83731,"views":null,"sharedCount":null,"likeCount":null,"sharedContent":null,"parent":{"__typename":"RedditJson","localize":[{"title":"亚历克斯·特雷贝克结婚30年的妻子让·柯里文在他们结婚当天分享了这张照片。","the_new_excerpt":null,"locale":"zh"},{"title":"亞歷克斯·特雷貝克結婚30年的妻子讓·柯裏文在他們結婚當天分享了這張照片。","the_new_excerpt":null,"locale":"zh-Hant"}]}},{"__typename":"SocialMediaPost","id":"RedditPost-jt5lwf","excerpt":"","slug":"/reddit/r/pics/comments/jt5lwf/my_dad_the_veteran_18_years_old_vs_77_years_old/","title":"My Dad the Veteran! 18 years old vs 77 years old!","date":"November 12, 2020","dateISO":"2020-11-12T23:13:17.000Z","datetime":"2020-11-12 23:13","tags":["pics","reddit"],"image":null,"imageAlt":"Reddit Image","provider":"Reddit","thirdPartyId":"jt5lwf","url":"https://www.reddit.com/r/pics/comments/jt5lwf/my_dad_the_veteran_18_years_old_vs_77_years_old/","originalUrl":"https://www.reddit.com/r/pics/comments/jt5lwf/my_dad_the_veteran_18_years_old_vs_77_years_old/","imageRemote":"https://preview.redd.it/kx2i2b206wy51.jpg?width=1080&crop=smart&auto=webp&s=488fd95a1cbb7ae4339c325b1ebceeae9da806c4","video":null,"channel":"pics","channelUrl":"https://www.reddit.com/r/pics","author":"RichAuntieSkeleton","authorUrl":"https://www.reddit.com/user/RichAuntieSkeleton","authorImage":null,"authorSlug":"RichAuntieSkeleton","score":90749,"views":null,"sharedCount":null,"likeCount":null,"sharedContent":null,"parent":{"__typename":"RedditJson","localize":[{"title":"我的老兵爸爸！18岁对77岁！","the_new_excerpt":null,"locale":"zh"},{"title":"我的老兵爸爸！18歲對77歲！","the_new_excerpt":null,"locale":"zh-Hant"}]}},{"__typename":"SocialMediaPost","id":"RedditPost-jt1ilu","excerpt":"","slug":"/reddit/r/pics/comments/jt1ilu/i_married_the_woman_of_my_dreams_after_fearing/","title":"I married the woman of my dreams after fearing for years that she wasn’t out there.","date":"November 12, 2020","dateISO":"2020-11-12T19:39:30.000Z","datetime":"2020-11-12 19:39","tags":["pics","reddit"],"image":null,"imageAlt":"Reddit Image","provider":"Reddit","thirdPartyId":"jt1ilu","url":"https://www.reddit.com/r/pics/comments/jt1ilu/i_married_the_woman_of_my_dreams_after_fearing/","originalUrl":"https://www.reddit.com/r/pics/comments/jt1ilu/i_married_the_woman_of_my_dreams_after_fearing/","imageRemote":"https://preview.redd.it/kuohj2yu3vy51.jpg?width=1080&crop=smart&auto=webp&s=c7898d5a1b3e3f3d585e8f225d721dd7f9ad07e3","video":null,"channel":"pics","channelUrl":"https://www.reddit.com/r/pics","author":"Latida2828","authorUrl":"https://www.reddit.com/user/Latida2828","authorImage":null,"authorSlug":"Latida2828","score":89598,"views":null,"sharedCount":null,"likeCount":null,"sharedContent":null,"parent":{"__typename":"RedditJson","localize":[{"title":"我嫁给了我的梦中情人，因为我多年来一直担心她不在那里。","the_new_excerpt":null,"locale":"zh"},{"title":"我嫁給了我的夢中情人，因為我多年來壹直擔心她不在那裏。","the_new_excerpt":null,"locale":"zh-Hant"}]}}]}},"pageContext":{"basePath":"/","pageType":"tag","tag":"pics","tagsFilter":{"id":{"glob":"!*Post-1"}},"filter":{"id":{"glob":"!*Post-1"},"tags":{"eq":"pics"}},"limit":25,"skip":350,"total":366,"totalPages":15,"currentPage":15,"maxWidth":1024,"maxHeight":512,"locale":"en","hrefLang":"en-US","originalPath":"/tags/pics/page/15","dateFormat":"MM/DD/YYYY"}},"staticQueryHashes":["1239077767","2506312863","2744905544","3025052997","3493603132","3493603132","3513215887","386998304"]}