{"componentChunkName":"component---node-modules-gatsby-theme-buzzing-src-gatsby-theme-timeline-templates-posts-query-js","path":"/en/tags/reddit/page/283","result":{"data":{"site":{"siteMetadata":{"title":"Reddit 热门","description":"用中文浏览Reddit热门内容","social":[{"name":"Reddit","url":"https://www.reddit.com","external":true,"prefetch":null},{"name":"Buzzing","url":"https://www.buzzing.cc/","external":true,"prefetch":null}],"menuLinks":[{"name":"每周精选","url":"/issues","external":null,"prefetch":null}],"localize":[{"locale":"en","title":"Buzzing on Reddit","description":"See what's buzzing on Reddit in your native language","social":[{"name":"Reddit","url":"https://www.reddit.com/","external":true,"prefetch":null}],"menuLinks":[{"name":"Weekly Selection","url":"/en/issues","external":null,"prefetch":null}]},{"locale":"zh-Hant","title":"Reddit 熱門","description":"用中文瀏覽Reddit熱門內容","social":null,"menuLinks":[{"name":"每週精選","url":"/zh-Hant/issues","external":null,"prefetch":null}]},{"locale":"ja","title":"Reddit 人気の記事","description":"人気のReddit記事を日本語で閲覧","social":null,"menuLinks":[]}]}},"tagsGroup":{"group":[{"fieldValue":"ABoringDystopia","totalCount":3},{"fieldValue":"AOC","totalCount":1},{"fieldValue":"AbruptChaos","totalCount":1},{"fieldValue":"AmongUs","totalCount":2},{"fieldValue":"AnimalsBeingBros","totalCount":1},{"fieldValue":"Art","totalCount":1},{"fieldValue":"AskReddit","totalCount":43},{"fieldValue":"Bad_Cop_No_Donut","totalCount":2},{"fieldValue":"BeAmazed","totalCount":4},{"fieldValue":"BikiniBottomTwitter","totalCount":7},{"fieldValue":"BlackPeopleTwitter","totalCount":87},{"fieldValue":"Bossfight","totalCount":1},{"fieldValue":"CapitolConsequences","totalCount":1},{"fieldValue":"Conservative","totalCount":1},{"fieldValue":"Coronavirus","totalCount":2},{"fieldValue":"Cringetopia","totalCount":11},{"fieldValue":"Damnthatsinteresting","totalCount":80},{"fieldValue":"DunderMifflin","totalCount":1},{"fieldValue":"FuckYouKaren","totalCount":7},{"fieldValue":"FunnyandSad","totalCount":1},{"fieldValue":"Futurology","totalCount":5},{"fieldValue":"GetMotivated","totalCount":1},{"fieldValue":"HolUp","totalCount":101},{"fieldValue":"HumansBeingBros","totalCount":13},{"fieldValue":"IdiotsInCars","totalCount":22},{"fieldValue":"IsTodayFridayThe13th","totalCount":1},{"fieldValue":"JusticeServed","totalCount":4},{"fieldValue":"KamikazeByWords","totalCount":1},{"fieldValue":"KidsAreFuckingStupid","totalCount":5},{"fieldValue":"LeopardsAteMyFace","totalCount":11},{"fieldValue":"LifeProTips","totalCount":25},{"fieldValue":"MadeMeSmile","totalCount":297},{"fieldValue":"Minecraft","totalCount":23},{"fieldValue":"MovieDetails","totalCount":3},{"fieldValue":"MurderedByAOC","totalCount":5},{"fieldValue":"MurderedByWords","totalCount":106},{"fieldValue":"Music","totalCount":2},{"fieldValue":"NatureIsFuckingLit","totalCount":10},{"fieldValue":"NoStupidQuestions","totalCount":1},{"fieldValue":"OldSchoolCool","totalCount":4},{"fieldValue":"PoliticalHumor","totalCount":54},{"fieldValue":"PrequelMemes","totalCount":23},{"fieldValue":"PublicFreakout","totalCount":105},{"fieldValue":"SelfAwarewolves","totalCount":2},{"fieldValue":"ShitPostCrusaders","totalCount":1},{"fieldValue":"ShittyLifeProTips","totalCount":3},{"fieldValue":"Showerthoughts","totalCount":11},{"fieldValue":"StarWars","totalCount":1},{"fieldValue":"TIHI","totalCount":4},{"fieldValue":"ThatsInsane","totalCount":6},{"fieldValue":"TheBoys","totalCount":1},{"fieldValue":"TheRightCantMeme","totalCount":1},{"fieldValue":"TikTokCringe","totalCount":3},{"fieldValue":"Tinder","totalCount":5},{"fieldValue":"ToiletPaperUSA","totalCount":2},{"fieldValue":"TwoXChromosomes","totalCount":2},{"fieldValue":"Unexpected","totalCount":136},{"fieldValue":"UpliftingNews","totalCount":5},{"fieldValue":"WTF","totalCount":1},{"fieldValue":"WallStreetbetsELITE","totalCount":1},{"fieldValue":"WatchPeopleDieInside","totalCount":65},{"fieldValue":"Wellthatsucks","totalCount":32},{"fieldValue":"Whatcouldgowrong","totalCount":17},{"fieldValue":"WhitePeopleTwitter","totalCount":281},{"fieldValue":"WinStupidPrizes","totalCount":1},{"fieldValue":"agedlikemilk","totalCount":2},{"fieldValue":"announcements","totalCount":1},{"fieldValue":"assholedesign","totalCount":4},{"fieldValue":"awfuleverything","totalCount":7},{"fieldValue":"aww","totalCount":386},{"fieldValue":"blackmagicfuckery","totalCount":6},{"fieldValue":"blog","totalCount":2},{"fieldValue":"blursedimages","totalCount":7},{"fieldValue":"canada","totalCount":1},{"fieldValue":"clevercomebacks","totalCount":2},{"fieldValue":"comedyheaven","totalCount":10},{"fieldValue":"confidentlyincorrect","totalCount":2},{"fieldValue":"coolguides","totalCount":5},{"fieldValue":"cursedcomments","totalCount":53},{"fieldValue":"cyberpunkgame","totalCount":3},{"fieldValue":"dankmemes","totalCount":444},{"fieldValue":"dataisbeautiful","totalCount":6},{"fieldValue":"dndmemes","totalCount":1},{"fieldValue":"dogecoin","totalCount":1},{"fieldValue":"europe","totalCount":1},{"fieldValue":"facepalm","totalCount":141},{"fieldValue":"funny","totalCount":332},{"fieldValue":"gaming","totalCount":249},{"fieldValue":"gatekeeping","totalCount":1},{"fieldValue":"gifs","totalCount":49},{"fieldValue":"harrypotter","totalCount":1},{"fieldValue":"iamatotalpieceofshit","totalCount":15},{"fieldValue":"insanepeoplefacebook","totalCount":9},{"fieldValue":"instant_regret","totalCount":8},{"fieldValue":"instantkarma","totalCount":1},{"fieldValue":"interestingasfuck","totalCount":431},{"fieldValue":"intermittentfasting","totalCount":1},{"fieldValue":"lotrmemes","totalCount":1},{"fieldValue":"madlads","totalCount":9},{"fieldValue":"marvelstudios","totalCount":2},{"fieldValue":"me_irl","totalCount":17},{"fieldValue":"memes","totalCount":1070},{"fieldValue":"mildlyinfuriating","totalCount":23},{"fieldValue":"mildlyinteresting","totalCount":98},{"fieldValue":"movies","totalCount":11},{"fieldValue":"natureismetal","totalCount":3},{"fieldValue":"nevertellmetheodds","totalCount":3},{"fieldValue":"news","totalCount":127},{"fieldValue":"nextfuckinglevel","totalCount":583},{"fieldValue":"nottheonion","totalCount":20},{"fieldValue":"oddlysatisfying","totalCount":46},{"fieldValue":"pcmasterrace","totalCount":11},{"fieldValue":"perfectlycutscreams","totalCount":1},{"fieldValue":"pics","totalCount":366},{"fieldValue":"politics","totalCount":186},{"fieldValue":"povertyfinance","totalCount":1},{"fieldValue":"quityourbullshit","totalCount":2},{"fieldValue":"rareinsults","totalCount":15},{"fieldValue":"rarepuppers","totalCount":1},{"fieldValue":"reddit","totalCount":7057},{"fieldValue":"sadcringe","totalCount":1},{"fieldValue":"science","totalCount":23},{"fieldValue":"shittymoviedetails","totalCount":2},{"fieldValue":"space","totalCount":9},{"fieldValue":"specializedtools","totalCount":1},{"fieldValue":"sports","totalCount":2},{"fieldValue":"starterpacks","totalCount":11},{"fieldValue":"stocks","totalCount":1},{"fieldValue":"suspiciouslyspecific","totalCount":1},{"fieldValue":"technicallythetruth","totalCount":12},{"fieldValue":"technology","totalCount":16},{"fieldValue":"teenagers","totalCount":19},{"fieldValue":"therewasanattempt","totalCount":3},{"fieldValue":"tifu","totalCount":1},{"fieldValue":"todayilearned","totalCount":104},{"fieldValue":"toptalent","totalCount":2},{"fieldValue":"trashy","totalCount":2},{"fieldValue":"trippinthroughtime","totalCount":2},{"fieldValue":"videos","totalCount":4},{"fieldValue":"wallstreetbets","totalCount":176},{"fieldValue":"wholesomememes","totalCount":118},{"fieldValue":"woahdude","totalCount":1},{"fieldValue":"worldnews","totalCount":107},{"fieldValue":"youseeingthisshit","totalCount":1}]},"allBlogPost":{"nodes":[{"__typename":"SocialMediaPost","id":"RedditPost-jt1q73","excerpt":"","slug":"/reddit/r/WhitePeopleTwitter/comments/jt1q73/its_your_own_damn_fault/","title":"It's your own damn fault","date":"November 12, 2020","dateISO":"2020-11-12T19:49:55.000Z","datetime":"2020-11-12 19:49","tags":["WhitePeopleTwitter","reddit"],"image":null,"imageAlt":"Reddit Image","provider":"Reddit","thirdPartyId":"jt1q73","url":"https://www.reddit.com/r/WhitePeopleTwitter/comments/jt1q73/its_your_own_damn_fault/","originalUrl":"https://www.reddit.com/r/WhitePeopleTwitter/comments/jt1q73/its_your_own_damn_fault/","imageRemote":"https://preview.redd.it/cqaj69lo5vy51.jpg?width=1080&crop=smart&auto=webp&s=b922536109f3c04a03f19ff7dae0b1f8670edea8","video":null,"channel":"WhitePeopleTwitter","channelUrl":"https://www.reddit.com/r/WhitePeopleTwitter","author":"BarelyLegalSeagull","authorUrl":"https://www.reddit.com/user/BarelyLegalSeagull","authorImage":null,"authorSlug":"BarelyLegalSeagull","score":80567,"views":null,"sharedCount":null,"likeCount":null,"sharedContent":null,"parent":{"__typename":"RedditJson","localize":[{"title":"这是你自己的错","the_new_excerpt":null,"locale":"zh"},{"title":"這是妳自己的錯","the_new_excerpt":null,"locale":"zh-Hant"}]}},{"__typename":"SocialMediaPost","id":"RedditPost-jt1ilu","excerpt":"","slug":"/reddit/r/pics/comments/jt1ilu/i_married_the_woman_of_my_dreams_after_fearing/","title":"I married the woman of my dreams after fearing for years that she wasn’t out there.","date":"November 12, 2020","dateISO":"2020-11-12T19:39:30.000Z","datetime":"2020-11-12 19:39","tags":["pics","reddit"],"image":null,"imageAlt":"Reddit Image","provider":"Reddit","thirdPartyId":"jt1ilu","url":"https://www.reddit.com/r/pics/comments/jt1ilu/i_married_the_woman_of_my_dreams_after_fearing/","originalUrl":"https://www.reddit.com/r/pics/comments/jt1ilu/i_married_the_woman_of_my_dreams_after_fearing/","imageRemote":"https://preview.redd.it/kuohj2yu3vy51.jpg?width=1080&crop=smart&auto=webp&s=c7898d5a1b3e3f3d585e8f225d721dd7f9ad07e3","video":null,"channel":"pics","channelUrl":"https://www.reddit.com/r/pics","author":"Latida2828","authorUrl":"https://www.reddit.com/user/Latida2828","authorImage":null,"authorSlug":"Latida2828","score":89598,"views":null,"sharedCount":null,"likeCount":null,"sharedContent":null,"parent":{"__typename":"RedditJson","localize":[{"title":"我嫁给了我的梦中情人，因为我多年来一直担心她不在那里。","the_new_excerpt":null,"locale":"zh"},{"title":"我嫁給了我的夢中情人，因為我多年來壹直擔心她不在那裏。","the_new_excerpt":null,"locale":"zh-Hant"}]}},{"__typename":"SocialMediaPost","id":"RedditPost-jt19fl","excerpt":"","slug":"/reddit/r/funny/comments/jt19fl/the_benefits_of_growing_older/","title":"The benefits of growing older","date":"November 12, 2020","dateISO":"2020-11-12T19:26:51.000Z","datetime":"2020-11-12 19:26","tags":["funny","reddit"],"image":null,"imageAlt":"Reddit Image","provider":"Reddit","thirdPartyId":"jt19fl","url":"https://www.reddit.com/r/funny/comments/jt19fl/the_benefits_of_growing_older/","originalUrl":"https://www.reddit.com/r/funny/comments/jt19fl/the_benefits_of_growing_older/","imageRemote":"https://preview.redd.it/nsqyydoj1vy51.jpg?width=1080&crop=smart&auto=webp&s=e80c2fc205ae6faade06dc137740333a187c9f4d","video":null,"channel":"funny","channelUrl":"https://www.reddit.com/r/funny","author":"MadeByTio","authorUrl":"https://www.reddit.com/user/MadeByTio","authorImage":null,"authorSlug":"MadeByTio","score":92906,"views":null,"sharedCount":null,"likeCount":null,"sharedContent":null,"parent":{"__typename":"RedditJson","localize":[{"title":"变老的好处","the_new_excerpt":null,"locale":"zh"},{"title":"變老的好處","the_new_excerpt":null,"locale":"zh-Hant"}]}},{"__typename":"SocialMediaPost","id":"RedditPost-jt171t","excerpt":"","slug":"/reddit/r/dataisbeautiful/comments/jt171t/oc_what_if_i_didnt_vote_ran_as_a_us_presidential/","title":"[OC] What if \"I didn't vote\" ran as a US presidential candidate in the 2020 election?","date":"November 12, 2020","dateISO":"2020-11-12T19:23:36.000Z","datetime":"2020-11-12 19:23","tags":["dataisbeautiful","reddit"],"image":null,"imageAlt":"Reddit Image","provider":"Reddit","thirdPartyId":"jt171t","url":"https://www.reddit.com/r/dataisbeautiful/comments/jt171t/oc_what_if_i_didnt_vote_ran_as_a_us_presidential/","originalUrl":"https://www.reddit.com/r/dataisbeautiful/comments/jt171t/oc_what_if_i_didnt_vote_ran_as_a_us_presidential/","imageRemote":"https://preview.redd.it/5dyzl5sj0vy51.png?width=1080&crop=smart&auto=webp&s=1dc4bc6f705ba407bb6405d7808be2dbb7e652a7","video":null,"channel":"dataisbeautiful","channelUrl":"https://www.reddit.com/r/dataisbeautiful","author":"Prunestand","authorUrl":"https://www.reddit.com/user/Prunestand","authorImage":null,"authorSlug":"Prunestand","score":84344,"views":null,"sharedCount":null,"likeCount":null,"sharedContent":null,"parent":{"__typename":"RedditJson","localize":[{"title":"[原创]如果“我没有投票”在2020年大选中以美国总统候选人的身份参选怎么办？","the_new_excerpt":null,"locale":"zh"},{"title":"[原創]如果“我沒有投票”在2020年大選中以美國總統候選人的身份參選怎麽辦？","the_new_excerpt":null,"locale":"zh-Hant"}]}},{"__typename":"SocialMediaPost","id":"RedditPost-jt0tht","excerpt":"","slug":"/reddit/r/MurderedByWords/comments/jt0tht/its_a_valid_question_dave/","title":"It's a valid question, Dave","date":"November 12, 2020","dateISO":"2020-11-12T19:05:15.000Z","datetime":"2020-11-12 19:05","tags":["MurderedByWords","reddit"],"image":null,"imageAlt":"Reddit Image","provider":"Reddit","thirdPartyId":"jt0tht","url":"https://www.reddit.com/r/MurderedByWords/comments/jt0tht/its_a_valid_question_dave/","originalUrl":"https://www.reddit.com/r/MurderedByWords/comments/jt0tht/its_a_valid_question_dave/","imageRemote":"https://preview.redd.it/p4rsdfknxuy51.jpg?width=640&crop=smart&auto=webp&s=94465f18943426ff4310677bc65a2c3f4696798c","video":null,"channel":"MurderedByWords","channelUrl":"https://www.reddit.com/r/MurderedByWords","author":"beerbellybegone","authorUrl":"https://www.reddit.com/user/beerbellybegone","authorImage":null,"authorSlug":"beerbellybegone","score":89419,"views":null,"sharedCount":null,"likeCount":null,"sharedContent":null,"parent":{"__typename":"RedditJson","localize":[{"title":"这是个合理的问题，戴夫","the_new_excerpt":null,"locale":"zh"},{"title":"這是個合理的問題，戴夫","the_new_excerpt":null,"locale":"zh-Hant"}]}},{"__typename":"SocialMediaPost","id":"RedditPost-jt0ta7","excerpt":"","slug":"/reddit/r/Unexpected/comments/jt0ta7/couple_decides_to_visit_his_former_home/","title":"Couple decides to visit his former home.","date":"November 12, 2020","dateISO":"2020-11-12T19:04:59.000Z","datetime":"2020-11-12 19:04","tags":["Unexpected","reddit"],"image":null,"imageAlt":null,"provider":"Reddit","thirdPartyId":"jt0ta7","url":"https://www.reddit.com/r/Unexpected/comments/jt0ta7/couple_decides_to_visit_his_former_home/","originalUrl":"https://www.reddit.com/r/Unexpected/comments/jt0ta7/couple_decides_to_visit_his_former_home/","imageRemote":null,"video":{"url":"https://www.reddit.com/mediaembed/jt0ta7","embed":true,"width":498,"height":1080},"channel":"Unexpected","channelUrl":"https://www.reddit.com/r/Unexpected","author":"sexlock","authorUrl":"https://www.reddit.com/user/sexlock","authorImage":null,"authorSlug":"sexlock","score":93344,"views":null,"sharedCount":null,"likeCount":null,"sharedContent":null,"parent":{"__typename":"RedditJson","localize":[{"title":"一对夫妇决定访问他的故居。","the_new_excerpt":null,"locale":"zh"},{"title":"壹對夫婦決定訪問他的故居。","the_new_excerpt":null,"locale":"zh-Hant"}]}},{"__typename":"SocialMediaPost","id":"RedditPost-jt0rg7","excerpt":"","slug":"/reddit/r/nevertellmetheodds/comments/jt0rg7/in_1990_a_panel_of_the_windscreen_on_british/","title":"In 1990, a panel of the windscreen on British Airways Flight 5390 fell out at 17k feet, causing the cockpit to decompress & its captain to be sucked halfway out of the aircraft. The crew held onto him for more than 20 minutes as the copilot made an emergency landing. The pilot made a full recovery.","date":"November 12, 2020","dateISO":"2020-11-12T19:02:29.000Z","datetime":"2020-11-12 19:02","tags":["nevertellmetheodds","reddit"],"image":null,"imageAlt":"Reddit Image","provider":"Reddit","thirdPartyId":"jt0rg7","url":"https://www.reddit.com/r/nevertellmetheodds/comments/jt0rg7/in_1990_a_panel_of_the_windscreen_on_british/","originalUrl":"https://www.reddit.com/r/nevertellmetheodds/comments/jt0rg7/in_1990_a_panel_of_the_windscreen_on_british/","imageRemote":"https://external-preview.redd.it/PfIh8SmKmFTyqjuCbhu7a-0XMiq7wVNKKn6_GCW7aMs.jpg?width=1080&crop=smart&auto=webp&s=0559d33a748848a1feb7f8abdc23d57d3970c796","video":null,"channel":"nevertellmetheodds","channelUrl":"https://www.reddit.com/r/nevertellmetheodds","author":"RampChurch","authorUrl":"https://www.reddit.com/user/RampChurch","authorImage":null,"authorSlug":"RampChurch","score":88052,"views":null,"sharedCount":null,"likeCount":null,"sharedContent":null,"parent":{"__typename":"RedditJson","localize":[{"title":"1990年，英国航空公司5390次航班的挡风玻璃面板在17K英尺的高空坠落，导致驾驶舱减压，机长在飞机中途被吸出飞机。当副驾驶紧急降落时，机组人员抓住了他20多分钟。飞行员完全康复了。","the_new_excerpt":null,"locale":"zh"},{"title":"1990年，英國航空公司5390次航班的擋風玻璃面板在17K英尺的高空墜落，導致駕駛艙減壓，機長在飛機中途被吸出飛機。當副駕駛緊急降落時，機組人員抓住了他20多分鐘。飛行員完全康復了。","the_new_excerpt":null,"locale":"zh-Hant"}]}}]}},"pageContext":{"basePath":"/","pageType":"tag","tag":"reddit","tagsFilter":{"id":{"glob":"!*Post-1"}},"filter":{"id":{"glob":"!*Post-1"},"tags":{"eq":"reddit"}},"limit":25,"skip":7050,"total":7057,"totalPages":283,"currentPage":283,"maxWidth":1024,"maxHeight":512,"locale":"en","hrefLang":"en-US","originalPath":"/tags/reddit/page/283","dateFormat":"MM/DD/YYYY"}},"staticQueryHashes":["1239077767","2506312863","2744905544","3025052997","3493603132","3493603132","3513215887","386998304"]}