{"componentChunkName":"component---node-modules-gatsby-theme-buzzing-src-gatsby-theme-timeline-templates-posts-query-js","path":"/tags/politics/page/8","result":{"data":{"site":{"siteMetadata":{"title":"Reddit 热门","description":"用中文浏览Reddit热门内容","social":[{"name":"Reddit","url":"https://www.reddit.com","external":true,"prefetch":null},{"name":"Buzzing","url":"https://www.buzzing.cc/","external":true,"prefetch":null}],"menuLinks":[{"name":"每周精选","url":"/issues","external":null,"prefetch":null}],"localize":[{"locale":"en","title":"Buzzing on Reddit","description":"See what's buzzing on Reddit in your native language","social":[{"name":"Reddit","url":"https://www.reddit.com/","external":true,"prefetch":null}],"menuLinks":[{"name":"Weekly Selection","url":"/en/issues","external":null,"prefetch":null}]},{"locale":"zh-Hant","title":"Reddit 熱門","description":"用中文瀏覽Reddit熱門內容","social":null,"menuLinks":[{"name":"每週精選","url":"/zh-Hant/issues","external":null,"prefetch":null}]},{"locale":"ja","title":"Reddit 人気の記事","description":"人気のReddit記事を日本語で閲覧","social":null,"menuLinks":[]}]}},"tagsGroup":{"group":[{"fieldValue":"ABoringDystopia","totalCount":3},{"fieldValue":"AOC","totalCount":1},{"fieldValue":"AbruptChaos","totalCount":1},{"fieldValue":"AmongUs","totalCount":2},{"fieldValue":"AnimalsBeingBros","totalCount":1},{"fieldValue":"Art","totalCount":1},{"fieldValue":"AskReddit","totalCount":43},{"fieldValue":"Bad_Cop_No_Donut","totalCount":2},{"fieldValue":"BeAmazed","totalCount":4},{"fieldValue":"BikiniBottomTwitter","totalCount":7},{"fieldValue":"BlackPeopleTwitter","totalCount":87},{"fieldValue":"Bossfight","totalCount":1},{"fieldValue":"CapitolConsequences","totalCount":1},{"fieldValue":"Conservative","totalCount":1},{"fieldValue":"Coronavirus","totalCount":2},{"fieldValue":"Cringetopia","totalCount":11},{"fieldValue":"Damnthatsinteresting","totalCount":79},{"fieldValue":"DunderMifflin","totalCount":1},{"fieldValue":"FuckYouKaren","totalCount":7},{"fieldValue":"FunnyandSad","totalCount":1},{"fieldValue":"Futurology","totalCount":5},{"fieldValue":"GetMotivated","totalCount":1},{"fieldValue":"HolUp","totalCount":100},{"fieldValue":"HumansBeingBros","totalCount":13},{"fieldValue":"IdiotsInCars","totalCount":22},{"fieldValue":"IsTodayFridayThe13th","totalCount":1},{"fieldValue":"JusticeServed","totalCount":4},{"fieldValue":"KamikazeByWords","totalCount":1},{"fieldValue":"KidsAreFuckingStupid","totalCount":5},{"fieldValue":"LeopardsAteMyFace","totalCount":10},{"fieldValue":"LifeProTips","totalCount":25},{"fieldValue":"MadeMeSmile","totalCount":293},{"fieldValue":"Minecraft","totalCount":23},{"fieldValue":"MovieDetails","totalCount":3},{"fieldValue":"MurderedByAOC","totalCount":5},{"fieldValue":"MurderedByWords","totalCount":104},{"fieldValue":"Music","totalCount":2},{"fieldValue":"NatureIsFuckingLit","totalCount":10},{"fieldValue":"NoStupidQuestions","totalCount":1},{"fieldValue":"OldSchoolCool","totalCount":4},{"fieldValue":"PoliticalHumor","totalCount":54},{"fieldValue":"PrequelMemes","totalCount":23},{"fieldValue":"PublicFreakout","totalCount":104},{"fieldValue":"SelfAwarewolves","totalCount":2},{"fieldValue":"ShitPostCrusaders","totalCount":1},{"fieldValue":"ShittyLifeProTips","totalCount":3},{"fieldValue":"Showerthoughts","totalCount":11},{"fieldValue":"StarWars","totalCount":1},{"fieldValue":"TIHI","totalCount":4},{"fieldValue":"ThatsInsane","totalCount":6},{"fieldValue":"TheBoys","totalCount":1},{"fieldValue":"TheRightCantMeme","totalCount":1},{"fieldValue":"TikTokCringe","totalCount":3},{"fieldValue":"Tinder","totalCount":5},{"fieldValue":"ToiletPaperUSA","totalCount":2},{"fieldValue":"TwoXChromosomes","totalCount":2},{"fieldValue":"Unexpected","totalCount":135},{"fieldValue":"UpliftingNews","totalCount":5},{"fieldValue":"WTF","totalCount":1},{"fieldValue":"WallStreetbetsELITE","totalCount":1},{"fieldValue":"WatchPeopleDieInside","totalCount":65},{"fieldValue":"Wellthatsucks","totalCount":32},{"fieldValue":"Whatcouldgowrong","totalCount":17},{"fieldValue":"WhitePeopleTwitter","totalCount":279},{"fieldValue":"WinStupidPrizes","totalCount":1},{"fieldValue":"agedlikemilk","totalCount":2},{"fieldValue":"announcements","totalCount":1},{"fieldValue":"assholedesign","totalCount":4},{"fieldValue":"awfuleverything","totalCount":7},{"fieldValue":"aww","totalCount":384},{"fieldValue":"blackmagicfuckery","totalCount":6},{"fieldValue":"blog","totalCount":2},{"fieldValue":"blursedimages","totalCount":7},{"fieldValue":"canada","totalCount":1},{"fieldValue":"clevercomebacks","totalCount":2},{"fieldValue":"comedyheaven","totalCount":10},{"fieldValue":"confidentlyincorrect","totalCount":2},{"fieldValue":"coolguides","totalCount":5},{"fieldValue":"cursedcomments","totalCount":53},{"fieldValue":"cyberpunkgame","totalCount":3},{"fieldValue":"dankmemes","totalCount":441},{"fieldValue":"dataisbeautiful","totalCount":6},{"fieldValue":"dndmemes","totalCount":1},{"fieldValue":"dogecoin","totalCount":1},{"fieldValue":"europe","totalCount":1},{"fieldValue":"facepalm","totalCount":140},{"fieldValue":"funny","totalCount":331},{"fieldValue":"gaming","totalCount":248},{"fieldValue":"gatekeeping","totalCount":1},{"fieldValue":"gifs","totalCount":49},{"fieldValue":"harrypotter","totalCount":1},{"fieldValue":"iamatotalpieceofshit","totalCount":15},{"fieldValue":"insanepeoplefacebook","totalCount":9},{"fieldValue":"instant_regret","totalCount":8},{"fieldValue":"instantkarma","totalCount":1},{"fieldValue":"interestingasfuck","totalCount":428},{"fieldValue":"intermittentfasting","totalCount":1},{"fieldValue":"lotrmemes","totalCount":1},{"fieldValue":"madlads","totalCount":9},{"fieldValue":"marvelstudios","totalCount":2},{"fieldValue":"me_irl","totalCount":17},{"fieldValue":"memes","totalCount":1062},{"fieldValue":"mildlyinfuriating","totalCount":22},{"fieldValue":"mildlyinteresting","totalCount":98},{"fieldValue":"movies","totalCount":11},{"fieldValue":"natureismetal","totalCount":3},{"fieldValue":"nevertellmetheodds","totalCount":3},{"fieldValue":"news","totalCount":126},{"fieldValue":"nextfuckinglevel","totalCount":579},{"fieldValue":"nottheonion","totalCount":20},{"fieldValue":"oddlysatisfying","totalCount":45},{"fieldValue":"pcmasterrace","totalCount":11},{"fieldValue":"perfectlycutscreams","totalCount":1},{"fieldValue":"pics","totalCount":364},{"fieldValue":"politics","totalCount":186},{"fieldValue":"povertyfinance","totalCount":1},{"fieldValue":"quityourbullshit","totalCount":2},{"fieldValue":"rareinsults","totalCount":15},{"fieldValue":"rarepuppers","totalCount":1},{"fieldValue":"reddit","totalCount":7014},{"fieldValue":"sadcringe","totalCount":1},{"fieldValue":"science","totalCount":23},{"fieldValue":"shittymoviedetails","totalCount":2},{"fieldValue":"space","totalCount":9},{"fieldValue":"specializedtools","totalCount":1},{"fieldValue":"sports","totalCount":2},{"fieldValue":"starterpacks","totalCount":11},{"fieldValue":"stocks","totalCount":1},{"fieldValue":"suspiciouslyspecific","totalCount":1},{"fieldValue":"technicallythetruth","totalCount":12},{"fieldValue":"technology","totalCount":16},{"fieldValue":"teenagers","totalCount":19},{"fieldValue":"therewasanattempt","totalCount":3},{"fieldValue":"tifu","totalCount":1},{"fieldValue":"todayilearned","totalCount":102},{"fieldValue":"toptalent","totalCount":2},{"fieldValue":"trashy","totalCount":2},{"fieldValue":"trippinthroughtime","totalCount":2},{"fieldValue":"videos","totalCount":4},{"fieldValue":"wallstreetbets","totalCount":176},{"fieldValue":"wholesomememes","totalCount":118},{"fieldValue":"woahdude","totalCount":1},{"fieldValue":"worldnews","totalCount":107},{"fieldValue":"youseeingthisshit","totalCount":1}]},"allBlogPost":{"nodes":[{"__typename":"SocialMediaPost","id":"RedditPost-jvt7a8","excerpt":"","slug":"/reddit/r/politics/comments/jvt7a8/we_need_an_investigation_into_lindsey_grahams/","title":"We need an investigation into Lindsey Graham’s intervention in Georgia","date":"November 17, 2020","dateISO":"2020-11-17T20:19:15.000Z","datetime":"2020-11-17 20:19","tags":["politics","reddit"],"image":null,"imageAlt":"Reddit Image","provider":"Reddit","thirdPartyId":"jvt7a8","url":"https://www.reddit.com/r/politics/comments/jvt7a8/we_need_an_investigation_into_lindsey_grahams/","originalUrl":"https://www.reddit.com/r/politics/comments/jvt7a8/we_need_an_investigation_into_lindsey_grahams/","imageRemote":"https://external-preview.redd.it/1y5zaK2J4CoJFiV8ckC2znfg08JfMMUY33rrYcwpMBc.jpg?width=1080&crop=smart&auto=webp&s=623256e7d1e19ee3d240b24bc2d2d37aa91ba4a7","video":null,"channel":"politics","channelUrl":"https://www.reddit.com/r/politics","author":"hildebrand_rarity","authorUrl":"https://www.reddit.com/user/hildebrand_rarity","authorImage":null,"authorSlug":"hildebrand_rarity","score":96212,"views":null,"sharedCount":null,"likeCount":null,"sharedContent":null,"parent":{"__typename":"RedditJson","localize":[{"title":"我们需要调查林赛·格雷厄姆对佐治亚州的干预","the_new_excerpt":null,"locale":"zh"},{"title":"我們需要調查林賽·格雷厄姆對佐治亞州的幹預","the_new_excerpt":null,"locale":"zh-Hant"}]}},{"__typename":"SocialMediaPost","id":"RedditPost-jvhzuf","excerpt":"","slug":"/reddit/r/politics/comments/jvhzuf/report_georgia_secretary_of_state_says_graham/","title":"Report: Georgia Secretary Of State Says Graham Pressed Him To Toss Legal Ballots","date":"November 17, 2020","dateISO":"2020-11-17T19:24:22.000Z","datetime":"2020-11-17 19:24","tags":["politics","reddit"],"image":null,"imageAlt":"Reddit Image","provider":"Reddit","thirdPartyId":"jvhzuf","url":"https://www.reddit.com/r/politics/comments/jvhzuf/report_georgia_secretary_of_state_says_graham/","originalUrl":"https://www.reddit.com/r/politics/comments/jvhzuf/report_georgia_secretary_of_state_says_graham/","imageRemote":"https://external-preview.redd.it/G8sJzK8mBV-trxgdfKoIVGx09rOae7a6vcJeS_R5Un0.jpg?width=640&crop=smart&auto=webp&s=8d215452bdae155ba8bffc852ad1f234126bf770","video":null,"channel":"politics","channelUrl":"https://www.reddit.com/r/politics","author":"Twoweekswithpay","authorUrl":"https://www.reddit.com/user/Twoweekswithpay","authorImage":null,"authorSlug":"Twoweekswithpay","score":67271,"views":null,"sharedCount":null,"likeCount":null,"sharedContent":null,"parent":{"__typename":"RedditJson","localize":[{"title":"报道：佐治亚州国务卿称格雷厄姆敦促他抛出合法选票","the_new_excerpt":null,"locale":"zh"},{"title":"報道：佐治亞州國務卿稱格雷厄姆敦促他拋出合法選票","the_new_excerpt":null,"locale":"zh-Hant"}]}},{"__typename":"SocialMediaPost","id":"RedditPost-juxddj","excerpt":"","slug":"/reddit/r/politics/comments/juxddj/donald_trump_should_concede_and_put_country_above/","title":"Donald Trump should concede and ‘put country above his ego’, says Barack Obama","date":"November 16, 2020","dateISO":"2020-11-16T22:28:28.000Z","datetime":"2020-11-16 22:28","tags":["politics","reddit"],"image":null,"imageAlt":"Reddit Image","provider":"Reddit","thirdPartyId":"juxddj","url":"https://www.reddit.com/r/politics/comments/juxddj/donald_trump_should_concede_and_put_country_above/","originalUrl":"https://www.reddit.com/r/politics/comments/juxddj/donald_trump_should_concede_and_put_country_above/","imageRemote":"https://external-preview.redd.it/bJNJ0QaSsjmrCEfeMuxV3gntb5NnJcuz4g__zct7MlU.jpg?width=1080&crop=smart&auto=webp&s=2b9fd7ea3c9ca9a09bfe9aeca47f447d739456f2","video":null,"channel":"politics","channelUrl":"https://www.reddit.com/r/politics","author":"beefwbroccoli","authorUrl":"https://www.reddit.com/user/beefwbroccoli","authorImage":null,"authorSlug":"beefwbroccoli","score":66533,"views":null,"sharedCount":null,"likeCount":null,"sharedContent":null,"parent":{"__typename":"RedditJson","localize":[{"title":"巴拉克·奥巴马说，唐纳德·特朗普应该让步，“把国家置于自我之上”","the_new_excerpt":null,"locale":"zh"},{"title":"巴拉克·奧巴馬說，唐納德·特朗普應該讓步，“把國家置於自我之上”","the_new_excerpt":null,"locale":"zh-Hant"}]}},{"__typename":"SocialMediaPost","id":"RedditPost-juo1al","excerpt":"","slug":"/reddit/r/politics/comments/juo1al/obama_says_trump_has_caused_damage_by_refusing_to/","title":"Obama says Trump has caused ‘damage’ by refusing to concede defeat and warns: ‘This is not normal’","date":"November 16, 2020","dateISO":"2020-11-16T00:49:29.000Z","datetime":"2020-11-16 00:49","tags":["politics","reddit"],"image":null,"imageAlt":"Reddit Image","provider":"Reddit","thirdPartyId":"juo1al","url":"https://www.reddit.com/r/politics/comments/juo1al/obama_says_trump_has_caused_damage_by_refusing_to/","originalUrl":"https://www.reddit.com/r/politics/comments/juo1al/obama_says_trump_has_caused_damage_by_refusing_to/","imageRemote":"https://external-preview.redd.it/bJNJ0QaSsjmrCEfeMuxV3gntb5NnJcuz4g__zct7MlU.jpg?width=1080&crop=smart&auto=webp&s=2b9fd7ea3c9ca9a09bfe9aeca47f447d739456f2","video":null,"channel":"politics","channelUrl":"https://www.reddit.com/r/politics","author":"theindependentonline","authorUrl":"https://www.reddit.com/user/theindependentonline","authorImage":null,"authorSlug":"theindependentonline","score":81683,"views":null,"sharedCount":null,"likeCount":null,"sharedContent":null,"parent":{"__typename":"RedditJson","localize":[{"title":"奥巴马说，特朗普拒绝承认失败已经造成了“损害”，并警告说：“这是不正常的。”","the_new_excerpt":null,"locale":"zh"},{"title":"奧巴馬說，特朗普拒絕承認失敗已經造成了“損害”，並警告說：“這是不正常的。”","the_new_excerpt":null,"locale":"zh-Hant"}]}},{"__typename":"SocialMediaPost","id":"RedditPost-juks8c","excerpt":"","slug":"/reddit/r/politics/comments/juks8c/trump_hasnt_attended_a_coronavirus_task_force/","title":"Trump hasn't attended a coronavirus task force meeting in five months and is taking no role in combatting the surge in the disease","date":"November 15, 2020","dateISO":"2020-11-15T19:15:40.000Z","datetime":"2020-11-15 19:15","tags":["politics","reddit"],"image":null,"imageAlt":"Reddit Image","provider":"Reddit","thirdPartyId":"juks8c","url":"https://www.reddit.com/r/politics/comments/juks8c/trump_hasnt_attended_a_coronavirus_task_force/","originalUrl":"https://www.reddit.com/r/politics/comments/juks8c/trump_hasnt_attended_a_coronavirus_task_force/","imageRemote":"https://external-preview.redd.it/yKVYjnuxUjZssEUOFegY1qN7lSiDzu2gcMFhwqL_Yyo.jpg?width=1080&crop=smart&auto=webp&s=0377357412a9654e888dbaaa5449b8478a54497e","video":null,"channel":"politics","channelUrl":"https://www.reddit.com/r/politics","author":"stem12345679","authorUrl":"https://www.reddit.com/user/stem12345679","authorImage":null,"authorSlug":"stem12345679","score":86389,"views":null,"sharedCount":null,"likeCount":null,"sharedContent":null,"parent":{"__typename":"RedditJson","localize":[{"title":"特朗普已经五个月没有参加冠状病毒特别工作组会议了，也没有在抗击这种疾病激增的过程中发挥任何作用","the_new_excerpt":null,"locale":"zh"},{"title":"特朗普已經五個月沒有參加冠狀病毒特別工作組會議了，也沒有在抗擊這種疾病激增的過程中發揮任何作用","the_new_excerpt":null,"locale":"zh-Hant"}]}},{"__typename":"SocialMediaPost","id":"RedditPost-jtv6y3","excerpt":"","slug":"/reddit/r/politics/comments/jtv6y3/is_that_too_socialist_too_aoc_pleads_for_second/","title":"\"Is that too socialist too?\": AOC pleads for second stimulus checks and rent forgiveness as pandemic rages","date":"November 14, 2020","dateISO":"2020-11-14T03:45:57.000Z","datetime":"2020-11-14 03:45","tags":["politics","reddit"],"image":null,"imageAlt":"Reddit Image","provider":"Reddit","thirdPartyId":"jtv6y3","url":"https://www.reddit.com/r/politics/comments/jtv6y3/is_that_too_socialist_too_aoc_pleads_for_second/","originalUrl":"https://www.reddit.com/r/politics/comments/jtv6y3/is_that_too_socialist_too_aoc_pleads_for_second/","imageRemote":"https://external-preview.redd.it/tFNdeNJSPqCqZP3Q7AIxvpejIpMK989k8hVzuPgiYAU.jpg?width=1080&crop=smart&auto=webp&s=3843dc6ac1dfcbedaec0c1e0a6caefc3b9764d21","video":null,"channel":"politics","channelUrl":"https://www.reddit.com/r/politics","author":"Plymouth03","authorUrl":"https://www.reddit.com/user/Plymouth03","authorImage":null,"authorSlug":"Plymouth03","score":66462,"views":null,"sharedCount":null,"likeCount":null,"sharedContent":null,"parent":{"__typename":"RedditJson","localize":[{"title":"“这是不是也太社会主义了？”：在流行病肆虐之际，AOC恳求第二次刺激检查和租金减免","the_new_excerpt":null,"locale":"zh"},{"title":"“這是不是也太社會主義了？”：在流行病肆虐之際，AOC懇求第二次刺激檢查和租金減免","the_new_excerpt":null,"locale":"zh-Hant"}]}},{"__typename":"SocialMediaPost","id":"RedditPost-jtq9c5","excerpt":"","slug":"/reddit/r/politics/comments/jtq9c5/trump_to_face_subpoenas_and_seizures_following/","title":"Trump to face ‘subpoenas and seizures’ following presidency, ex-Manhattan prosecutor says","date":"November 13, 2020","dateISO":"2020-11-13T22:40:24.000Z","datetime":"2020-11-13 22:40","tags":["politics","reddit"],"image":null,"imageAlt":"Reddit Image","provider":"Reddit","thirdPartyId":"jtq9c5","url":"https://www.reddit.com/r/politics/comments/jtq9c5/trump_to_face_subpoenas_and_seizures_following/","originalUrl":"https://www.reddit.com/r/politics/comments/jtq9c5/trump_to_face_subpoenas_and_seizures_following/","imageRemote":"https://external-preview.redd.it/m0dkGuekhSXwChZMbn2WG5l3rK_bnVaQCrg_YHCSEUo.jpg?width=1080&crop=smart&auto=webp&s=844ba05663a581ce8fe3ac9bc8f7a048846d785b","video":null,"channel":"politics","channelUrl":"https://www.reddit.com/r/politics","author":"rebelliousmuse","authorUrl":"https://www.reddit.com/user/rebelliousmuse","authorImage":null,"authorSlug":"rebelliousmuse","score":73612,"views":null,"sharedCount":null,"likeCount":null,"sharedContent":null,"parent":{"__typename":"RedditJson","localize":[{"title":"前曼哈顿检察官称，特朗普将在总统任期后面临“传票和扣押”","the_new_excerpt":null,"locale":"zh"},{"title":"前曼哈頓檢察官稱，特朗普將在總統任期後面臨“傳票和扣押”","the_new_excerpt":null,"locale":"zh-Hant"}]}},{"__typename":"SocialMediaPost","id":"RedditPost-jtl1uc","excerpt":"","slug":"/reddit/r/politics/comments/jtl1uc/barack_obama_says_congress_lack_of_action_after/","title":"Barack Obama says Congress' lack of action after Sandy Hook was \"angriest\" day of his presidency","date":"November 13, 2020","dateISO":"2020-11-13T18:19:55.000Z","datetime":"2020-11-13 18:19","tags":["politics","reddit"],"image":null,"imageAlt":"Reddit Image","provider":"Reddit","thirdPartyId":"jtl1uc","url":"https://www.reddit.com/r/politics/comments/jtl1uc/barack_obama_says_congress_lack_of_action_after/","originalUrl":"https://www.reddit.com/r/politics/comments/jtl1uc/barack_obama_says_congress_lack_of_action_after/","imageRemote":"https://external-preview.redd.it/QJeQXWfXSVvr6o5raSGqUEEW9WLhFsRh0IUqnmyy7BQ.jpg?width=320&crop=smart&auto=webp&s=1c5051d25559860f015c565b1b6f5bf7c7ae8900","video":null,"channel":"politics","channelUrl":"https://www.reddit.com/r/politics","author":"Barack_Odrama00","authorUrl":"https://www.reddit.com/user/Barack_Odrama00","authorImage":null,"authorSlug":"Barack_Odrama00","score":74058,"views":null,"sharedCount":null,"likeCount":null,"sharedContent":null,"parent":{"__typename":"RedditJson","localize":[{"title":"巴拉克·奥巴马表示，国会在桑迪·胡克(Sandy Hook)担任总统后没有采取行动是他总统任期内“最愤怒的”一天","the_new_excerpt":null,"locale":"zh"},{"title":"巴拉克·奧巴馬表示，國會在桑迪·胡克(Sandy Hook)擔任總統後沒有采取行動是他總統任期內“最憤怒的”壹天","the_new_excerpt":null,"locale":"zh-Hant"}]}},{"__typename":"SocialMediaPost","id":"RedditPost-jtgijl","excerpt":"","slug":"/reddit/r/politics/comments/jtgijl/law_firm_stops_representing_trump_campaign_in/","title":"Law Firm Stops Representing Trump Campaign in Pennsylvania Suit","date":"November 13, 2020","dateISO":"2020-11-13T13:20:29.000Z","datetime":"2020-11-13 13:20","tags":["politics","reddit"],"image":null,"imageAlt":"Reddit Image","provider":"Reddit","thirdPartyId":"jtgijl","url":"https://www.reddit.com/r/politics/comments/jtgijl/law_firm_stops_representing_trump_campaign_in/","originalUrl":"https://www.reddit.com/r/politics/comments/jtgijl/law_firm_stops_representing_trump_campaign_in/","imageRemote":"https://external-preview.redd.it/tZVr4AWNvAWXw1OkaKde16DS8WF66kiNhsspz0gfWcI.jpg?width=960&crop=smart&auto=webp&s=6d4ebdc042b67c11106eb792ed9bc6f5bfe99ce8","video":null,"channel":"politics","channelUrl":"https://www.reddit.com/r/politics","author":"LurkmasterGeneral","authorUrl":"https://www.reddit.com/user/LurkmasterGeneral","authorImage":null,"authorSlug":"LurkmasterGeneral","score":70790,"views":null,"sharedCount":null,"likeCount":null,"sharedContent":null,"parent":{"__typename":"RedditJson","localize":[{"title":"律师事务所在宾夕法尼亚州诉讼中停止代表特朗普竞选团队","the_new_excerpt":null,"locale":"zh"},{"title":"律師事務所在賓夕法尼亞州訴訟中停止代表特朗普競選團隊","the_new_excerpt":null,"locale":"zh-Hant"}]}},{"__typename":"SocialMediaPost","id":"RedditPost-jt8pcg","excerpt":"","slug":"/reddit/r/politics/comments/jt8pcg/americas_top_military_officer_says_we_do_not_take/","title":"America's top military officer says 'we do not take an oath to a king'","date":"November 13, 2020","dateISO":"2020-11-13T02:21:58.000Z","datetime":"2020-11-13 02:21","tags":["politics","reddit"],"image":null,"imageAlt":"Reddit Image","provider":"Reddit","thirdPartyId":"jt8pcg","url":"https://www.reddit.com/r/politics/comments/jt8pcg/americas_top_military_officer_says_we_do_not_take/","originalUrl":"https://www.reddit.com/r/politics/comments/jt8pcg/americas_top_military_officer_says_we_do_not_take/","imageRemote":"https://external-preview.redd.it/ucgePAMxLooGg3aqh1tQ19vU7DpkOD9JIY9USXRNcJs.jpg?width=640&crop=smart&auto=webp&s=008a2b140efc003485a694aaa0759f0d01cb7b97","video":null,"channel":"politics","channelUrl":"https://www.reddit.com/r/politics","author":"hipster_deckard","authorUrl":"https://www.reddit.com/user/hipster_deckard","authorImage":null,"authorSlug":"hipster_deckard","score":85263,"views":null,"sharedCount":null,"likeCount":null,"sharedContent":null,"parent":{"__typename":"RedditJson","localize":[{"title":"美国最高军事官员称“我们不向国王宣誓”","the_new_excerpt":null,"locale":"zh"},{"title":"美國最高軍事官員稱“我們不向國王宣誓”","the_new_excerpt":null,"locale":"zh-Hant"}]}},{"__typename":"SocialMediaPost","id":"RedditPost-jt3m9z","excerpt":"","slug":"/reddit/r/politics/comments/jt3m9z/alexandria_ocasiocortez_raises_280000_overnight/","title":"Alexandria Ocasio-Cortez Raises $280,000 Overnight for Georgia Senate Runoffs Grassroots Organizing","date":"November 12, 2020","dateISO":"2020-11-12T21:26:23.000Z","datetime":"2020-11-12 21:26","tags":["politics","reddit"],"image":null,"imageAlt":"Reddit Image","provider":"Reddit","thirdPartyId":"jt3m9z","url":"https://www.reddit.com/r/politics/comments/jt3m9z/alexandria_ocasiocortez_raises_280000_overnight/","originalUrl":"https://www.reddit.com/r/politics/comments/jt3m9z/alexandria_ocasiocortez_raises_280000_overnight/","imageRemote":"https://external-preview.redd.it/BICp6Z3D6hFleWs6zSuO4ilHoFeHAN_Cx0qtyzu0C-4.jpg?width=960&crop=smart&auto=webp&s=38717f5cbf14cf6e6bf7f8e3a71352175d9bb525","video":null,"channel":"politics","channelUrl":"https://www.reddit.com/r/politics","author":"MadeInOne1","authorUrl":"https://www.reddit.com/user/MadeInOne1","authorImage":null,"authorSlug":"MadeInOne1","score":87829,"views":null,"sharedCount":null,"likeCount":null,"sharedContent":null,"parent":{"__typename":"RedditJson","localize":[{"title":"亚历山德里亚·奥卡西奥-科尔特斯(Alexandria Ocasio-Cortez)隔夜为佐治亚州参议院决选草根组织筹集28万美元","the_new_excerpt":null,"locale":"zh"},{"title":"亞歷山德裏亞·奧卡西奧-科爾特斯(Alexandria Ocasio-Cortez)隔夜為佐治亞州參議院決選草根組織籌集28萬美元","the_new_excerpt":null,"locale":"zh-Hant"}]}}]}},"pageContext":{"basePath":"/","pageType":"tag","tag":"politics","tagsFilter":{"id":{"glob":"!*Post-1"}},"filter":{"id":{"glob":"!*Post-1"},"tags":{"eq":"politics"}},"limit":25,"skip":175,"total":186,"totalPages":8,"currentPage":8,"maxWidth":1024,"maxHeight":512,"locale":"zh","hrefLang":"zh-Hans","originalPath":"/tags/politics/page/8","dateFormat":"YYYY-MM-DD"}},"staticQueryHashes":["1239077767","2506312863","2744905544","3025052997","3493603132","3493603132","3513215887","386998304"]}