{"componentChunkName":"component---node-modules-gatsby-theme-buzzing-src-gatsby-theme-timeline-templates-posts-query-js","path":"/en/tags/gaming/page/11","result":{"data":{"site":{"siteMetadata":{"title":"Reddit 热门","description":"用中文浏览Reddit热门内容","social":[{"name":"Reddit","url":"https://www.reddit.com","external":true,"prefetch":null},{"name":"Buzzing","url":"https://www.buzzing.cc/","external":true,"prefetch":null}],"menuLinks":[{"name":"每周精选","url":"/issues","external":null,"prefetch":null}],"localize":[{"locale":"en","title":"Buzzing on Reddit","description":"See what's buzzing on Reddit in your native language","social":[{"name":"Reddit","url":"https://www.reddit.com/","external":true,"prefetch":null}],"menuLinks":[{"name":"Weekly Selection","url":"/en/issues","external":null,"prefetch":null}]},{"locale":"zh-Hant","title":"Reddit 熱門","description":"用中文瀏覽Reddit熱門內容","social":null,"menuLinks":[{"name":"每週精選","url":"/zh-Hant/issues","external":null,"prefetch":null}]},{"locale":"ja","title":"Reddit 人気の記事","description":"人気のReddit記事を日本語で閲覧","social":null,"menuLinks":[]}]}},"tagsGroup":{"group":[{"fieldValue":"ABoringDystopia","totalCount":3},{"fieldValue":"AOC","totalCount":1},{"fieldValue":"AbruptChaos","totalCount":1},{"fieldValue":"AmongUs","totalCount":2},{"fieldValue":"AnimalsBeingBros","totalCount":1},{"fieldValue":"Art","totalCount":1},{"fieldValue":"AskReddit","totalCount":43},{"fieldValue":"Bad_Cop_No_Donut","totalCount":2},{"fieldValue":"BeAmazed","totalCount":4},{"fieldValue":"BikiniBottomTwitter","totalCount":7},{"fieldValue":"BlackPeopleTwitter","totalCount":89},{"fieldValue":"Bossfight","totalCount":1},{"fieldValue":"CapitolConsequences","totalCount":1},{"fieldValue":"Conservative","totalCount":1},{"fieldValue":"Coronavirus","totalCount":2},{"fieldValue":"Cringetopia","totalCount":11},{"fieldValue":"Damnthatsinteresting","totalCount":83},{"fieldValue":"DunderMifflin","totalCount":1},{"fieldValue":"FuckYouKaren","totalCount":8},{"fieldValue":"FunnyandSad","totalCount":1},{"fieldValue":"Futurology","totalCount":5},{"fieldValue":"GetMotivated","totalCount":1},{"fieldValue":"HolUp","totalCount":104},{"fieldValue":"HumansBeingBros","totalCount":14},{"fieldValue":"IdiotsInCars","totalCount":24},{"fieldValue":"IsTodayFridayThe13th","totalCount":1},{"fieldValue":"JusticeServed","totalCount":4},{"fieldValue":"KamikazeByWords","totalCount":1},{"fieldValue":"KidsAreFuckingStupid","totalCount":5},{"fieldValue":"LeopardsAteMyFace","totalCount":11},{"fieldValue":"LifeProTips","totalCount":26},{"fieldValue":"MadeMeSmile","totalCount":304},{"fieldValue":"Minecraft","totalCount":23},{"fieldValue":"MovieDetails","totalCount":3},{"fieldValue":"MurderedByAOC","totalCount":5},{"fieldValue":"MurderedByWords","totalCount":111},{"fieldValue":"Music","totalCount":2},{"fieldValue":"NatureIsFuckingLit","totalCount":11},{"fieldValue":"NoStupidQuestions","totalCount":1},{"fieldValue":"OldSchoolCool","totalCount":4},{"fieldValue":"PoliticalHumor","totalCount":55},{"fieldValue":"PrequelMemes","totalCount":23},{"fieldValue":"PublicFreakout","totalCount":106},{"fieldValue":"SelfAwarewolves","totalCount":2},{"fieldValue":"ShitPostCrusaders","totalCount":1},{"fieldValue":"ShittyLifeProTips","totalCount":3},{"fieldValue":"Showerthoughts","totalCount":11},{"fieldValue":"StarWars","totalCount":1},{"fieldValue":"TIHI","totalCount":4},{"fieldValue":"ThatsInsane","totalCount":6},{"fieldValue":"TheBoys","totalCount":1},{"fieldValue":"TheRightCantMeme","totalCount":1},{"fieldValue":"TikTokCringe","totalCount":3},{"fieldValue":"Tinder","totalCount":5},{"fieldValue":"ToiletPaperUSA","totalCount":2},{"fieldValue":"TwoXChromosomes","totalCount":2},{"fieldValue":"Unexpected","totalCount":141},{"fieldValue":"UpliftingNews","totalCount":5},{"fieldValue":"WTF","totalCount":1},{"fieldValue":"WallStreetbetsELITE","totalCount":1},{"fieldValue":"WatchPeopleDieInside","totalCount":66},{"fieldValue":"Wellthatsucks","totalCount":32},{"fieldValue":"Whatcouldgowrong","totalCount":17},{"fieldValue":"WhitePeopleTwitter","totalCount":283},{"fieldValue":"WinStupidPrizes","totalCount":1},{"fieldValue":"agedlikemilk","totalCount":2},{"fieldValue":"announcements","totalCount":1},{"fieldValue":"apexlegends","totalCount":1},{"fieldValue":"assholedesign","totalCount":4},{"fieldValue":"awfuleverything","totalCount":7},{"fieldValue":"aww","totalCount":392},{"fieldValue":"blackmagicfuckery","totalCount":7},{"fieldValue":"blog","totalCount":2},{"fieldValue":"blursedimages","totalCount":7},{"fieldValue":"canada","totalCount":1},{"fieldValue":"clevercomebacks","totalCount":2},{"fieldValue":"comedyheaven","totalCount":10},{"fieldValue":"confidentlyincorrect","totalCount":2},{"fieldValue":"coolguides","totalCount":5},{"fieldValue":"cursedcomments","totalCount":53},{"fieldValue":"cyberpunkgame","totalCount":3},{"fieldValue":"dankmemes","totalCount":448},{"fieldValue":"dataisbeautiful","totalCount":6},{"fieldValue":"dndmemes","totalCount":1},{"fieldValue":"dogecoin","totalCount":1},{"fieldValue":"europe","totalCount":1},{"fieldValue":"facepalm","totalCount":143},{"fieldValue":"funny","totalCount":339},{"fieldValue":"gaming","totalCount":253},{"fieldValue":"gatekeeping","totalCount":1},{"fieldValue":"gifs","totalCount":49},{"fieldValue":"harrypotter","totalCount":1},{"fieldValue":"iamatotalpieceofshit","totalCount":15},{"fieldValue":"insanepeoplefacebook","totalCount":9},{"fieldValue":"instant_regret","totalCount":9},{"fieldValue":"instantkarma","totalCount":1},{"fieldValue":"interestingasfuck","totalCount":432},{"fieldValue":"intermittentfasting","totalCount":1},{"fieldValue":"lotrmemes","totalCount":1},{"fieldValue":"madlads","totalCount":9},{"fieldValue":"marvelstudios","totalCount":2},{"fieldValue":"me_irl","totalCount":17},{"fieldValue":"memes","totalCount":1081},{"fieldValue":"mildlyinfuriating","totalCount":23},{"fieldValue":"mildlyinteresting","totalCount":100},{"fieldValue":"movies","totalCount":11},{"fieldValue":"natureismetal","totalCount":3},{"fieldValue":"nevertellmetheodds","totalCount":3},{"fieldValue":"news","totalCount":131},{"fieldValue":"nextfuckinglevel","totalCount":594},{"fieldValue":"nottheonion","totalCount":20},{"fieldValue":"oddlysatisfying","totalCount":46},{"fieldValue":"pcmasterrace","totalCount":11},{"fieldValue":"perfectlycutscreams","totalCount":1},{"fieldValue":"pics","totalCount":373},{"fieldValue":"politics","totalCount":186},{"fieldValue":"povertyfinance","totalCount":1},{"fieldValue":"quityourbullshit","totalCount":2},{"fieldValue":"rareinsults","totalCount":15},{"fieldValue":"rarepuppers","totalCount":1},{"fieldValue":"reddit","totalCount":7160},{"fieldValue":"sadcringe","totalCount":1},{"fieldValue":"science","totalCount":23},{"fieldValue":"shittymoviedetails","totalCount":2},{"fieldValue":"space","totalCount":9},{"fieldValue":"specializedtools","totalCount":1},{"fieldValue":"sports","totalCount":2},{"fieldValue":"starterpacks","totalCount":11},{"fieldValue":"stocks","totalCount":1},{"fieldValue":"suspiciouslyspecific","totalCount":1},{"fieldValue":"technicallythetruth","totalCount":12},{"fieldValue":"technology","totalCount":16},{"fieldValue":"teenagers","totalCount":19},{"fieldValue":"therewasanattempt","totalCount":3},{"fieldValue":"tifu","totalCount":1},{"fieldValue":"todayilearned","totalCount":105},{"fieldValue":"toptalent","totalCount":2},{"fieldValue":"trashy","totalCount":2},{"fieldValue":"trippinthroughtime","totalCount":2},{"fieldValue":"videos","totalCount":4},{"fieldValue":"wallstreetbets","totalCount":176},{"fieldValue":"wholesomememes","totalCount":121},{"fieldValue":"woahdude","totalCount":1},{"fieldValue":"worldnews","totalCount":108},{"fieldValue":"youseeingthisshit","totalCount":1}]},"allBlogPost":{"nodes":[{"__typename":"SocialMediaPost","id":"RedditPost-jtflw3","excerpt":"","slug":"/reddit/r/gaming/comments/jtflw3/the_other_poster_is_right_this_thing_is_massive/","title":"The other poster is right, this thing is massive!!","date":"November 13, 2020","dateISO":"2020-11-13T11:45:39.000Z","datetime":"2020-11-13 11:45","tags":["gaming","reddit"],"image":null,"imageAlt":"Reddit Image","provider":"Reddit","thirdPartyId":"jtflw3","url":"https://www.reddit.com/r/gaming/comments/jtflw3/the_other_poster_is_right_this_thing_is_massive/","originalUrl":"https://www.reddit.com/r/gaming/comments/jtflw3/the_other_poster_is_right_this_thing_is_massive/","imageRemote":"https://preview.redd.it/7i0suf98wzy51.jpg?width=1080&crop=smart&auto=webp&s=8a48bb8ff9fd6549940d8fb8b55b99a70d9f3d67","video":null,"channel":"gaming","channelUrl":"https://www.reddit.com/r/gaming","author":"VidE27","authorUrl":"https://www.reddit.com/user/VidE27","authorImage":null,"authorSlug":"VidE27","score":91889,"views":null,"sharedCount":null,"likeCount":null,"sharedContent":null,"parent":{"__typename":"RedditJson","localize":[{"title":"另一张海报是对的，这东西太大了！","the_new_excerpt":null,"locale":"zh"},{"title":"另壹張海報是對的，這東西太大了！","the_new_excerpt":null,"locale":"zh-Hant"}]}},{"__typename":"SocialMediaPost","id":"RedditPost-jtbpbl","excerpt":"","slug":"/reddit/r/gaming/comments/jtbpbl/the_attention_to_detail_is_incredible/","title":"The attention to detail is incredible.","date":"November 13, 2020","dateISO":"2020-11-13T05:50:21.000Z","datetime":"2020-11-13 05:50","tags":["gaming","reddit"],"image":null,"imageAlt":"Reddit Image","provider":"Reddit","thirdPartyId":"jtbpbl","url":"https://www.reddit.com/r/gaming/comments/jtbpbl/the_attention_to_detail_is_incredible/","originalUrl":"https://www.reddit.com/r/gaming/comments/jtbpbl/the_attention_to_detail_is_incredible/","imageRemote":"https://preview.redd.it/6gzlmp7u4yy51.jpg?width=1080&crop=smart&auto=webp&s=6062ad9643f0df5ec0034bf1ed59c88934351c2d","video":null,"channel":"gaming","channelUrl":"https://www.reddit.com/r/gaming","author":"SarkHD","authorUrl":"https://www.reddit.com/user/SarkHD","authorImage":null,"authorSlug":"SarkHD","score":102448,"views":null,"sharedCount":null,"likeCount":null,"sharedContent":null,"parent":{"__typename":"RedditJson","localize":[{"title":"对细节的关注令人难以置信。","the_new_excerpt":null,"locale":"zh"},{"title":"對細節的關註令人難以置信。","the_new_excerpt":null,"locale":"zh-Hant"}]}},{"__typename":"SocialMediaPost","id":"RedditPost-jt3gie","excerpt":"","slug":"/reddit/r/gaming/comments/jt3gie/very_relevant/","title":"Very relevant","date":"November 12, 2020","dateISO":"2020-11-12T21:17:56.000Z","datetime":"2020-11-12 21:17","tags":["gaming","reddit"],"image":null,"imageAlt":"Reddit Image","provider":"Reddit","thirdPartyId":"jt3gie","url":"https://www.reddit.com/r/gaming/comments/jt3gie/very_relevant/","originalUrl":"https://www.reddit.com/r/gaming/comments/jt3gie/very_relevant/","imageRemote":"https://preview.redd.it/gj2hcdfflvy51.jpg?width=640&crop=smart&auto=webp&s=4d673ad336f60d57634887ffbb73e313f7a9ddf3","video":null,"channel":"gaming","channelUrl":"https://www.reddit.com/r/gaming","author":"Nicko9522","authorUrl":"https://www.reddit.com/user/Nicko9522","authorImage":null,"authorSlug":"Nicko9522","score":162698,"views":null,"sharedCount":null,"likeCount":null,"sharedContent":null,"parent":{"__typename":"RedditJson","localize":[{"title":"非常相关","the_new_excerpt":null,"locale":"zh"},{"title":"非常相關","the_new_excerpt":null,"locale":"zh-Hant"}]}}]}},"pageContext":{"basePath":"/","pageType":"tag","tag":"gaming","tagsFilter":{"id":{"glob":"!*Post-1"}},"filter":{"id":{"glob":"!*Post-1"},"tags":{"eq":"gaming"}},"limit":25,"skip":250,"total":253,"totalPages":11,"currentPage":11,"maxWidth":1024,"maxHeight":512,"locale":"en","hrefLang":"en-US","originalPath":"/tags/gaming/page/11","dateFormat":"MM/DD/YYYY"}},"staticQueryHashes":["1239077767","2506312863","2744905544","3025052997","3493603132","3493603132","3513215887","386998304"]}