{"componentChunkName":"component---node-modules-gatsby-theme-buzzing-src-gatsby-theme-timeline-templates-posts-query-js","path":"/tags/white-people-twitter/page/12","result":{"data":{"site":{"siteMetadata":{"title":"Reddit 热门","description":"用中文浏览Reddit热门内容","social":[{"name":"Reddit","url":"https://www.reddit.com","external":true,"prefetch":null},{"name":"Buzzing","url":"https://www.buzzing.cc/","external":true,"prefetch":null}],"menuLinks":[{"name":"每周精选","url":"/issues","external":null,"prefetch":null}],"localize":[{"locale":"en","title":"Buzzing on Reddit","description":"See what's buzzing on Reddit in your native language","social":[{"name":"Reddit","url":"https://www.reddit.com/","external":true,"prefetch":null}],"menuLinks":[{"name":"Weekly Selection","url":"/en/issues","external":null,"prefetch":null}]},{"locale":"zh-Hant","title":"Reddit 熱門","description":"用中文瀏覽Reddit熱門內容","social":null,"menuLinks":[{"name":"每週精選","url":"/zh-Hant/issues","external":null,"prefetch":null}]},{"locale":"ja","title":"Reddit 人気の記事","description":"人気のReddit記事を日本語で閲覧","social":null,"menuLinks":[]}]}},"tagsGroup":{"group":[{"fieldValue":"ABoringDystopia","totalCount":3},{"fieldValue":"AOC","totalCount":1},{"fieldValue":"AbruptChaos","totalCount":1},{"fieldValue":"AmongUs","totalCount":2},{"fieldValue":"AnimalsBeingBros","totalCount":1},{"fieldValue":"Art","totalCount":1},{"fieldValue":"AskReddit","totalCount":43},{"fieldValue":"Bad_Cop_No_Donut","totalCount":2},{"fieldValue":"BeAmazed","totalCount":4},{"fieldValue":"BikiniBottomTwitter","totalCount":7},{"fieldValue":"BlackPeopleTwitter","totalCount":87},{"fieldValue":"Bossfight","totalCount":1},{"fieldValue":"CapitolConsequences","totalCount":1},{"fieldValue":"Conservative","totalCount":1},{"fieldValue":"Coronavirus","totalCount":2},{"fieldValue":"Cringetopia","totalCount":11},{"fieldValue":"Damnthatsinteresting","totalCount":80},{"fieldValue":"DunderMifflin","totalCount":1},{"fieldValue":"FuckYouKaren","totalCount":7},{"fieldValue":"FunnyandSad","totalCount":1},{"fieldValue":"Futurology","totalCount":5},{"fieldValue":"GetMotivated","totalCount":1},{"fieldValue":"HolUp","totalCount":101},{"fieldValue":"HumansBeingBros","totalCount":14},{"fieldValue":"IdiotsInCars","totalCount":22},{"fieldValue":"IsTodayFridayThe13th","totalCount":1},{"fieldValue":"JusticeServed","totalCount":4},{"fieldValue":"KamikazeByWords","totalCount":1},{"fieldValue":"KidsAreFuckingStupid","totalCount":5},{"fieldValue":"LeopardsAteMyFace","totalCount":11},{"fieldValue":"LifeProTips","totalCount":25},{"fieldValue":"MadeMeSmile","totalCount":298},{"fieldValue":"Minecraft","totalCount":23},{"fieldValue":"MovieDetails","totalCount":3},{"fieldValue":"MurderedByAOC","totalCount":5},{"fieldValue":"MurderedByWords","totalCount":106},{"fieldValue":"Music","totalCount":2},{"fieldValue":"NatureIsFuckingLit","totalCount":10},{"fieldValue":"NoStupidQuestions","totalCount":1},{"fieldValue":"OldSchoolCool","totalCount":4},{"fieldValue":"PoliticalHumor","totalCount":54},{"fieldValue":"PrequelMemes","totalCount":23},{"fieldValue":"PublicFreakout","totalCount":105},{"fieldValue":"SelfAwarewolves","totalCount":2},{"fieldValue":"ShitPostCrusaders","totalCount":1},{"fieldValue":"ShittyLifeProTips","totalCount":3},{"fieldValue":"Showerthoughts","totalCount":11},{"fieldValue":"StarWars","totalCount":1},{"fieldValue":"TIHI","totalCount":4},{"fieldValue":"ThatsInsane","totalCount":6},{"fieldValue":"TheBoys","totalCount":1},{"fieldValue":"TheRightCantMeme","totalCount":1},{"fieldValue":"TikTokCringe","totalCount":3},{"fieldValue":"Tinder","totalCount":5},{"fieldValue":"ToiletPaperUSA","totalCount":2},{"fieldValue":"TwoXChromosomes","totalCount":2},{"fieldValue":"Unexpected","totalCount":136},{"fieldValue":"UpliftingNews","totalCount":5},{"fieldValue":"WTF","totalCount":1},{"fieldValue":"WallStreetbetsELITE","totalCount":1},{"fieldValue":"WatchPeopleDieInside","totalCount":65},{"fieldValue":"Wellthatsucks","totalCount":32},{"fieldValue":"Whatcouldgowrong","totalCount":17},{"fieldValue":"WhitePeopleTwitter","totalCount":281},{"fieldValue":"WinStupidPrizes","totalCount":1},{"fieldValue":"agedlikemilk","totalCount":2},{"fieldValue":"announcements","totalCount":1},{"fieldValue":"assholedesign","totalCount":4},{"fieldValue":"awfuleverything","totalCount":7},{"fieldValue":"aww","totalCount":386},{"fieldValue":"blackmagicfuckery","totalCount":6},{"fieldValue":"blog","totalCount":2},{"fieldValue":"blursedimages","totalCount":7},{"fieldValue":"canada","totalCount":1},{"fieldValue":"clevercomebacks","totalCount":2},{"fieldValue":"comedyheaven","totalCount":10},{"fieldValue":"confidentlyincorrect","totalCount":2},{"fieldValue":"coolguides","totalCount":5},{"fieldValue":"cursedcomments","totalCount":53},{"fieldValue":"cyberpunkgame","totalCount":3},{"fieldValue":"dankmemes","totalCount":444},{"fieldValue":"dataisbeautiful","totalCount":6},{"fieldValue":"dndmemes","totalCount":1},{"fieldValue":"dogecoin","totalCount":1},{"fieldValue":"europe","totalCount":1},{"fieldValue":"facepalm","totalCount":141},{"fieldValue":"funny","totalCount":332},{"fieldValue":"gaming","totalCount":249},{"fieldValue":"gatekeeping","totalCount":1},{"fieldValue":"gifs","totalCount":49},{"fieldValue":"harrypotter","totalCount":1},{"fieldValue":"iamatotalpieceofshit","totalCount":15},{"fieldValue":"insanepeoplefacebook","totalCount":9},{"fieldValue":"instant_regret","totalCount":8},{"fieldValue":"instantkarma","totalCount":1},{"fieldValue":"interestingasfuck","totalCount":431},{"fieldValue":"intermittentfasting","totalCount":1},{"fieldValue":"lotrmemes","totalCount":1},{"fieldValue":"madlads","totalCount":9},{"fieldValue":"marvelstudios","totalCount":2},{"fieldValue":"me_irl","totalCount":17},{"fieldValue":"memes","totalCount":1071},{"fieldValue":"mildlyinfuriating","totalCount":23},{"fieldValue":"mildlyinteresting","totalCount":98},{"fieldValue":"movies","totalCount":11},{"fieldValue":"natureismetal","totalCount":3},{"fieldValue":"nevertellmetheodds","totalCount":3},{"fieldValue":"news","totalCount":127},{"fieldValue":"nextfuckinglevel","totalCount":583},{"fieldValue":"nottheonion","totalCount":20},{"fieldValue":"oddlysatisfying","totalCount":46},{"fieldValue":"pcmasterrace","totalCount":11},{"fieldValue":"perfectlycutscreams","totalCount":1},{"fieldValue":"pics","totalCount":367},{"fieldValue":"politics","totalCount":186},{"fieldValue":"povertyfinance","totalCount":1},{"fieldValue":"quityourbullshit","totalCount":2},{"fieldValue":"rareinsults","totalCount":15},{"fieldValue":"rarepuppers","totalCount":1},{"fieldValue":"reddit","totalCount":7062},{"fieldValue":"sadcringe","totalCount":1},{"fieldValue":"science","totalCount":23},{"fieldValue":"shittymoviedetails","totalCount":2},{"fieldValue":"space","totalCount":9},{"fieldValue":"specializedtools","totalCount":1},{"fieldValue":"sports","totalCount":2},{"fieldValue":"starterpacks","totalCount":11},{"fieldValue":"stocks","totalCount":1},{"fieldValue":"suspiciouslyspecific","totalCount":1},{"fieldValue":"technicallythetruth","totalCount":12},{"fieldValue":"technology","totalCount":16},{"fieldValue":"teenagers","totalCount":19},{"fieldValue":"therewasanattempt","totalCount":3},{"fieldValue":"tifu","totalCount":1},{"fieldValue":"todayilearned","totalCount":105},{"fieldValue":"toptalent","totalCount":2},{"fieldValue":"trashy","totalCount":2},{"fieldValue":"trippinthroughtime","totalCount":2},{"fieldValue":"videos","totalCount":4},{"fieldValue":"wallstreetbets","totalCount":176},{"fieldValue":"wholesomememes","totalCount":118},{"fieldValue":"woahdude","totalCount":1},{"fieldValue":"worldnews","totalCount":107},{"fieldValue":"youseeingthisshit","totalCount":1}]},"allBlogPost":{"nodes":[{"__typename":"SocialMediaPost","id":"RedditPost-jty9o5","excerpt":"","slug":"/reddit/r/WhitePeopleTwitter/comments/jty9o5/hes_absolutely_right_now_that_i_think_about_it/","title":"He's absolutely right, now that I think about it.","date":"November 14, 2020","dateISO":"2020-11-14T07:40:44.000Z","datetime":"2020-11-14 07:40","tags":["WhitePeopleTwitter","reddit"],"image":null,"imageAlt":"Reddit Image","provider":"Reddit","thirdPartyId":"jty9o5","url":"https://www.reddit.com/r/WhitePeopleTwitter/comments/jty9o5/hes_absolutely_right_now_that_i_think_about_it/","originalUrl":"https://www.reddit.com/r/WhitePeopleTwitter/comments/jty9o5/hes_absolutely_right_now_that_i_think_about_it/","imageRemote":"https://preview.redd.it/32aw1vcgt5z51.jpg?width=320&crop=smart&auto=webp&s=bf6887340f6ce3c305e07d9a5a283915f2be286a","video":null,"channel":"WhitePeopleTwitter","channelUrl":"https://www.reddit.com/r/WhitePeopleTwitter","author":"Legendariummc","authorUrl":"https://www.reddit.com/user/Legendariummc","authorImage":null,"authorSlug":"Legendariummc","score":80083,"views":null,"sharedCount":null,"likeCount":null,"sharedContent":null,"parent":{"__typename":"RedditJson","localize":[{"title":"现在我想起来，他是完全正确的。","the_new_excerpt":null,"locale":"zh"},{"title":"現在我想起來，他是完全正確的。","the_new_excerpt":null,"locale":"zh-Hant"}]}},{"__typename":"SocialMediaPost","id":"RedditPost-jtsjbk","excerpt":"","slug":"/reddit/r/WhitePeopleTwitter/comments/jtsjbk/congrats/","title":"Congrats!","date":"November 14, 2020","dateISO":"2020-11-14T00:54:32.000Z","datetime":"2020-11-14 00:54","tags":["WhitePeopleTwitter","reddit"],"image":null,"imageAlt":"Reddit Image","provider":"Reddit","thirdPartyId":"jtsjbk","url":"https://www.reddit.com/r/WhitePeopleTwitter/comments/jtsjbk/congrats/","originalUrl":"https://www.reddit.com/r/WhitePeopleTwitter/comments/jtsjbk/congrats/","imageRemote":"https://external-preview.redd.it/hOngeCsdAJTOLrte2vphQW1Gi5kaUfsTVlhOgSmlUXQ.jpg?width=640&crop=smart&auto=webp&s=dc4e34f438b16f638ef03e87f3f4523ecdfd831e","video":null,"channel":"WhitePeopleTwitter","channelUrl":"https://www.reddit.com/r/WhitePeopleTwitter","author":"silkworth20","authorUrl":"https://www.reddit.com/user/silkworth20","authorImage":null,"authorSlug":"silkworth20","score":83299,"views":null,"sharedCount":null,"likeCount":null,"sharedContent":null,"parent":{"__typename":"RedditJson","localize":[{"title":"恭喜你！","the_new_excerpt":null,"locale":"zh"},{"title":"恭喜妳！","the_new_excerpt":null,"locale":"zh-Hant"}]}},{"__typename":"SocialMediaPost","id":"RedditPost-jto4z2","excerpt":"","slug":"/reddit/r/WhitePeopleTwitter/comments/jto4z2/military_service_should_automatically_grant/","title":"military service should automatically grant citizenship","date":"November 13, 2020","dateISO":"2020-11-13T20:49:15.000Z","datetime":"2020-11-13 20:49","tags":["WhitePeopleTwitter","reddit"],"image":null,"imageAlt":"Reddit Image","provider":"Reddit","thirdPartyId":"jto4z2","url":"https://www.reddit.com/r/WhitePeopleTwitter/comments/jto4z2/military_service_should_automatically_grant/","originalUrl":"https://www.reddit.com/r/WhitePeopleTwitter/comments/jto4z2/military_service_should_automatically_grant/","imageRemote":"https://preview.redd.it/l8mktve4l2z51.png?width=640&crop=smart&auto=webp&s=739a02bf86fcd953e48e6c74565aed052db2f516","video":null,"channel":"WhitePeopleTwitter","channelUrl":"https://www.reddit.com/r/WhitePeopleTwitter","author":"SkrooImperator","authorUrl":"https://www.reddit.com/user/SkrooImperator","authorImage":null,"authorSlug":"SkrooImperator","score":89650,"views":null,"sharedCount":null,"likeCount":null,"sharedContent":null,"parent":{"__typename":"RedditJson","localize":[{"title":"服兵役应该自动授予公民身份","the_new_excerpt":null,"locale":"zh"},{"title":"服兵役應該自動授予公民身份","the_new_excerpt":null,"locale":"zh-Hant"}]}},{"__typename":"SocialMediaPost","id":"RedditPost-jthmu4","excerpt":"","slug":"/reddit/r/WhitePeopleTwitter/comments/jthmu4/i_almost_forgot/","title":"I almost forgot.","date":"November 13, 2020","dateISO":"2020-11-13T15:29:58.000Z","datetime":"2020-11-13 15:29","tags":["WhitePeopleTwitter","reddit"],"image":null,"imageAlt":"Reddit Image","provider":"Reddit","thirdPartyId":"jthmu4","url":"https://www.reddit.com/r/WhitePeopleTwitter/comments/jthmu4/i_almost_forgot/","originalUrl":"https://www.reddit.com/r/WhitePeopleTwitter/comments/jthmu4/i_almost_forgot/","imageRemote":"https://external-preview.redd.it/6bdEI0PZJib1YBqNdM8SObe-QGXxIf9dQ9IEq7y35sk.jpg?width=640&crop=smart&auto=webp&s=eb4b63aa851ea562d5c8cdc5bc20352151bc961e","video":null,"channel":"WhitePeopleTwitter","channelUrl":"https://www.reddit.com/r/WhitePeopleTwitter","author":"silkworth20","authorUrl":"https://www.reddit.com/user/silkworth20","authorImage":null,"authorSlug":"silkworth20","score":79652,"views":null,"sharedCount":null,"likeCount":null,"sharedContent":null,"parent":{"__typename":"RedditJson","localize":[{"title":"我差点忘了。","the_new_excerpt":null,"locale":"zh"},{"title":"我差點忘了。","the_new_excerpt":null,"locale":"zh-Hant"}]}},{"__typename":"SocialMediaPost","id":"RedditPost-jt6py5","excerpt":"","slug":"/reddit/r/WhitePeopleTwitter/comments/jt6py5/hear_him_out/","title":"Hear him out.","date":"November 13, 2020","dateISO":"2020-11-13T00:18:33.000Z","datetime":"2020-11-13 00:18","tags":["WhitePeopleTwitter","reddit"],"image":null,"imageAlt":"Reddit Image","provider":"Reddit","thirdPartyId":"jt6py5","url":"https://www.reddit.com/r/WhitePeopleTwitter/comments/jt6py5/hear_him_out/","originalUrl":"https://www.reddit.com/r/WhitePeopleTwitter/comments/jt6py5/hear_him_out/","imageRemote":"https://preview.redd.it/k22blcvmhwy51.jpg?width=1080&crop=smart&auto=webp&s=1727d79395af073bf12655e9833c26fc4af47b4b","video":null,"channel":"WhitePeopleTwitter","channelUrl":"https://www.reddit.com/r/WhitePeopleTwitter","author":"youngsurpriseperson","authorUrl":"https://www.reddit.com/user/youngsurpriseperson","authorImage":null,"authorSlug":"youngsurpriseperson","score":99925,"views":null,"sharedCount":null,"likeCount":null,"sharedContent":null,"parent":{"__typename":"RedditJson","localize":[{"title":"听他把话说完。","the_new_excerpt":null,"locale":"zh"},{"title":"聽他把話說完。","the_new_excerpt":null,"locale":"zh-Hant"}]}},{"__typename":"SocialMediaPost","id":"RedditPost-jt1q73","excerpt":"","slug":"/reddit/r/WhitePeopleTwitter/comments/jt1q73/its_your_own_damn_fault/","title":"It's your own damn fault","date":"November 12, 2020","dateISO":"2020-11-12T19:49:55.000Z","datetime":"2020-11-12 19:49","tags":["WhitePeopleTwitter","reddit"],"image":null,"imageAlt":"Reddit Image","provider":"Reddit","thirdPartyId":"jt1q73","url":"https://www.reddit.com/r/WhitePeopleTwitter/comments/jt1q73/its_your_own_damn_fault/","originalUrl":"https://www.reddit.com/r/WhitePeopleTwitter/comments/jt1q73/its_your_own_damn_fault/","imageRemote":"https://preview.redd.it/cqaj69lo5vy51.jpg?width=1080&crop=smart&auto=webp&s=b922536109f3c04a03f19ff7dae0b1f8670edea8","video":null,"channel":"WhitePeopleTwitter","channelUrl":"https://www.reddit.com/r/WhitePeopleTwitter","author":"BarelyLegalSeagull","authorUrl":"https://www.reddit.com/user/BarelyLegalSeagull","authorImage":null,"authorSlug":"BarelyLegalSeagull","score":80567,"views":null,"sharedCount":null,"likeCount":null,"sharedContent":null,"parent":{"__typename":"RedditJson","localize":[{"title":"这是你自己的错","the_new_excerpt":null,"locale":"zh"},{"title":"這是妳自己的錯","the_new_excerpt":null,"locale":"zh-Hant"}]}}]}},"pageContext":{"basePath":"/","pageType":"tag","tag":"WhitePeopleTwitter","tagsFilter":{"id":{"glob":"!*Post-1"}},"filter":{"id":{"glob":"!*Post-1"},"tags":{"eq":"WhitePeopleTwitter"}},"limit":25,"skip":275,"total":281,"totalPages":12,"currentPage":12,"maxWidth":1024,"maxHeight":512,"locale":"zh","hrefLang":"zh-Hans","originalPath":"/tags/white-people-twitter/page/12","dateFormat":"YYYY-MM-DD"}},"staticQueryHashes":["1239077767","2506312863","2744905544","3025052997","3493603132","3493603132","3513215887","386998304"]}