{"componentChunkName":"component---node-modules-gatsby-theme-buzzing-src-gatsby-theme-timeline-templates-posts-query-js","path":"/zh-Hant/tags/interestingasfuck/page/18","result":{"data":{"site":{"siteMetadata":{"title":"Reddit 热门","description":"用中文浏览Reddit热门内容","social":[{"name":"Reddit","url":"https://www.reddit.com","external":true,"prefetch":null},{"name":"Buzzing","url":"https://www.buzzing.cc/","external":true,"prefetch":null}],"menuLinks":[{"name":"每周精选","url":"/issues","external":null,"prefetch":null}],"localize":[{"locale":"en","title":"Buzzing on Reddit","description":"See what's buzzing on Reddit in your native language","social":[{"name":"Reddit","url":"https://www.reddit.com/","external":true,"prefetch":null}],"menuLinks":[{"name":"Weekly Selection","url":"/en/issues","external":null,"prefetch":null}]},{"locale":"zh-Hant","title":"Reddit 熱門","description":"用中文瀏覽Reddit熱門內容","social":null,"menuLinks":[{"name":"每週精選","url":"/zh-Hant/issues","external":null,"prefetch":null}]},{"locale":"ja","title":"Reddit 人気の記事","description":"人気のReddit記事を日本語で閲覧","social":null,"menuLinks":[]}]}},"tagsGroup":{"group":[{"fieldValue":"ABoringDystopia","totalCount":3},{"fieldValue":"AOC","totalCount":1},{"fieldValue":"AbruptChaos","totalCount":1},{"fieldValue":"AmongUs","totalCount":2},{"fieldValue":"AnimalsBeingBros","totalCount":1},{"fieldValue":"Art","totalCount":1},{"fieldValue":"AskReddit","totalCount":43},{"fieldValue":"Bad_Cop_No_Donut","totalCount":2},{"fieldValue":"BeAmazed","totalCount":4},{"fieldValue":"BikiniBottomTwitter","totalCount":7},{"fieldValue":"BlackPeopleTwitter","totalCount":90},{"fieldValue":"Bossfight","totalCount":1},{"fieldValue":"CapitolConsequences","totalCount":1},{"fieldValue":"Conservative","totalCount":1},{"fieldValue":"Coronavirus","totalCount":2},{"fieldValue":"Cringetopia","totalCount":11},{"fieldValue":"Damnthatsinteresting","totalCount":83},{"fieldValue":"DunderMifflin","totalCount":1},{"fieldValue":"FuckYouKaren","totalCount":8},{"fieldValue":"FunnyandSad","totalCount":1},{"fieldValue":"Futurology","totalCount":5},{"fieldValue":"GetMotivated","totalCount":1},{"fieldValue":"HolUp","totalCount":104},{"fieldValue":"HumansBeingBros","totalCount":14},{"fieldValue":"IdiotsInCars","totalCount":24},{"fieldValue":"IsTodayFridayThe13th","totalCount":1},{"fieldValue":"JusticeServed","totalCount":4},{"fieldValue":"KamikazeByWords","totalCount":1},{"fieldValue":"KidsAreFuckingStupid","totalCount":5},{"fieldValue":"LeopardsAteMyFace","totalCount":11},{"fieldValue":"LifeProTips","totalCount":26},{"fieldValue":"MadeMeSmile","totalCount":304},{"fieldValue":"Minecraft","totalCount":23},{"fieldValue":"MovieDetails","totalCount":3},{"fieldValue":"MurderedByAOC","totalCount":5},{"fieldValue":"MurderedByWords","totalCount":111},{"fieldValue":"Music","totalCount":2},{"fieldValue":"NatureIsFuckingLit","totalCount":11},{"fieldValue":"NoStupidQuestions","totalCount":1},{"fieldValue":"OldSchoolCool","totalCount":4},{"fieldValue":"PoliticalHumor","totalCount":55},{"fieldValue":"PrequelMemes","totalCount":23},{"fieldValue":"PublicFreakout","totalCount":106},{"fieldValue":"SelfAwarewolves","totalCount":2},{"fieldValue":"ShitPostCrusaders","totalCount":1},{"fieldValue":"ShittyLifeProTips","totalCount":3},{"fieldValue":"Showerthoughts","totalCount":11},{"fieldValue":"StarWars","totalCount":1},{"fieldValue":"TIHI","totalCount":4},{"fieldValue":"ThatsInsane","totalCount":6},{"fieldValue":"TheBoys","totalCount":1},{"fieldValue":"TheRightCantMeme","totalCount":1},{"fieldValue":"TikTokCringe","totalCount":3},{"fieldValue":"Tinder","totalCount":5},{"fieldValue":"ToiletPaperUSA","totalCount":2},{"fieldValue":"TwoXChromosomes","totalCount":2},{"fieldValue":"Unexpected","totalCount":141},{"fieldValue":"UpliftingNews","totalCount":5},{"fieldValue":"WTF","totalCount":1},{"fieldValue":"WallStreetbetsELITE","totalCount":1},{"fieldValue":"WatchPeopleDieInside","totalCount":66},{"fieldValue":"Wellthatsucks","totalCount":32},{"fieldValue":"Whatcouldgowrong","totalCount":17},{"fieldValue":"WhitePeopleTwitter","totalCount":284},{"fieldValue":"WinStupidPrizes","totalCount":1},{"fieldValue":"agedlikemilk","totalCount":2},{"fieldValue":"announcements","totalCount":1},{"fieldValue":"apexlegends","totalCount":1},{"fieldValue":"assholedesign","totalCount":4},{"fieldValue":"awfuleverything","totalCount":7},{"fieldValue":"aww","totalCount":392},{"fieldValue":"blackmagicfuckery","totalCount":7},{"fieldValue":"blog","totalCount":2},{"fieldValue":"blursedimages","totalCount":7},{"fieldValue":"canada","totalCount":1},{"fieldValue":"clevercomebacks","totalCount":2},{"fieldValue":"comedyheaven","totalCount":10},{"fieldValue":"confidentlyincorrect","totalCount":2},{"fieldValue":"coolguides","totalCount":5},{"fieldValue":"cursedcomments","totalCount":54},{"fieldValue":"cyberpunkgame","totalCount":3},{"fieldValue":"dankmemes","totalCount":448},{"fieldValue":"dataisbeautiful","totalCount":6},{"fieldValue":"dndmemes","totalCount":1},{"fieldValue":"dogecoin","totalCount":1},{"fieldValue":"europe","totalCount":1},{"fieldValue":"facepalm","totalCount":143},{"fieldValue":"funny","totalCount":339},{"fieldValue":"gaming","totalCount":253},{"fieldValue":"gatekeeping","totalCount":1},{"fieldValue":"gifs","totalCount":49},{"fieldValue":"harrypotter","totalCount":1},{"fieldValue":"iamatotalpieceofshit","totalCount":15},{"fieldValue":"insanepeoplefacebook","totalCount":9},{"fieldValue":"instant_regret","totalCount":9},{"fieldValue":"instantkarma","totalCount":1},{"fieldValue":"interestingasfuck","totalCount":432},{"fieldValue":"intermittentfasting","totalCount":1},{"fieldValue":"lotrmemes","totalCount":1},{"fieldValue":"madlads","totalCount":9},{"fieldValue":"marvelstudios","totalCount":2},{"fieldValue":"me_irl","totalCount":17},{"fieldValue":"memes","totalCount":1081},{"fieldValue":"mildlyinfuriating","totalCount":23},{"fieldValue":"mildlyinteresting","totalCount":100},{"fieldValue":"movies","totalCount":11},{"fieldValue":"natureismetal","totalCount":3},{"fieldValue":"nevertellmetheodds","totalCount":3},{"fieldValue":"news","totalCount":131},{"fieldValue":"nextfuckinglevel","totalCount":595},{"fieldValue":"nottheonion","totalCount":21},{"fieldValue":"oddlysatisfying","totalCount":46},{"fieldValue":"pcmasterrace","totalCount":11},{"fieldValue":"perfectlycutscreams","totalCount":1},{"fieldValue":"pics","totalCount":373},{"fieldValue":"politics","totalCount":186},{"fieldValue":"povertyfinance","totalCount":1},{"fieldValue":"quityourbullshit","totalCount":2},{"fieldValue":"rareinsults","totalCount":15},{"fieldValue":"rarepuppers","totalCount":1},{"fieldValue":"reddit","totalCount":7165},{"fieldValue":"sadcringe","totalCount":1},{"fieldValue":"science","totalCount":23},{"fieldValue":"shittymoviedetails","totalCount":2},{"fieldValue":"space","totalCount":9},{"fieldValue":"specializedtools","totalCount":1},{"fieldValue":"sports","totalCount":2},{"fieldValue":"starterpacks","totalCount":11},{"fieldValue":"stocks","totalCount":1},{"fieldValue":"suspiciouslyspecific","totalCount":1},{"fieldValue":"technicallythetruth","totalCount":12},{"fieldValue":"technology","totalCount":16},{"fieldValue":"teenagers","totalCount":19},{"fieldValue":"therewasanattempt","totalCount":3},{"fieldValue":"tifu","totalCount":1},{"fieldValue":"todayilearned","totalCount":105},{"fieldValue":"toptalent","totalCount":2},{"fieldValue":"trashy","totalCount":2},{"fieldValue":"trippinthroughtime","totalCount":2},{"fieldValue":"videos","totalCount":4},{"fieldValue":"wallstreetbets","totalCount":176},{"fieldValue":"wholesomememes","totalCount":121},{"fieldValue":"woahdude","totalCount":1},{"fieldValue":"worldnews","totalCount":108},{"fieldValue":"youseeingthisshit","totalCount":1}]},"allBlogPost":{"nodes":[{"__typename":"SocialMediaPost","id":"RedditPost-juv76b","excerpt":"","slug":"/reddit/r/interestingasfuck/comments/juv76b/this_is_believed_to_be_the_first_aerial_shot_of/","title":"This is believed to be the first Aerial shot of Edinburgh, Scotland. 1920s","date":"November 16, 2020","dateISO":"2020-11-16T16:19:48.000Z","datetime":"2020-11-16 16:19","tags":["interestingasfuck","reddit"],"image":null,"imageAlt":"Reddit Image","provider":"Reddit","thirdPartyId":"juv76b","url":"https://www.reddit.com/r/interestingasfuck/comments/juv76b/this_is_believed_to_be_the_first_aerial_shot_of/","originalUrl":"https://www.reddit.com/r/interestingasfuck/comments/juv76b/this_is_believed_to_be_the_first_aerial_shot_of/","imageRemote":"https://preview.redd.it/z16jq434fhz51.jpg?width=640&crop=smart&auto=webp&s=912012003bee6ffdc79143a0af7c5c4891adfb5b","video":null,"channel":"interestingasfuck","channelUrl":"https://www.reddit.com/r/interestingasfuck","author":"ItsIdaho","authorUrl":"https://www.reddit.com/user/ItsIdaho","authorImage":null,"authorSlug":"ItsIdaho","score":74264,"views":null,"sharedCount":null,"likeCount":null,"sharedContent":null,"parent":{"__typename":"RedditJson","localize":[{"title":"这据信是苏格兰爱丁堡的首次航拍。20世纪20年代","the_new_excerpt":null,"locale":"zh"},{"title":"這據信是蘇格蘭愛丁堡的首次航拍。20世紀20年代","the_new_excerpt":null,"locale":"zh-Hant"}]}},{"__typename":"SocialMediaPost","id":"RedditPost-jur74w","excerpt":"","slug":"/reddit/r/interestingasfuck/comments/jur74w/when_the_maldivian_president_held_the_worlds/","title":"When the maldivian president held the world's first underwater cabinet meeting to sign a climate change SOS.","date":"November 16, 2020","dateISO":"2020-11-16T01:27:11.000Z","datetime":"2020-11-16 01:27","tags":["interestingasfuck","reddit"],"image":null,"imageAlt":"Reddit Image","provider":"Reddit","thirdPartyId":"jur74w","url":"https://www.reddit.com/r/interestingasfuck/comments/jur74w/when_the_maldivian_president_held_the_worlds/","originalUrl":"https://www.reddit.com/r/interestingasfuck/comments/jur74w/when_the_maldivian_president_held_the_worlds/","imageRemote":"https://preview.redd.it/v92pf2tebgz51.jpg?width=1080&crop=smart&auto=webp&s=e76215a6cf391205946ec5fbded325810e27b72e","video":null,"channel":"interestingasfuck","channelUrl":"https://www.reddit.com/r/interestingasfuck","author":"SWEIAP","authorUrl":"https://www.reddit.com/user/SWEIAP","authorImage":null,"authorSlug":"SWEIAP","score":145013,"views":null,"sharedCount":null,"likeCount":null,"sharedContent":null,"parent":{"__typename":"RedditJson","localize":[{"title":"马尔代夫总统举行了世界上第一次水下内阁会议，签署了气候变化SOS。","the_new_excerpt":null,"locale":"zh"},{"title":"馬爾代夫總統舉行了世界上第壹次水下內閣會議，簽署了氣候變化SOS。","the_new_excerpt":null,"locale":"zh-Hant"}]}},{"__typename":"SocialMediaPost","id":"RedditPost-jucpxx","excerpt":"","slug":"/reddit/r/interestingasfuck/comments/jucpxx/milky_way_from_new_mexico/","title":"Milky way from New Mexico","date":"November 15, 2020","dateISO":"2020-11-15T18:36:50.000Z","datetime":"2020-11-15 18:36","tags":["interestingasfuck","reddit"],"image":null,"imageAlt":"Reddit Image","provider":"Reddit","thirdPartyId":"jucpxx","url":"https://www.reddit.com/r/interestingasfuck/comments/jucpxx/milky_way_from_new_mexico/","originalUrl":"https://www.reddit.com/r/interestingasfuck/comments/jucpxx/milky_way_from_new_mexico/","imageRemote":"https://preview.redd.it/nfb5ivm2vaz51.jpg?width=960&crop=smart&auto=webp&s=9b1e25d9755d663629b58a3f3e0a7bf49df9ff36","video":null,"channel":"interestingasfuck","channelUrl":"https://www.reddit.com/r/interestingasfuck","author":"Ok_Ad5775","authorUrl":"https://www.reddit.com/user/Ok_Ad5775","authorImage":null,"authorSlug":"Ok_Ad5775","score":67446,"views":null,"sharedCount":null,"likeCount":null,"sharedContent":null,"parent":{"__typename":"RedditJson","localize":[{"title":"新墨西哥州的银河系","the_new_excerpt":null,"locale":"zh"},{"title":"新墨西哥州的銀河系","the_new_excerpt":null,"locale":"zh-Hant"}]}},{"__typename":"SocialMediaPost","id":"RedditPost-juacsu","excerpt":"","slug":"/reddit/r/interestingasfuck/comments/juacsu/heartshaped_amethyst_geodes_discovered_yesterday/","title":"Heart-shaped amethyst geodes. Discovered yesterday in Artigas, by the mining company Uruguay Minerals","date":"November 14, 2020","dateISO":"2020-11-14T22:08:47.000Z","datetime":"2020-11-14 22:08","tags":["interestingasfuck","reddit"],"image":null,"imageAlt":"Reddit Image","provider":"Reddit","thirdPartyId":"juacsu","url":"https://www.reddit.com/r/interestingasfuck/comments/juacsu/heartshaped_amethyst_geodes_discovered_yesterday/","originalUrl":"https://www.reddit.com/r/interestingasfuck/comments/juacsu/heartshaped_amethyst_geodes_discovered_yesterday/","imageRemote":"https://preview.redd.it/77z7x2mb4az51.jpg?width=1080&crop=smart&auto=webp&s=8d67d08131b4aad6bf6729418873fd61aa316495","video":null,"channel":"interestingasfuck","channelUrl":"https://www.reddit.com/r/interestingasfuck","author":"Dislexicgod","authorUrl":"https://www.reddit.com/user/Dislexicgod","authorImage":null,"authorSlug":"Dislexicgod","score":116746,"views":null,"sharedCount":null,"likeCount":null,"sharedContent":null,"parent":{"__typename":"RedditJson","localize":[{"title":"心形紫晶大地线。乌拉圭矿业公司昨天在阿蒂加斯发现的","the_new_excerpt":null,"locale":"zh"},{"title":"心形紫晶大地線。烏拉圭礦業公司昨天在阿蒂加斯發現的","the_new_excerpt":null,"locale":"zh-Hant"}]}},{"__typename":"SocialMediaPost","id":"RedditPost-ju5pco","excerpt":"","slug":"/reddit/r/interestingasfuck/comments/ju5pco/well_welded_pipes/","title":"Well welded pipes","date":"November 14, 2020","dateISO":"2020-11-14T17:34:34.000Z","datetime":"2020-11-14 17:34","tags":["interestingasfuck","reddit"],"image":null,"imageAlt":"Reddit Image","provider":"Reddit","thirdPartyId":"ju5pco","url":"https://www.reddit.com/r/interestingasfuck/comments/ju5pco/well_welded_pipes/","originalUrl":"https://www.reddit.com/r/interestingasfuck/comments/ju5pco/well_welded_pipes/","imageRemote":"https://preview.redd.it/wkw14yber8z51.jpg?width=640&crop=smart&auto=webp&s=230c9fe5aef30d142656bb1d835c9c0acd52f6a8","video":null,"channel":"interestingasfuck","channelUrl":"https://www.reddit.com/r/interestingasfuck","author":"ScavengerPaleo","authorUrl":"https://www.reddit.com/user/ScavengerPaleo","authorImage":null,"authorSlug":"ScavengerPaleo","score":81181,"views":null,"sharedCount":null,"likeCount":null,"sharedContent":null,"parent":{"__typename":"RedditJson","localize":[{"title":"焊接良好的钢管","the_new_excerpt":null,"locale":"zh"},{"title":"焊接良好的鋼管","the_new_excerpt":null,"locale":"zh-Hant"}]}},{"__typename":"SocialMediaPost","id":"RedditPost-jtv8f3","excerpt":"","slug":"/reddit/r/interestingasfuck/comments/jtv8f3/it_is_kukur_tihar_here_in_nepal_today_is_the_day/","title":"It is 'Kukur Tihar' here in Nepal. Today is the day when Dogs are worshiped and thanked for their loyalty.","date":"November 14, 2020","dateISO":"2020-11-14T03:48:54.000Z","datetime":"2020-11-14 03:48","tags":["interestingasfuck","reddit"],"image":null,"imageAlt":"Reddit Image","provider":"Reddit","thirdPartyId":"jtv8f3","url":"https://www.reddit.com/r/interestingasfuck/comments/jtv8f3/it_is_kukur_tihar_here_in_nepal_today_is_the_day/","originalUrl":"https://www.reddit.com/r/interestingasfuck/comments/jtv8f3/it_is_kukur_tihar_here_in_nepal_today_is_the_day/","imageRemote":"https://preview.redd.it/rwaj1w32o4z51.jpg?width=640&crop=smart&auto=webp&s=76158230004763cbddd19fc9cf7b69772bb6520a","video":null,"channel":"interestingasfuck","channelUrl":"https://www.reddit.com/r/interestingasfuck","author":"faplord00","authorUrl":"https://www.reddit.com/user/faplord00","authorImage":null,"authorSlug":"faplord00","score":99700,"views":null,"sharedCount":null,"likeCount":null,"sharedContent":null,"parent":{"__typename":"RedditJson","localize":[{"title":"这里是尼泊尔的“库库尔提哈尔”(Kukur Tihar)。今天是人们崇拜和感谢狗的忠诚的日子。","the_new_excerpt":null,"locale":"zh"},{"title":"這裏是尼泊爾的“庫庫爾提哈爾”(Kukur Tihar)。今天是人們崇拜和感謝狗的忠誠的日子。","the_new_excerpt":null,"locale":"zh-Hant"}]}},{"__typename":"SocialMediaPost","id":"RedditPost-jt1w7c","excerpt":"","slug":"/reddit/r/interestingasfuck/comments/jt1w7c/what_happens_when_you_draw_a_picture_on_a_piece/","title":"What happens when you draw a picture on a piece of tin foil using whiteboard markers, and immerse it in water","date":"November 12, 2020","dateISO":"2020-11-12T19:58:15.000Z","datetime":"2020-11-12 19:58","tags":["interestingasfuck","reddit"],"image":null,"imageAlt":null,"provider":"Reddit","thirdPartyId":"jt1w7c","url":"https://www.reddit.com/r/interestingasfuck/comments/jt1w7c/what_happens_when_you_draw_a_picture_on_a_piece/","originalUrl":"https://www.reddit.com/r/interestingasfuck/comments/jt1w7c/what_happens_when_you_draw_a_picture_on_a_piece/","imageRemote":null,"video":{"url":"https://v.redd.it/koy069904uy51/DASH_480.mp4","embed":null,"width":480,"height":480},"channel":"interestingasfuck","channelUrl":"https://www.reddit.com/r/interestingasfuck","author":"CompleteChip","authorUrl":"https://www.reddit.com/user/CompleteChip","authorImage":null,"authorSlug":"CompleteChip","score":116582,"views":null,"sharedCount":null,"likeCount":null,"sharedContent":null,"parent":{"__typename":"RedditJson","localize":[{"title":"当你用白板记号笔在一张锡纸上画一幅画，并把它浸入水中时，会发生什么？","the_new_excerpt":null,"locale":"zh"},{"title":"當妳用白板記號筆在壹張錫紙上畫壹幅畫，並把它浸入水中時，會發生什麽？","the_new_excerpt":null,"locale":"zh-Hant"}]}}]}},"pageContext":{"basePath":"/","pageType":"tag","tag":"interestingasfuck","tagsFilter":{"id":{"glob":"!*Post-1"}},"filter":{"id":{"glob":"!*Post-1"},"tags":{"eq":"interestingasfuck"}},"limit":25,"skip":425,"total":432,"totalPages":18,"currentPage":18,"maxWidth":1024,"maxHeight":512,"locale":"zh-Hant","hrefLang":"zh-Hant","originalPath":"/tags/interestingasfuck/page/18","dateFormat":"YYYY-MM-DD"}},"staticQueryHashes":["1239077767","2506312863","2744905544","3025052997","3493603132","3493603132","3513215887","386998304"]}