{"componentChunkName":"component---node-modules-gatsby-theme-buzzing-src-gatsby-theme-timeline-templates-posts-query-js","path":"/ja/tags/funny/page/14","result":{"data":{"site":{"siteMetadata":{"title":"Reddit 热门","description":"用中文浏览Reddit热门内容","social":[{"name":"Reddit","url":"https://www.reddit.com","external":true,"prefetch":null},{"name":"Buzzing","url":"https://www.buzzing.cc/","external":true,"prefetch":null}],"menuLinks":[{"name":"每周精选","url":"/issues","external":null,"prefetch":null}],"localize":[{"locale":"en","title":"Buzzing on Reddit","description":"See what's buzzing on Reddit in your native language","social":[{"name":"Reddit","url":"https://www.reddit.com/","external":true,"prefetch":null}],"menuLinks":[{"name":"Weekly Selection","url":"/en/issues","external":null,"prefetch":null}]},{"locale":"zh-Hant","title":"Reddit 熱門","description":"用中文瀏覽Reddit熱門內容","social":null,"menuLinks":[{"name":"每週精選","url":"/zh-Hant/issues","external":null,"prefetch":null}]},{"locale":"ja","title":"Reddit 人気の記事","description":"人気のReddit記事を日本語で閲覧","social":null,"menuLinks":[]}]}},"tagsGroup":{"group":[{"fieldValue":"ABoringDystopia","totalCount":3},{"fieldValue":"AOC","totalCount":1},{"fieldValue":"AbruptChaos","totalCount":1},{"fieldValue":"AmongUs","totalCount":2},{"fieldValue":"AnimalsBeingBros","totalCount":1},{"fieldValue":"Art","totalCount":1},{"fieldValue":"AskReddit","totalCount":43},{"fieldValue":"Bad_Cop_No_Donut","totalCount":2},{"fieldValue":"BeAmazed","totalCount":4},{"fieldValue":"BikiniBottomTwitter","totalCount":7},{"fieldValue":"BlackPeopleTwitter","totalCount":87},{"fieldValue":"Bossfight","totalCount":1},{"fieldValue":"CapitolConsequences","totalCount":1},{"fieldValue":"Conservative","totalCount":1},{"fieldValue":"Coronavirus","totalCount":2},{"fieldValue":"Cringetopia","totalCount":11},{"fieldValue":"Damnthatsinteresting","totalCount":79},{"fieldValue":"DunderMifflin","totalCount":1},{"fieldValue":"FuckYouKaren","totalCount":7},{"fieldValue":"FunnyandSad","totalCount":1},{"fieldValue":"Futurology","totalCount":5},{"fieldValue":"GetMotivated","totalCount":1},{"fieldValue":"HolUp","totalCount":100},{"fieldValue":"HumansBeingBros","totalCount":13},{"fieldValue":"IdiotsInCars","totalCount":22},{"fieldValue":"IsTodayFridayThe13th","totalCount":1},{"fieldValue":"JusticeServed","totalCount":4},{"fieldValue":"KamikazeByWords","totalCount":1},{"fieldValue":"KidsAreFuckingStupid","totalCount":5},{"fieldValue":"LeopardsAteMyFace","totalCount":10},{"fieldValue":"LifeProTips","totalCount":25},{"fieldValue":"MadeMeSmile","totalCount":293},{"fieldValue":"Minecraft","totalCount":23},{"fieldValue":"MovieDetails","totalCount":3},{"fieldValue":"MurderedByAOC","totalCount":5},{"fieldValue":"MurderedByWords","totalCount":104},{"fieldValue":"Music","totalCount":2},{"fieldValue":"NatureIsFuckingLit","totalCount":10},{"fieldValue":"NoStupidQuestions","totalCount":1},{"fieldValue":"OldSchoolCool","totalCount":4},{"fieldValue":"PoliticalHumor","totalCount":54},{"fieldValue":"PrequelMemes","totalCount":23},{"fieldValue":"PublicFreakout","totalCount":104},{"fieldValue":"SelfAwarewolves","totalCount":2},{"fieldValue":"ShitPostCrusaders","totalCount":1},{"fieldValue":"ShittyLifeProTips","totalCount":3},{"fieldValue":"Showerthoughts","totalCount":11},{"fieldValue":"StarWars","totalCount":1},{"fieldValue":"TIHI","totalCount":4},{"fieldValue":"ThatsInsane","totalCount":6},{"fieldValue":"TheBoys","totalCount":1},{"fieldValue":"TheRightCantMeme","totalCount":1},{"fieldValue":"TikTokCringe","totalCount":3},{"fieldValue":"Tinder","totalCount":5},{"fieldValue":"ToiletPaperUSA","totalCount":2},{"fieldValue":"TwoXChromosomes","totalCount":2},{"fieldValue":"Unexpected","totalCount":135},{"fieldValue":"UpliftingNews","totalCount":5},{"fieldValue":"WTF","totalCount":1},{"fieldValue":"WallStreetbetsELITE","totalCount":1},{"fieldValue":"WatchPeopleDieInside","totalCount":65},{"fieldValue":"Wellthatsucks","totalCount":32},{"fieldValue":"Whatcouldgowrong","totalCount":17},{"fieldValue":"WhitePeopleTwitter","totalCount":279},{"fieldValue":"WinStupidPrizes","totalCount":1},{"fieldValue":"agedlikemilk","totalCount":2},{"fieldValue":"announcements","totalCount":1},{"fieldValue":"assholedesign","totalCount":4},{"fieldValue":"awfuleverything","totalCount":7},{"fieldValue":"aww","totalCount":384},{"fieldValue":"blackmagicfuckery","totalCount":6},{"fieldValue":"blog","totalCount":2},{"fieldValue":"blursedimages","totalCount":7},{"fieldValue":"canada","totalCount":1},{"fieldValue":"clevercomebacks","totalCount":2},{"fieldValue":"comedyheaven","totalCount":10},{"fieldValue":"confidentlyincorrect","totalCount":2},{"fieldValue":"coolguides","totalCount":5},{"fieldValue":"cursedcomments","totalCount":53},{"fieldValue":"cyberpunkgame","totalCount":3},{"fieldValue":"dankmemes","totalCount":441},{"fieldValue":"dataisbeautiful","totalCount":6},{"fieldValue":"dndmemes","totalCount":1},{"fieldValue":"dogecoin","totalCount":1},{"fieldValue":"europe","totalCount":1},{"fieldValue":"facepalm","totalCount":140},{"fieldValue":"funny","totalCount":331},{"fieldValue":"gaming","totalCount":248},{"fieldValue":"gatekeeping","totalCount":1},{"fieldValue":"gifs","totalCount":49},{"fieldValue":"harrypotter","totalCount":1},{"fieldValue":"iamatotalpieceofshit","totalCount":15},{"fieldValue":"insanepeoplefacebook","totalCount":9},{"fieldValue":"instant_regret","totalCount":8},{"fieldValue":"instantkarma","totalCount":1},{"fieldValue":"interestingasfuck","totalCount":428},{"fieldValue":"intermittentfasting","totalCount":1},{"fieldValue":"lotrmemes","totalCount":1},{"fieldValue":"madlads","totalCount":9},{"fieldValue":"marvelstudios","totalCount":2},{"fieldValue":"me_irl","totalCount":17},{"fieldValue":"memes","totalCount":1062},{"fieldValue":"mildlyinfuriating","totalCount":22},{"fieldValue":"mildlyinteresting","totalCount":98},{"fieldValue":"movies","totalCount":11},{"fieldValue":"natureismetal","totalCount":3},{"fieldValue":"nevertellmetheodds","totalCount":3},{"fieldValue":"news","totalCount":126},{"fieldValue":"nextfuckinglevel","totalCount":579},{"fieldValue":"nottheonion","totalCount":20},{"fieldValue":"oddlysatisfying","totalCount":45},{"fieldValue":"pcmasterrace","totalCount":11},{"fieldValue":"perfectlycutscreams","totalCount":1},{"fieldValue":"pics","totalCount":364},{"fieldValue":"politics","totalCount":186},{"fieldValue":"povertyfinance","totalCount":1},{"fieldValue":"quityourbullshit","totalCount":2},{"fieldValue":"rareinsults","totalCount":15},{"fieldValue":"rarepuppers","totalCount":1},{"fieldValue":"reddit","totalCount":7014},{"fieldValue":"sadcringe","totalCount":1},{"fieldValue":"science","totalCount":23},{"fieldValue":"shittymoviedetails","totalCount":2},{"fieldValue":"space","totalCount":9},{"fieldValue":"specializedtools","totalCount":1},{"fieldValue":"sports","totalCount":2},{"fieldValue":"starterpacks","totalCount":11},{"fieldValue":"stocks","totalCount":1},{"fieldValue":"suspiciouslyspecific","totalCount":1},{"fieldValue":"technicallythetruth","totalCount":12},{"fieldValue":"technology","totalCount":16},{"fieldValue":"teenagers","totalCount":19},{"fieldValue":"therewasanattempt","totalCount":3},{"fieldValue":"tifu","totalCount":1},{"fieldValue":"todayilearned","totalCount":102},{"fieldValue":"toptalent","totalCount":2},{"fieldValue":"trashy","totalCount":2},{"fieldValue":"trippinthroughtime","totalCount":2},{"fieldValue":"videos","totalCount":4},{"fieldValue":"wallstreetbets","totalCount":176},{"fieldValue":"wholesomememes","totalCount":118},{"fieldValue":"woahdude","totalCount":1},{"fieldValue":"worldnews","totalCount":107},{"fieldValue":"youseeingthisshit","totalCount":1}]},"allBlogPost":{"nodes":[{"__typename":"SocialMediaPost","id":"RedditPost-jukaja","excerpt":"","slug":"/reddit/r/funny/comments/jukaja/oh_crap_were_having_a_test_today/","title":"\"Oh crap, we're having a test today?\"","date":"November 15, 2020","dateISO":"2020-11-15T20:15:34.000Z","datetime":"2020-11-15 20:15","tags":["funny","reddit"],"image":null,"imageAlt":null,"provider":"Reddit","thirdPartyId":"jukaja","url":"https://www.reddit.com/r/funny/comments/jukaja/oh_crap_were_having_a_test_today/","originalUrl":"https://www.reddit.com/r/funny/comments/jukaja/oh_crap_were_having_a_test_today/","imageRemote":null,"video":{"url":"https://v.redd.it/fif87cp7zdz51/DASH_720.mp4","embed":null,"width":576,"height":720},"channel":"funny","channelUrl":"https://www.reddit.com/r/funny","author":"JuliatryDavid","authorUrl":"https://www.reddit.com/user/JuliatryDavid","authorImage":null,"authorSlug":"JuliatryDavid","score":76007,"views":null,"sharedCount":null,"likeCount":null,"sharedContent":null,"parent":{"__typename":"RedditJson","localize":[{"title":"“糟了，我们今天要考试吗？”","the_new_excerpt":null,"locale":"zh"},{"title":"“糟了，我們今天要考試嗎？”","the_new_excerpt":null,"locale":"zh-Hant"}]}},{"__typename":"SocialMediaPost","id":"RedditPost-judrvn","excerpt":"","slug":"/reddit/r/funny/comments/judrvn/my_buddys_girlfriend_farted_in_front_of_him_for/","title":"My buddy’s girlfriend farted in front of him for the first time. He got a cake for the occasion.","date":"November 15, 2020","dateISO":"2020-11-15T01:48:45.000Z","datetime":"2020-11-15 01:48","tags":["funny","reddit"],"image":null,"imageAlt":"Reddit Image","provider":"Reddit","thirdPartyId":"judrvn","url":"https://www.reddit.com/r/funny/comments/judrvn/my_buddys_girlfriend_farted_in_front_of_him_for/","originalUrl":"https://www.reddit.com/r/funny/comments/judrvn/my_buddys_girlfriend_farted_in_front_of_him_for/","imageRemote":"https://preview.redd.it/zbzn2dyj7bz51.jpg?width=1080&crop=smart&auto=webp&s=4c0e4788c7629c9650922a7d744a039d4574a09b","video":null,"channel":"funny","channelUrl":"https://www.reddit.com/r/funny","author":"idk5775","authorUrl":"https://www.reddit.com/user/idk5775","authorImage":null,"authorSlug":"idk5775","score":92637,"views":null,"sharedCount":null,"likeCount":null,"sharedContent":null,"parent":{"__typename":"RedditJson","localize":[{"title":"我朋友的女朋友第一次在他面前放屁。他为这个场合准备了一块蛋糕。","the_new_excerpt":null,"locale":"zh"},{"title":"我朋友的女朋友第壹次在他面前放屁。他為這個場合準備了壹塊蛋糕。","the_new_excerpt":null,"locale":"zh-Hant"}]}},{"__typename":"SocialMediaPost","id":"RedditPost-jtwoe0","excerpt":"","slug":"/reddit/r/funny/comments/jtwoe0/the_cat_just_took_a_huge_mouthful/","title":"The cat just took a huge mouthful","date":"November 14, 2020","dateISO":"2020-11-14T05:36:44.000Z","datetime":"2020-11-14 05:36","tags":["funny","reddit"],"image":null,"imageAlt":null,"provider":"Reddit","thirdPartyId":"jtwoe0","url":"https://www.reddit.com/r/funny/comments/jtwoe0/the_cat_just_took_a_huge_mouthful/","originalUrl":"https://www.reddit.com/r/funny/comments/jtwoe0/the_cat_just_took_a_huge_mouthful/","imageRemote":null,"video":{"url":"https://www.reddit.com/mediaembed/jtwoe0","embed":true,"width":360,"height":480},"channel":"funny","channelUrl":"https://www.reddit.com/r/funny","author":"KikoTheWonderful","authorUrl":"https://www.reddit.com/user/KikoTheWonderful","authorImage":null,"authorSlug":"KikoTheWonderful","score":81372,"views":null,"sharedCount":null,"likeCount":null,"sharedContent":null,"parent":{"__typename":"RedditJson","localize":[{"title":"那只猫刚刚大口大口地吃了一大口。","the_new_excerpt":null,"locale":"zh"},{"title":"那只貓剛剛大口大口地吃了壹大口。","the_new_excerpt":null,"locale":"zh-Hant"}]}},{"__typename":"SocialMediaPost","id":"RedditPost-jtq1bw","excerpt":"","slug":"/reddit/r/funny/comments/jtq1bw/my_lucky_day_some_guy_was_selling_ps5s_outside/","title":"My lucky day.. some guy was selling PS5's outside the grocery store for $50","date":"November 13, 2020","dateISO":"2020-11-13T22:27:40.000Z","datetime":"2020-11-13 22:27","tags":["funny","reddit"],"image":null,"imageAlt":"Reddit Image","provider":"Reddit","thirdPartyId":"jtq1bw","url":"https://www.reddit.com/r/funny/comments/jtq1bw/my_lucky_day_some_guy_was_selling_ps5s_outside/","originalUrl":"https://www.reddit.com/r/funny/comments/jtq1bw/my_lucky_day_some_guy_was_selling_ps5s_outside/","imageRemote":"https://preview.redd.it/kq0hcb2s23z51.jpg?width=640&crop=smart&auto=webp&s=d4c4993d21a53d0670e1cd75cea5f8b99fbfa955","video":null,"channel":"funny","channelUrl":"https://www.reddit.com/r/funny","author":"OldDeadEyez","authorUrl":"https://www.reddit.com/user/OldDeadEyez","authorImage":null,"authorSlug":"OldDeadEyez","score":95969,"views":null,"sharedCount":null,"likeCount":null,"sharedContent":null,"parent":{"__typename":"RedditJson","localize":[{"title":"我的幸运日..。有个人在杂货店外卖PS5，要价50美元。","the_new_excerpt":null,"locale":"zh"},{"title":"我的幸運日..。有個人在雜貨店外賣PS5，要價50美元。","the_new_excerpt":null,"locale":"zh-Hant"}]}},{"__typename":"SocialMediaPost","id":"RedditPost-jtg1bz","excerpt":"","slug":"/reddit/r/funny/comments/jtg1bz/i_guess_the_cake_was_too_hot/","title":"I guess the cake was too hot","date":"November 13, 2020","dateISO":"2020-11-13T12:21:43.000Z","datetime":"2020-11-13 12:21","tags":["funny","reddit"],"image":null,"imageAlt":"Reddit Image","provider":"Reddit","thirdPartyId":"jtg1bz","url":"https://www.reddit.com/r/funny/comments/jtg1bz/i_guess_the_cake_was_too_hot/","originalUrl":"https://www.reddit.com/r/funny/comments/jtg1bz/i_guess_the_cake_was_too_hot/","imageRemote":"https://preview.redd.it/e82qxd4o20z51.jpg?width=1080&crop=smart&auto=webp&s=d5b24306b47e7438485a2cf15ba527e35a2fc8ec","video":null,"channel":"funny","channelUrl":"https://www.reddit.com/r/funny","author":"Lekje","authorUrl":"https://www.reddit.com/user/Lekje","authorImage":null,"authorSlug":"Lekje","score":84504,"views":null,"sharedCount":null,"likeCount":null,"sharedContent":null,"parent":{"__typename":"RedditJson","localize":[{"title":"我想蛋糕太烫了。","the_new_excerpt":null,"locale":"zh"},{"title":"我想蛋糕太燙了。","the_new_excerpt":null,"locale":"zh-Hant"}]}},{"__typename":"SocialMediaPost","id":"RedditPost-jt19fl","excerpt":"","slug":"/reddit/r/funny/comments/jt19fl/the_benefits_of_growing_older/","title":"The benefits of growing older","date":"November 12, 2020","dateISO":"2020-11-12T19:26:51.000Z","datetime":"2020-11-12 19:26","tags":["funny","reddit"],"image":null,"imageAlt":"Reddit Image","provider":"Reddit","thirdPartyId":"jt19fl","url":"https://www.reddit.com/r/funny/comments/jt19fl/the_benefits_of_growing_older/","originalUrl":"https://www.reddit.com/r/funny/comments/jt19fl/the_benefits_of_growing_older/","imageRemote":"https://preview.redd.it/nsqyydoj1vy51.jpg?width=1080&crop=smart&auto=webp&s=e80c2fc205ae6faade06dc137740333a187c9f4d","video":null,"channel":"funny","channelUrl":"https://www.reddit.com/r/funny","author":"MadeByTio","authorUrl":"https://www.reddit.com/user/MadeByTio","authorImage":null,"authorSlug":"MadeByTio","score":92906,"views":null,"sharedCount":null,"likeCount":null,"sharedContent":null,"parent":{"__typename":"RedditJson","localize":[{"title":"变老的好处","the_new_excerpt":null,"locale":"zh"},{"title":"變老的好處","the_new_excerpt":null,"locale":"zh-Hant"}]}}]}},"pageContext":{"basePath":"/","pageType":"tag","tag":"funny","tagsFilter":{"id":{"glob":"!*Post-1"}},"filter":{"id":{"glob":"!*Post-1"},"tags":{"eq":"funny"}},"limit":25,"skip":325,"total":331,"totalPages":14,"currentPage":14,"maxWidth":1024,"maxHeight":512,"locale":"ja","hrefLang":"ja-JA","originalPath":"/tags/funny/page/14","dateFormat":"YYYY-MM-DD"}},"staticQueryHashes":["1239077767","2506312863","2744905544","3025052997","3493603132","3493603132","3513215887","386998304"]}