{"componentChunkName":"component---node-modules-gatsby-theme-buzzing-src-gatsby-theme-timeline-templates-posts-query-js","path":"/zh-Hant/tags/nextfuckinglevel/page/24","result":{"data":{"site":{"siteMetadata":{"title":"Reddit 热门","description":"用中文浏览Reddit热门内容","social":[{"name":"Reddit","url":"https://www.reddit.com","external":true,"prefetch":null},{"name":"Buzzing","url":"https://www.buzzing.cc/","external":true,"prefetch":null}],"menuLinks":[{"name":"每周精选","url":"/issues","external":null,"prefetch":null}],"localize":[{"locale":"en","title":"Buzzing on Reddit","description":"See what's buzzing on Reddit in your native language","social":[{"name":"Reddit","url":"https://www.reddit.com/","external":true,"prefetch":null}],"menuLinks":[{"name":"Weekly Selection","url":"/en/issues","external":null,"prefetch":null}]},{"locale":"zh-Hant","title":"Reddit 熱門","description":"用中文瀏覽Reddit熱門內容","social":null,"menuLinks":[{"name":"每週精選","url":"/zh-Hant/issues","external":null,"prefetch":null}]},{"locale":"ja","title":"Reddit 人気の記事","description":"人気のReddit記事を日本語で閲覧","social":null,"menuLinks":[]}]}},"tagsGroup":{"group":[{"fieldValue":"ABoringDystopia","totalCount":3},{"fieldValue":"AOC","totalCount":1},{"fieldValue":"AbruptChaos","totalCount":1},{"fieldValue":"AmongUs","totalCount":2},{"fieldValue":"AnimalsBeingBros","totalCount":1},{"fieldValue":"Art","totalCount":1},{"fieldValue":"AskReddit","totalCount":43},{"fieldValue":"Bad_Cop_No_Donut","totalCount":2},{"fieldValue":"BeAmazed","totalCount":4},{"fieldValue":"BikiniBottomTwitter","totalCount":7},{"fieldValue":"BlackPeopleTwitter","totalCount":87},{"fieldValue":"Bossfight","totalCount":1},{"fieldValue":"CapitolConsequences","totalCount":1},{"fieldValue":"Conservative","totalCount":1},{"fieldValue":"Coronavirus","totalCount":2},{"fieldValue":"Cringetopia","totalCount":11},{"fieldValue":"Damnthatsinteresting","totalCount":79},{"fieldValue":"DunderMifflin","totalCount":1},{"fieldValue":"FuckYouKaren","totalCount":7},{"fieldValue":"FunnyandSad","totalCount":1},{"fieldValue":"Futurology","totalCount":5},{"fieldValue":"GetMotivated","totalCount":1},{"fieldValue":"HolUp","totalCount":100},{"fieldValue":"HumansBeingBros","totalCount":13},{"fieldValue":"IdiotsInCars","totalCount":22},{"fieldValue":"IsTodayFridayThe13th","totalCount":1},{"fieldValue":"JusticeServed","totalCount":4},{"fieldValue":"KamikazeByWords","totalCount":1},{"fieldValue":"KidsAreFuckingStupid","totalCount":5},{"fieldValue":"LeopardsAteMyFace","totalCount":10},{"fieldValue":"LifeProTips","totalCount":25},{"fieldValue":"MadeMeSmile","totalCount":293},{"fieldValue":"Minecraft","totalCount":23},{"fieldValue":"MovieDetails","totalCount":3},{"fieldValue":"MurderedByAOC","totalCount":5},{"fieldValue":"MurderedByWords","totalCount":104},{"fieldValue":"Music","totalCount":2},{"fieldValue":"NatureIsFuckingLit","totalCount":10},{"fieldValue":"NoStupidQuestions","totalCount":1},{"fieldValue":"OldSchoolCool","totalCount":4},{"fieldValue":"PoliticalHumor","totalCount":54},{"fieldValue":"PrequelMemes","totalCount":23},{"fieldValue":"PublicFreakout","totalCount":104},{"fieldValue":"SelfAwarewolves","totalCount":2},{"fieldValue":"ShitPostCrusaders","totalCount":1},{"fieldValue":"ShittyLifeProTips","totalCount":3},{"fieldValue":"Showerthoughts","totalCount":11},{"fieldValue":"StarWars","totalCount":1},{"fieldValue":"TIHI","totalCount":4},{"fieldValue":"ThatsInsane","totalCount":6},{"fieldValue":"TheBoys","totalCount":1},{"fieldValue":"TheRightCantMeme","totalCount":1},{"fieldValue":"TikTokCringe","totalCount":3},{"fieldValue":"Tinder","totalCount":5},{"fieldValue":"ToiletPaperUSA","totalCount":2},{"fieldValue":"TwoXChromosomes","totalCount":2},{"fieldValue":"Unexpected","totalCount":135},{"fieldValue":"UpliftingNews","totalCount":5},{"fieldValue":"WTF","totalCount":1},{"fieldValue":"WallStreetbetsELITE","totalCount":1},{"fieldValue":"WatchPeopleDieInside","totalCount":65},{"fieldValue":"Wellthatsucks","totalCount":32},{"fieldValue":"Whatcouldgowrong","totalCount":17},{"fieldValue":"WhitePeopleTwitter","totalCount":279},{"fieldValue":"WinStupidPrizes","totalCount":1},{"fieldValue":"agedlikemilk","totalCount":2},{"fieldValue":"announcements","totalCount":1},{"fieldValue":"assholedesign","totalCount":4},{"fieldValue":"awfuleverything","totalCount":7},{"fieldValue":"aww","totalCount":384},{"fieldValue":"blackmagicfuckery","totalCount":6},{"fieldValue":"blog","totalCount":2},{"fieldValue":"blursedimages","totalCount":7},{"fieldValue":"canada","totalCount":1},{"fieldValue":"clevercomebacks","totalCount":2},{"fieldValue":"comedyheaven","totalCount":10},{"fieldValue":"confidentlyincorrect","totalCount":2},{"fieldValue":"coolguides","totalCount":5},{"fieldValue":"cursedcomments","totalCount":53},{"fieldValue":"cyberpunkgame","totalCount":3},{"fieldValue":"dankmemes","totalCount":441},{"fieldValue":"dataisbeautiful","totalCount":6},{"fieldValue":"dndmemes","totalCount":1},{"fieldValue":"dogecoin","totalCount":1},{"fieldValue":"europe","totalCount":1},{"fieldValue":"facepalm","totalCount":140},{"fieldValue":"funny","totalCount":331},{"fieldValue":"gaming","totalCount":248},{"fieldValue":"gatekeeping","totalCount":1},{"fieldValue":"gifs","totalCount":49},{"fieldValue":"harrypotter","totalCount":1},{"fieldValue":"iamatotalpieceofshit","totalCount":15},{"fieldValue":"insanepeoplefacebook","totalCount":9},{"fieldValue":"instant_regret","totalCount":8},{"fieldValue":"instantkarma","totalCount":1},{"fieldValue":"interestingasfuck","totalCount":428},{"fieldValue":"intermittentfasting","totalCount":1},{"fieldValue":"lotrmemes","totalCount":1},{"fieldValue":"madlads","totalCount":9},{"fieldValue":"marvelstudios","totalCount":2},{"fieldValue":"me_irl","totalCount":17},{"fieldValue":"memes","totalCount":1062},{"fieldValue":"mildlyinfuriating","totalCount":22},{"fieldValue":"mildlyinteresting","totalCount":98},{"fieldValue":"movies","totalCount":11},{"fieldValue":"natureismetal","totalCount":3},{"fieldValue":"nevertellmetheodds","totalCount":3},{"fieldValue":"news","totalCount":126},{"fieldValue":"nextfuckinglevel","totalCount":579},{"fieldValue":"nottheonion","totalCount":20},{"fieldValue":"oddlysatisfying","totalCount":45},{"fieldValue":"pcmasterrace","totalCount":11},{"fieldValue":"perfectlycutscreams","totalCount":1},{"fieldValue":"pics","totalCount":364},{"fieldValue":"politics","totalCount":186},{"fieldValue":"povertyfinance","totalCount":1},{"fieldValue":"quityourbullshit","totalCount":2},{"fieldValue":"rareinsults","totalCount":15},{"fieldValue":"rarepuppers","totalCount":1},{"fieldValue":"reddit","totalCount":7014},{"fieldValue":"sadcringe","totalCount":1},{"fieldValue":"science","totalCount":23},{"fieldValue":"shittymoviedetails","totalCount":2},{"fieldValue":"space","totalCount":9},{"fieldValue":"specializedtools","totalCount":1},{"fieldValue":"sports","totalCount":2},{"fieldValue":"starterpacks","totalCount":11},{"fieldValue":"stocks","totalCount":1},{"fieldValue":"suspiciouslyspecific","totalCount":1},{"fieldValue":"technicallythetruth","totalCount":12},{"fieldValue":"technology","totalCount":16},{"fieldValue":"teenagers","totalCount":19},{"fieldValue":"therewasanattempt","totalCount":3},{"fieldValue":"tifu","totalCount":1},{"fieldValue":"todayilearned","totalCount":102},{"fieldValue":"toptalent","totalCount":2},{"fieldValue":"trashy","totalCount":2},{"fieldValue":"trippinthroughtime","totalCount":2},{"fieldValue":"videos","totalCount":4},{"fieldValue":"wallstreetbets","totalCount":176},{"fieldValue":"wholesomememes","totalCount":118},{"fieldValue":"woahdude","totalCount":1},{"fieldValue":"worldnews","totalCount":107},{"fieldValue":"youseeingthisshit","totalCount":1}]},"allBlogPost":{"nodes":[{"__typename":"SocialMediaPost","id":"RedditPost-jtnmcs","excerpt":"","slug":"/reddit/r/nextfuckinglevel/comments/jtnmcs/printed_cut_and_photographed_every_goddamn_frame/","title":"Printed, cut, and photographed every goddamn frame of this Lebron dunk. Was it worth it?","date":"November 13, 2020","dateISO":"2020-11-13T20:24:32.000Z","datetime":"2020-11-13 20:24","tags":["nextfuckinglevel","reddit"],"image":null,"imageAlt":null,"provider":"Reddit","thirdPartyId":"jtnmcs","url":"https://www.reddit.com/r/nextfuckinglevel/comments/jtnmcs/printed_cut_and_photographed_every_goddamn_frame/","originalUrl":"https://www.reddit.com/r/nextfuckinglevel/comments/jtnmcs/printed_cut_and_photographed_every_goddamn_frame/","imageRemote":null,"video":{"url":"https://www.reddit.com/mediaembed/jtnmcs","embed":true,"width":607,"height":1080},"channel":"nextfuckinglevel","channelUrl":"https://www.reddit.com/r/nextfuckinglevel","author":"RudyWillingham","authorUrl":"https://www.reddit.com/user/RudyWillingham","authorImage":null,"authorSlug":"RudyWillingham","score":90407,"views":null,"sharedCount":null,"likeCount":null,"sharedContent":null,"parent":{"__typename":"RedditJson","localize":[{"title":"打印、剪切和拍摄这张勒布朗扣篮的每一张该死的照片。这值得吗？","the_new_excerpt":null,"locale":"zh"},{"title":"打印、剪切和拍攝這張勒布朗扣籃的每壹張該死的照片。這值得嗎？","the_new_excerpt":null,"locale":"zh-Hant"}]}},{"__typename":"SocialMediaPost","id":"RedditPost-jti7l7","excerpt":"","slug":"/reddit/r/nextfuckinglevel/comments/jti7l7/valedictorian_slams_ineffective_school_staff_in/","title":"Valedictorian slams ineffective school staff in graduation speech","date":"November 13, 2020","dateISO":"2020-11-13T15:57:46.000Z","datetime":"2020-11-13 15:57","tags":["nextfuckinglevel","reddit"],"image":null,"imageAlt":null,"provider":"Reddit","thirdPartyId":"jti7l7","url":"https://www.reddit.com/r/nextfuckinglevel/comments/jti7l7/valedictorian_slams_ineffective_school_staff_in/","originalUrl":"https://www.reddit.com/r/nextfuckinglevel/comments/jti7l7/valedictorian_slams_ineffective_school_staff_in/","imageRemote":null,"video":{"url":"https://www.reddit.com/mediaembed/jti7l7","embed":true,"width":720,"height":720},"channel":"nextfuckinglevel","channelUrl":"https://www.reddit.com/r/nextfuckinglevel","author":"NewCarthagea","authorUrl":"https://www.reddit.com/user/NewCarthagea","authorImage":null,"authorSlug":"NewCarthagea","score":108012,"views":null,"sharedCount":null,"likeCount":null,"sharedContent":null,"parent":{"__typename":"RedditJson","localize":[{"title":"告别演讲人在毕业演讲中抨击效率低下的学校教职员工","the_new_excerpt":null,"locale":"zh"},{"title":"告別演講人在畢業演講中抨擊效率低下的學校教職員工","the_new_excerpt":null,"locale":"zh-Hant"}]}},{"__typename":"SocialMediaPost","id":"RedditPost-jtekyn","excerpt":"","slug":"/reddit/r/nextfuckinglevel/comments/jtekyn/the_irrigation_shepard_at_work/","title":"The irrigation Shepard at work","date":"November 13, 2020","dateISO":"2020-11-13T10:07:51.000Z","datetime":"2020-11-13 10:07","tags":["nextfuckinglevel","reddit"],"image":null,"imageAlt":null,"provider":"Reddit","thirdPartyId":"jtekyn","url":"https://www.reddit.com/r/nextfuckinglevel/comments/jtekyn/the_irrigation_shepard_at_work/","originalUrl":"https://www.reddit.com/r/nextfuckinglevel/comments/jtekyn/the_irrigation_shepard_at_work/","imageRemote":null,"video":{"url":"https://www.reddit.com/mediaembed/jtekyn","embed":true,"width":492,"height":720},"channel":"nextfuckinglevel","channelUrl":"https://www.reddit.com/r/nextfuckinglevel","author":"Veteran_Nihaal7","authorUrl":"https://www.reddit.com/user/Veteran_Nihaal7","authorImage":null,"authorSlug":"Veteran_Nihaal7","score":78817,"views":null,"sharedCount":null,"likeCount":null,"sharedContent":null,"parent":{"__typename":"RedditJson","localize":[{"title":"工作中的灌溉谢泼德","the_new_excerpt":null,"locale":"zh"},{"title":"工作中的灌溉謝潑德","the_new_excerpt":null,"locale":"zh-Hant"}]}},{"__typename":"SocialMediaPost","id":"RedditPost-jt90ef","excerpt":"","slug":"/reddit/r/nextfuckinglevel/comments/jt90ef/the_note_george_hw_bush_left_to_bill_clinton/","title":"The note George HW Bush left to Bill Clinton after losing the election","date":"November 13, 2020","dateISO":"2020-11-13T02:41:15.000Z","datetime":"2020-11-13 02:41","tags":["nextfuckinglevel","reddit"],"image":null,"imageAlt":"Reddit Image","provider":"Reddit","thirdPartyId":"jt90ef","url":"https://www.reddit.com/r/nextfuckinglevel/comments/jt90ef/the_note_george_hw_bush_left_to_bill_clinton/","originalUrl":"https://www.reddit.com/r/nextfuckinglevel/comments/jt90ef/the_note_george_hw_bush_left_to_bill_clinton/","imageRemote":"https://preview.redd.it/cc65y6q37xy51.png?width=640&crop=smart&auto=webp&s=4330dbd9a7a78aeb1ad71281721e53108ffc09f3","video":null,"channel":"nextfuckinglevel","channelUrl":"https://www.reddit.com/r/nextfuckinglevel","author":"j4ck132","authorUrl":"https://www.reddit.com/user/j4ck132","authorImage":null,"authorSlug":"j4ck132","score":88337,"views":null,"sharedCount":null,"likeCount":null,"sharedContent":null,"parent":{"__typename":"RedditJson","localize":[{"title":"乔治·H·W·布什(George HW Bush)在竞选失败后留给比尔·克林顿的便条","the_new_excerpt":null,"locale":"zh"},{"title":"喬治·H·W·布什(George HW Bush)在競選失敗後留給比爾·克林頓的便條","the_new_excerpt":null,"locale":"zh-Hant"}]}}]}},"pageContext":{"basePath":"/","pageType":"tag","tag":"nextfuckinglevel","tagsFilter":{"id":{"glob":"!*Post-1"}},"filter":{"id":{"glob":"!*Post-1"},"tags":{"eq":"nextfuckinglevel"}},"limit":25,"skip":575,"total":579,"totalPages":24,"currentPage":24,"maxWidth":1024,"maxHeight":512,"locale":"zh-Hant","hrefLang":"zh-Hant","originalPath":"/tags/nextfuckinglevel/page/24","dateFormat":"YYYY-MM-DD"}},"staticQueryHashes":["1239077767","2506312863","2744905544","3025052997","3493603132","3493603132","3513215887","386998304"]}