{"componentChunkName":"component---node-modules-gatsby-theme-buzzing-src-gatsby-theme-timeline-templates-posts-query-js","path":"/zh-Hant/tags/funny/page/14","result":{"data":{"site":{"siteMetadata":{"title":"Reddit 热门","description":"用中文浏览Reddit热门内容","social":[{"name":"Reddit","url":"https://www.reddit.com","external":true,"prefetch":null},{"name":"Buzzing","url":"https://www.buzzing.cc/","external":true,"prefetch":null}],"menuLinks":[{"name":"每周精选","url":"/issues","external":null,"prefetch":null}],"localize":[{"locale":"en","title":"Buzzing on Reddit","description":"See what's buzzing on Reddit in your native language","social":[{"name":"Reddit","url":"https://www.reddit.com/","external":true,"prefetch":null}],"menuLinks":[{"name":"Weekly Selection","url":"/en/issues","external":null,"prefetch":null}]},{"locale":"zh-Hant","title":"Reddit 熱門","description":"用中文瀏覽Reddit熱門內容","social":null,"menuLinks":[{"name":"每週精選","url":"/zh-Hant/issues","external":null,"prefetch":null}]},{"locale":"ja","title":"Reddit 人気の記事","description":"人気のReddit記事を日本語で閲覧","social":null,"menuLinks":[]}]}},"tagsGroup":{"group":[{"fieldValue":"ABoringDystopia","totalCount":3},{"fieldValue":"AOC","totalCount":1},{"fieldValue":"AbruptChaos","totalCount":1},{"fieldValue":"AmongUs","totalCount":2},{"fieldValue":"AnimalsBeingBros","totalCount":1},{"fieldValue":"Art","totalCount":1},{"fieldValue":"AskReddit","totalCount":43},{"fieldValue":"Bad_Cop_No_Donut","totalCount":2},{"fieldValue":"BeAmazed","totalCount":4},{"fieldValue":"BikiniBottomTwitter","totalCount":7},{"fieldValue":"BlackPeopleTwitter","totalCount":90},{"fieldValue":"Bossfight","totalCount":1},{"fieldValue":"CapitolConsequences","totalCount":1},{"fieldValue":"Conservative","totalCount":1},{"fieldValue":"Coronavirus","totalCount":2},{"fieldValue":"Cringetopia","totalCount":11},{"fieldValue":"Damnthatsinteresting","totalCount":83},{"fieldValue":"DunderMifflin","totalCount":1},{"fieldValue":"FuckYouKaren","totalCount":8},{"fieldValue":"FunnyandSad","totalCount":1},{"fieldValue":"Futurology","totalCount":5},{"fieldValue":"GetMotivated","totalCount":1},{"fieldValue":"HolUp","totalCount":104},{"fieldValue":"HumansBeingBros","totalCount":14},{"fieldValue":"IdiotsInCars","totalCount":24},{"fieldValue":"IsTodayFridayThe13th","totalCount":1},{"fieldValue":"JusticeServed","totalCount":4},{"fieldValue":"KamikazeByWords","totalCount":1},{"fieldValue":"KidsAreFuckingStupid","totalCount":5},{"fieldValue":"LeopardsAteMyFace","totalCount":11},{"fieldValue":"LifeProTips","totalCount":26},{"fieldValue":"MadeMeSmile","totalCount":304},{"fieldValue":"Minecraft","totalCount":23},{"fieldValue":"MovieDetails","totalCount":3},{"fieldValue":"MurderedByAOC","totalCount":5},{"fieldValue":"MurderedByWords","totalCount":111},{"fieldValue":"Music","totalCount":2},{"fieldValue":"NatureIsFuckingLit","totalCount":11},{"fieldValue":"NoStupidQuestions","totalCount":1},{"fieldValue":"OldSchoolCool","totalCount":4},{"fieldValue":"PoliticalHumor","totalCount":55},{"fieldValue":"PrequelMemes","totalCount":23},{"fieldValue":"PublicFreakout","totalCount":106},{"fieldValue":"SelfAwarewolves","totalCount":2},{"fieldValue":"ShitPostCrusaders","totalCount":1},{"fieldValue":"ShittyLifeProTips","totalCount":3},{"fieldValue":"Showerthoughts","totalCount":11},{"fieldValue":"StarWars","totalCount":1},{"fieldValue":"TIHI","totalCount":4},{"fieldValue":"ThatsInsane","totalCount":6},{"fieldValue":"TheBoys","totalCount":1},{"fieldValue":"TheRightCantMeme","totalCount":1},{"fieldValue":"TikTokCringe","totalCount":3},{"fieldValue":"Tinder","totalCount":5},{"fieldValue":"ToiletPaperUSA","totalCount":2},{"fieldValue":"TwoXChromosomes","totalCount":2},{"fieldValue":"Unexpected","totalCount":141},{"fieldValue":"UpliftingNews","totalCount":5},{"fieldValue":"WTF","totalCount":1},{"fieldValue":"WallStreetbetsELITE","totalCount":1},{"fieldValue":"WatchPeopleDieInside","totalCount":66},{"fieldValue":"Wellthatsucks","totalCount":32},{"fieldValue":"Whatcouldgowrong","totalCount":17},{"fieldValue":"WhitePeopleTwitter","totalCount":283},{"fieldValue":"WinStupidPrizes","totalCount":1},{"fieldValue":"agedlikemilk","totalCount":2},{"fieldValue":"announcements","totalCount":1},{"fieldValue":"apexlegends","totalCount":1},{"fieldValue":"assholedesign","totalCount":4},{"fieldValue":"awfuleverything","totalCount":7},{"fieldValue":"aww","totalCount":392},{"fieldValue":"blackmagicfuckery","totalCount":7},{"fieldValue":"blog","totalCount":2},{"fieldValue":"blursedimages","totalCount":7},{"fieldValue":"canada","totalCount":1},{"fieldValue":"clevercomebacks","totalCount":2},{"fieldValue":"comedyheaven","totalCount":10},{"fieldValue":"confidentlyincorrect","totalCount":2},{"fieldValue":"coolguides","totalCount":5},{"fieldValue":"cursedcomments","totalCount":54},{"fieldValue":"cyberpunkgame","totalCount":3},{"fieldValue":"dankmemes","totalCount":448},{"fieldValue":"dataisbeautiful","totalCount":6},{"fieldValue":"dndmemes","totalCount":1},{"fieldValue":"dogecoin","totalCount":1},{"fieldValue":"europe","totalCount":1},{"fieldValue":"facepalm","totalCount":143},{"fieldValue":"funny","totalCount":339},{"fieldValue":"gaming","totalCount":253},{"fieldValue":"gatekeeping","totalCount":1},{"fieldValue":"gifs","totalCount":49},{"fieldValue":"harrypotter","totalCount":1},{"fieldValue":"iamatotalpieceofshit","totalCount":15},{"fieldValue":"insanepeoplefacebook","totalCount":9},{"fieldValue":"instant_regret","totalCount":9},{"fieldValue":"instantkarma","totalCount":1},{"fieldValue":"interestingasfuck","totalCount":432},{"fieldValue":"intermittentfasting","totalCount":1},{"fieldValue":"lotrmemes","totalCount":1},{"fieldValue":"madlads","totalCount":9},{"fieldValue":"marvelstudios","totalCount":2},{"fieldValue":"me_irl","totalCount":17},{"fieldValue":"memes","totalCount":1081},{"fieldValue":"mildlyinfuriating","totalCount":23},{"fieldValue":"mildlyinteresting","totalCount":100},{"fieldValue":"movies","totalCount":11},{"fieldValue":"natureismetal","totalCount":3},{"fieldValue":"nevertellmetheodds","totalCount":3},{"fieldValue":"news","totalCount":131},{"fieldValue":"nextfuckinglevel","totalCount":595},{"fieldValue":"nottheonion","totalCount":20},{"fieldValue":"oddlysatisfying","totalCount":46},{"fieldValue":"pcmasterrace","totalCount":11},{"fieldValue":"perfectlycutscreams","totalCount":1},{"fieldValue":"pics","totalCount":373},{"fieldValue":"politics","totalCount":186},{"fieldValue":"povertyfinance","totalCount":1},{"fieldValue":"quityourbullshit","totalCount":2},{"fieldValue":"rareinsults","totalCount":15},{"fieldValue":"rarepuppers","totalCount":1},{"fieldValue":"reddit","totalCount":7163},{"fieldValue":"sadcringe","totalCount":1},{"fieldValue":"science","totalCount":23},{"fieldValue":"shittymoviedetails","totalCount":2},{"fieldValue":"space","totalCount":9},{"fieldValue":"specializedtools","totalCount":1},{"fieldValue":"sports","totalCount":2},{"fieldValue":"starterpacks","totalCount":11},{"fieldValue":"stocks","totalCount":1},{"fieldValue":"suspiciouslyspecific","totalCount":1},{"fieldValue":"technicallythetruth","totalCount":12},{"fieldValue":"technology","totalCount":16},{"fieldValue":"teenagers","totalCount":19},{"fieldValue":"therewasanattempt","totalCount":3},{"fieldValue":"tifu","totalCount":1},{"fieldValue":"todayilearned","totalCount":105},{"fieldValue":"toptalent","totalCount":2},{"fieldValue":"trashy","totalCount":2},{"fieldValue":"trippinthroughtime","totalCount":2},{"fieldValue":"videos","totalCount":4},{"fieldValue":"wallstreetbets","totalCount":176},{"fieldValue":"wholesomememes","totalCount":121},{"fieldValue":"woahdude","totalCount":1},{"fieldValue":"worldnews","totalCount":108},{"fieldValue":"youseeingthisshit","totalCount":1}]},"allBlogPost":{"nodes":[{"__typename":"SocialMediaPost","id":"RedditPost-jyb6f0","excerpt":"","slug":"/reddit/r/funny/comments/jyb6f0/i_tried_to_make_cthulhu_pie_but_i_got_his_derpy/","title":"I tried to make Cthulhu pie but I got his derpy cousin","date":"November 21, 2020","dateISO":"2020-11-21T20:09:22.000Z","datetime":"2020-11-21 20:09","tags":["funny","reddit"],"image":null,"imageAlt":"Reddit Image","provider":"Reddit","thirdPartyId":"jyb6f0","url":"https://www.reddit.com/r/funny/comments/jyb6f0/i_tried_to_make_cthulhu_pie_but_i_got_his_derpy/","originalUrl":"https://www.reddit.com/r/funny/comments/jyb6f0/i_tried_to_make_cthulhu_pie_but_i_got_his_derpy/","imageRemote":"https://preview.redd.it/lxgrsusgnl061.jpg?width=640&crop=smart&auto=webp&s=0479787657d7ce86f73faed0404b3601e5db0d0f","video":null,"channel":"funny","channelUrl":"https://www.reddit.com/r/funny","author":"doseofsense","authorUrl":"https://www.reddit.com/user/doseofsense","authorImage":null,"authorSlug":"doseofsense","score":105824,"views":null,"sharedCount":null,"likeCount":null,"sharedContent":null,"parent":{"__typename":"RedditJson","localize":[{"title":"我试着做Cthulhu派，但我得到了他的皮毛表弟","the_new_excerpt":null,"locale":"zh"},{"title":"我試著做Cthulhu派，但我得到了他的皮毛表弟","the_new_excerpt":null,"locale":"zh-Hant"}]}},{"__typename":"SocialMediaPost","id":"RedditPost-jx5ih4","excerpt":"","slug":"/reddit/r/funny/comments/jx5ih4/if_apple_made_electric_cars/","title":"If Apple made electric cars","date":"November 20, 2020","dateISO":"2020-11-20T02:22:16.000Z","datetime":"2020-11-20 02:22","tags":["funny","reddit"],"image":null,"imageAlt":"Reddit Image","provider":"Reddit","thirdPartyId":"jx5ih4","url":"https://www.reddit.com/r/funny/comments/jx5ih4/if_apple_made_electric_cars/","originalUrl":"https://www.reddit.com/r/funny/comments/jx5ih4/if_apple_made_electric_cars/","imageRemote":"https://preview.redd.it/zzgzitx218061.png?width=320&crop=smart&auto=webp&s=f0f565ff0d0a637bc6a1f7e0d566093ab9ce914c","video":null,"channel":"funny","channelUrl":"https://www.reddit.com/r/funny","author":"australianjalien","authorUrl":"https://www.reddit.com/user/australianjalien","authorImage":null,"authorSlug":"australianjalien","score":83195,"views":null,"sharedCount":null,"likeCount":null,"sharedContent":null,"parent":{"__typename":"RedditJson","localize":[{"title":"如果苹果制造电动汽车","the_new_excerpt":null,"locale":"zh"},{"title":"如果蘋果制造電動汽車","the_new_excerpt":null,"locale":"zh-Hant"}]}},{"__typename":"SocialMediaPost","id":"RedditPost-jwo8ad","excerpt":"","slug":"/reddit/r/funny/comments/jwo8ad/german_military_precision/","title":"German Military Precision","date":"November 19, 2020","dateISO":"2020-11-19T10:54:40.000Z","datetime":"2020-11-19 10:54","tags":["funny","reddit"],"image":null,"imageAlt":null,"provider":"Reddit","thirdPartyId":"jwo8ad","url":"https://www.reddit.com/r/funny/comments/jwo8ad/german_military_precision/","originalUrl":"https://www.reddit.com/r/funny/comments/jwo8ad/german_military_precision/","imageRemote":null,"video":{"url":"https://www.reddit.com/mediaembed/jwo8ad","embed":true,"width":408,"height":720},"channel":"funny","channelUrl":"https://www.reddit.com/r/funny","author":"NDB05_","authorUrl":"https://www.reddit.com/user/NDB05_","authorImage":null,"authorSlug":"NDB05_","score":79000,"views":null,"sharedCount":null,"likeCount":null,"sharedContent":null,"parent":{"__typename":"RedditJson","localize":[{"title":"德国军事精度","the_new_excerpt":null,"locale":"zh"},{"title":"德國軍事精度","the_new_excerpt":null,"locale":"zh-Hant"}]}},{"__typename":"SocialMediaPost","id":"RedditPost-jw23ud","excerpt":"","slug":"/reddit/r/funny/comments/jw23ud/covid_has_forced_people_into_bartering/","title":"Covid has forced people into bartering.","date":"November 18, 2020","dateISO":"2020-11-18T05:20:55.000Z","datetime":"2020-11-18 05:20","tags":["funny","reddit"],"image":null,"imageAlt":null,"provider":"Reddit","thirdPartyId":"jw23ud","url":"https://www.reddit.com/r/funny/comments/jw23ud/covid_has_forced_people_into_bartering/","originalUrl":"https://www.reddit.com/r/funny/comments/jw23ud/covid_has_forced_people_into_bartering/","imageRemote":null,"video":{"url":"https://www.reddit.com/mediaembed/jw23ud","embed":true,"width":576,"height":720},"channel":"funny","channelUrl":"https://www.reddit.com/r/funny","author":"AbortionGhost","authorUrl":"https://www.reddit.com/user/AbortionGhost","authorImage":null,"authorSlug":"AbortionGhost","score":107982,"views":null,"sharedCount":null,"likeCount":null,"sharedContent":null,"parent":{"__typename":"RedditJson","localize":[{"title":"Covid强迫人们以物易物。","the_new_excerpt":null,"locale":"zh"},{"title":"Covid強迫人們以物易物。","the_new_excerpt":null,"locale":"zh-Hant"}]}},{"__typename":"SocialMediaPost","id":"RedditPost-jvs0ra","excerpt":"","slug":"/reddit/r/funny/comments/jvs0ra/dont_turn_30/","title":"Don't turn 30.","date":"November 17, 2020","dateISO":"2020-11-17T22:21:23.000Z","datetime":"2020-11-17 22:21","tags":["funny","reddit"],"image":null,"imageAlt":"Reddit Image","provider":"Reddit","thirdPartyId":"jvs0ra","url":"https://www.reddit.com/r/funny/comments/jvs0ra/dont_turn_30/","originalUrl":"https://www.reddit.com/r/funny/comments/jvs0ra/dont_turn_30/","imageRemote":"https://preview.redd.it/tuyzyb3llsz51.png?width=640&crop=smart&auto=webp&s=5521734642da4af599dfa1104eb046ceab5e9849","video":null,"channel":"funny","channelUrl":"https://www.reddit.com/r/funny","author":"ExtraMeltyToons","authorUrl":"https://www.reddit.com/user/ExtraMeltyToons","authorImage":null,"authorSlug":"ExtraMeltyToons","score":80825,"views":null,"sharedCount":null,"likeCount":null,"sharedContent":null,"parent":{"__typename":"RedditJson","localize":[{"title":"别过了30岁。","the_new_excerpt":null,"locale":"zh"},{"title":"別過了30歲。","the_new_excerpt":null,"locale":"zh-Hant"}]}},{"__typename":"SocialMediaPost","id":"RedditPost-jvirji","excerpt":"","slug":"/reddit/r/funny/comments/jvirji/you_can_tell_the_age_of_a_tree_from_its_rings/","title":"You can tell the age of a tree from its rings","date":"November 17, 2020","dateISO":"2020-11-17T10:39:10.000Z","datetime":"2020-11-17 10:39","tags":["funny","reddit"],"image":null,"imageAlt":"Reddit Image","provider":"Reddit","thirdPartyId":"jvirji","url":"https://www.reddit.com/r/funny/comments/jvirji/you_can_tell_the_age_of_a_tree_from_its_rings/","originalUrl":"https://www.reddit.com/r/funny/comments/jvirji/you_can_tell_the_age_of_a_tree_from_its_rings/","imageRemote":"https://preview.redd.it/dlq1oz6m1pz51.jpg?width=960&crop=smart&auto=webp&s=298a4064741c58d0b11e1589505d3847ab2e0495","video":null,"channel":"funny","channelUrl":"https://www.reddit.com/r/funny","author":"Argodruid","authorUrl":"https://www.reddit.com/user/Argodruid","authorImage":null,"authorSlug":"Argodruid","score":98894,"views":null,"sharedCount":null,"likeCount":null,"sharedContent":null,"parent":{"__typename":"RedditJson","localize":[{"title":"你可以从年轮判断出一棵树的年龄。","the_new_excerpt":null,"locale":"zh"},{"title":"妳可以從年輪判斷出壹棵樹的年齡。","the_new_excerpt":null,"locale":"zh-Hant"}]}},{"__typename":"SocialMediaPost","id":"RedditPost-jvggzk","excerpt":"","slug":"/reddit/r/funny/comments/jvggzk/when_did_bumper_stickers_get_so_existential/","title":"When did bumper stickers get so existential?","date":"November 17, 2020","dateISO":"2020-11-17T06:56:46.000Z","datetime":"2020-11-17 06:56","tags":["funny","reddit"],"image":null,"imageAlt":"Reddit Image","provider":"Reddit","thirdPartyId":"jvggzk","url":"https://www.reddit.com/r/funny/comments/jvggzk/when_did_bumper_stickers_get_so_existential/","originalUrl":"https://www.reddit.com/r/funny/comments/jvggzk/when_did_bumper_stickers_get_so_existential/","imageRemote":"https://preview.redd.it/9zfd3bq2foz51.jpg?width=1080&crop=smart&auto=webp&s=1520a383e86dcc16ce8b8759be687af0813da9e0","video":null,"channel":"funny","channelUrl":"https://www.reddit.com/r/funny","author":"PM_NICESTUFFTOME","authorUrl":"https://www.reddit.com/user/PM_NICESTUFFTOME","authorImage":null,"authorSlug":"PM_NICESTUFFTOME","score":88582,"views":null,"sharedCount":null,"likeCount":null,"sharedContent":null,"parent":{"__typename":"RedditJson","localize":[{"title":"保险杠贴纸什么时候变得如此具有存在感了？","the_new_excerpt":null,"locale":"zh"},{"title":"保險杠貼紙什麽時候變得如此具有存在感了？","the_new_excerpt":null,"locale":"zh-Hant"}]}},{"__typename":"SocialMediaPost","id":"RedditPost-jvc819","excerpt":"","slug":"/reddit/r/funny/comments/jvc819/a_year_ago_i_started_sending_my_gf_these_photos/","title":"A year ago I started sending my GF these photos whenever she asked if the baby was ok","date":"November 17, 2020","dateISO":"2020-11-17T01:55:31.000Z","datetime":"2020-11-17 01:55","tags":["funny","reddit"],"image":null,"imageAlt":"Reddit Image","provider":"Reddit","thirdPartyId":"jvc819","url":"https://www.reddit.com/r/funny/comments/jvc819/a_year_ago_i_started_sending_my_gf_these_photos/","originalUrl":"https://www.reddit.com/r/funny/comments/jvc819/a_year_ago_i_started_sending_my_gf_these_photos/","imageRemote":"https://preview.redd.it/h03rmg5ccnz51.jpg?width=1080&crop=smart&auto=webp&s=0af273b925e2e94482cc0c31ff95abfdeafc775b","video":null,"channel":"funny","channelUrl":"https://www.reddit.com/r/funny","author":"BitwiseShift","authorUrl":"https://www.reddit.com/user/BitwiseShift","authorImage":null,"authorSlug":"BitwiseShift","score":121690,"views":null,"sharedCount":null,"likeCount":null,"sharedContent":null,"parent":{"__typename":"RedditJson","localize":[{"title":"一年前，每当我的女朋友问我孩子好不好时，我就开始把这些照片发给她","the_new_excerpt":null,"locale":"zh"},{"title":"壹年前，每當我的女朋友問我孩子好不好時，我就開始把這些照片發給她","the_new_excerpt":null,"locale":"zh-Hant"}]}},{"__typename":"SocialMediaPost","id":"RedditPost-jukaja","excerpt":"","slug":"/reddit/r/funny/comments/jukaja/oh_crap_were_having_a_test_today/","title":"\"Oh crap, we're having a test today?\"","date":"November 15, 2020","dateISO":"2020-11-15T20:15:34.000Z","datetime":"2020-11-15 20:15","tags":["funny","reddit"],"image":null,"imageAlt":null,"provider":"Reddit","thirdPartyId":"jukaja","url":"https://www.reddit.com/r/funny/comments/jukaja/oh_crap_were_having_a_test_today/","originalUrl":"https://www.reddit.com/r/funny/comments/jukaja/oh_crap_were_having_a_test_today/","imageRemote":null,"video":{"url":"https://v.redd.it/fif87cp7zdz51/DASH_720.mp4","embed":null,"width":576,"height":720},"channel":"funny","channelUrl":"https://www.reddit.com/r/funny","author":"JuliatryDavid","authorUrl":"https://www.reddit.com/user/JuliatryDavid","authorImage":null,"authorSlug":"JuliatryDavid","score":76007,"views":null,"sharedCount":null,"likeCount":null,"sharedContent":null,"parent":{"__typename":"RedditJson","localize":[{"title":"“糟了，我们今天要考试吗？”","the_new_excerpt":null,"locale":"zh"},{"title":"“糟了，我們今天要考試嗎？”","the_new_excerpt":null,"locale":"zh-Hant"}]}},{"__typename":"SocialMediaPost","id":"RedditPost-judrvn","excerpt":"","slug":"/reddit/r/funny/comments/judrvn/my_buddys_girlfriend_farted_in_front_of_him_for/","title":"My buddy’s girlfriend farted in front of him for the first time. He got a cake for the occasion.","date":"November 15, 2020","dateISO":"2020-11-15T01:48:45.000Z","datetime":"2020-11-15 01:48","tags":["funny","reddit"],"image":null,"imageAlt":"Reddit Image","provider":"Reddit","thirdPartyId":"judrvn","url":"https://www.reddit.com/r/funny/comments/judrvn/my_buddys_girlfriend_farted_in_front_of_him_for/","originalUrl":"https://www.reddit.com/r/funny/comments/judrvn/my_buddys_girlfriend_farted_in_front_of_him_for/","imageRemote":"https://preview.redd.it/zbzn2dyj7bz51.jpg?width=1080&crop=smart&auto=webp&s=4c0e4788c7629c9650922a7d744a039d4574a09b","video":null,"channel":"funny","channelUrl":"https://www.reddit.com/r/funny","author":"idk5775","authorUrl":"https://www.reddit.com/user/idk5775","authorImage":null,"authorSlug":"idk5775","score":92637,"views":null,"sharedCount":null,"likeCount":null,"sharedContent":null,"parent":{"__typename":"RedditJson","localize":[{"title":"我朋友的女朋友第一次在他面前放屁。他为这个场合准备了一块蛋糕。","the_new_excerpt":null,"locale":"zh"},{"title":"我朋友的女朋友第壹次在他面前放屁。他為這個場合準備了壹塊蛋糕。","the_new_excerpt":null,"locale":"zh-Hant"}]}},{"__typename":"SocialMediaPost","id":"RedditPost-jtwoe0","excerpt":"","slug":"/reddit/r/funny/comments/jtwoe0/the_cat_just_took_a_huge_mouthful/","title":"The cat just took a huge mouthful","date":"November 14, 2020","dateISO":"2020-11-14T05:36:44.000Z","datetime":"2020-11-14 05:36","tags":["funny","reddit"],"image":null,"imageAlt":null,"provider":"Reddit","thirdPartyId":"jtwoe0","url":"https://www.reddit.com/r/funny/comments/jtwoe0/the_cat_just_took_a_huge_mouthful/","originalUrl":"https://www.reddit.com/r/funny/comments/jtwoe0/the_cat_just_took_a_huge_mouthful/","imageRemote":null,"video":{"url":"https://www.reddit.com/mediaembed/jtwoe0","embed":true,"width":360,"height":480},"channel":"funny","channelUrl":"https://www.reddit.com/r/funny","author":"KikoTheWonderful","authorUrl":"https://www.reddit.com/user/KikoTheWonderful","authorImage":null,"authorSlug":"KikoTheWonderful","score":81372,"views":null,"sharedCount":null,"likeCount":null,"sharedContent":null,"parent":{"__typename":"RedditJson","localize":[{"title":"那只猫刚刚大口大口地吃了一大口。","the_new_excerpt":null,"locale":"zh"},{"title":"那只貓剛剛大口大口地吃了壹大口。","the_new_excerpt":null,"locale":"zh-Hant"}]}},{"__typename":"SocialMediaPost","id":"RedditPost-jtq1bw","excerpt":"","slug":"/reddit/r/funny/comments/jtq1bw/my_lucky_day_some_guy_was_selling_ps5s_outside/","title":"My lucky day.. some guy was selling PS5's outside the grocery store for $50","date":"November 13, 2020","dateISO":"2020-11-13T22:27:40.000Z","datetime":"2020-11-13 22:27","tags":["funny","reddit"],"image":null,"imageAlt":"Reddit Image","provider":"Reddit","thirdPartyId":"jtq1bw","url":"https://www.reddit.com/r/funny/comments/jtq1bw/my_lucky_day_some_guy_was_selling_ps5s_outside/","originalUrl":"https://www.reddit.com/r/funny/comments/jtq1bw/my_lucky_day_some_guy_was_selling_ps5s_outside/","imageRemote":"https://preview.redd.it/kq0hcb2s23z51.jpg?width=640&crop=smart&auto=webp&s=d4c4993d21a53d0670e1cd75cea5f8b99fbfa955","video":null,"channel":"funny","channelUrl":"https://www.reddit.com/r/funny","author":"OldDeadEyez","authorUrl":"https://www.reddit.com/user/OldDeadEyez","authorImage":null,"authorSlug":"OldDeadEyez","score":95969,"views":null,"sharedCount":null,"likeCount":null,"sharedContent":null,"parent":{"__typename":"RedditJson","localize":[{"title":"我的幸运日..。有个人在杂货店外卖PS5，要价50美元。","the_new_excerpt":null,"locale":"zh"},{"title":"我的幸運日..。有個人在雜貨店外賣PS5，要價50美元。","the_new_excerpt":null,"locale":"zh-Hant"}]}},{"__typename":"SocialMediaPost","id":"RedditPost-jtg1bz","excerpt":"","slug":"/reddit/r/funny/comments/jtg1bz/i_guess_the_cake_was_too_hot/","title":"I guess the cake was too hot","date":"November 13, 2020","dateISO":"2020-11-13T12:21:43.000Z","datetime":"2020-11-13 12:21","tags":["funny","reddit"],"image":null,"imageAlt":"Reddit Image","provider":"Reddit","thirdPartyId":"jtg1bz","url":"https://www.reddit.com/r/funny/comments/jtg1bz/i_guess_the_cake_was_too_hot/","originalUrl":"https://www.reddit.com/r/funny/comments/jtg1bz/i_guess_the_cake_was_too_hot/","imageRemote":"https://preview.redd.it/e82qxd4o20z51.jpg?width=1080&crop=smart&auto=webp&s=d5b24306b47e7438485a2cf15ba527e35a2fc8ec","video":null,"channel":"funny","channelUrl":"https://www.reddit.com/r/funny","author":"Lekje","authorUrl":"https://www.reddit.com/user/Lekje","authorImage":null,"authorSlug":"Lekje","score":84504,"views":null,"sharedCount":null,"likeCount":null,"sharedContent":null,"parent":{"__typename":"RedditJson","localize":[{"title":"我想蛋糕太烫了。","the_new_excerpt":null,"locale":"zh"},{"title":"我想蛋糕太燙了。","the_new_excerpt":null,"locale":"zh-Hant"}]}},{"__typename":"SocialMediaPost","id":"RedditPost-jt19fl","excerpt":"","slug":"/reddit/r/funny/comments/jt19fl/the_benefits_of_growing_older/","title":"The benefits of growing older","date":"November 12, 2020","dateISO":"2020-11-12T19:26:51.000Z","datetime":"2020-11-12 19:26","tags":["funny","reddit"],"image":null,"imageAlt":"Reddit Image","provider":"Reddit","thirdPartyId":"jt19fl","url":"https://www.reddit.com/r/funny/comments/jt19fl/the_benefits_of_growing_older/","originalUrl":"https://www.reddit.com/r/funny/comments/jt19fl/the_benefits_of_growing_older/","imageRemote":"https://preview.redd.it/nsqyydoj1vy51.jpg?width=1080&crop=smart&auto=webp&s=e80c2fc205ae6faade06dc137740333a187c9f4d","video":null,"channel":"funny","channelUrl":"https://www.reddit.com/r/funny","author":"MadeByTio","authorUrl":"https://www.reddit.com/user/MadeByTio","authorImage":null,"authorSlug":"MadeByTio","score":92906,"views":null,"sharedCount":null,"likeCount":null,"sharedContent":null,"parent":{"__typename":"RedditJson","localize":[{"title":"变老的好处","the_new_excerpt":null,"locale":"zh"},{"title":"變老的好處","the_new_excerpt":null,"locale":"zh-Hant"}]}}]}},"pageContext":{"basePath":"/","pageType":"tag","tag":"funny","tagsFilter":{"id":{"glob":"!*Post-1"}},"filter":{"id":{"glob":"!*Post-1"},"tags":{"eq":"funny"}},"limit":25,"skip":325,"total":339,"totalPages":14,"currentPage":14,"maxWidth":1024,"maxHeight":512,"locale":"zh-Hant","hrefLang":"zh-Hant","originalPath":"/tags/funny/page/14","dateFormat":"YYYY-MM-DD"}},"staticQueryHashes":["1239077767","2506312863","2744905544","3025052997","3493603132","3493603132","3513215887","386998304"]}