{"componentChunkName":"component---node-modules-gatsby-theme-buzzing-src-gatsby-theme-timeline-templates-posts-query-js","path":"/tags/memes/page/44","result":{"data":{"site":{"siteMetadata":{"title":"Reddit 热门","description":"用中文浏览Reddit热门内容","social":[{"name":"Reddit","url":"https://www.reddit.com","external":true,"prefetch":null},{"name":"Buzzing","url":"https://www.buzzing.cc/","external":true,"prefetch":null}],"menuLinks":[{"name":"每周精选","url":"/issues","external":null,"prefetch":null}],"localize":[{"locale":"en","title":"Buzzing on Reddit","description":"See what's buzzing on Reddit in your native language","social":[{"name":"Reddit","url":"https://www.reddit.com/","external":true,"prefetch":null}],"menuLinks":[{"name":"Weekly Selection","url":"/en/issues","external":null,"prefetch":null}]},{"locale":"zh-Hant","title":"Reddit 熱門","description":"用中文瀏覽Reddit熱門內容","social":null,"menuLinks":[{"name":"每週精選","url":"/zh-Hant/issues","external":null,"prefetch":null}]},{"locale":"ja","title":"Reddit 人気の記事","description":"人気のReddit記事を日本語で閲覧","social":null,"menuLinks":[]}]}},"tagsGroup":{"group":[{"fieldValue":"ABoringDystopia","totalCount":3},{"fieldValue":"AOC","totalCount":1},{"fieldValue":"AbruptChaos","totalCount":1},{"fieldValue":"AmongUs","totalCount":2},{"fieldValue":"AnimalsBeingBros","totalCount":1},{"fieldValue":"Art","totalCount":1},{"fieldValue":"AskReddit","totalCount":43},{"fieldValue":"Bad_Cop_No_Donut","totalCount":2},{"fieldValue":"BeAmazed","totalCount":4},{"fieldValue":"BikiniBottomTwitter","totalCount":7},{"fieldValue":"BlackPeopleTwitter","totalCount":90},{"fieldValue":"Bossfight","totalCount":1},{"fieldValue":"CapitolConsequences","totalCount":1},{"fieldValue":"Conservative","totalCount":1},{"fieldValue":"Coronavirus","totalCount":2},{"fieldValue":"Cringetopia","totalCount":11},{"fieldValue":"Damnthatsinteresting","totalCount":83},{"fieldValue":"DunderMifflin","totalCount":1},{"fieldValue":"FuckYouKaren","totalCount":8},{"fieldValue":"FunnyandSad","totalCount":1},{"fieldValue":"Futurology","totalCount":5},{"fieldValue":"GetMotivated","totalCount":1},{"fieldValue":"HolUp","totalCount":104},{"fieldValue":"HumansBeingBros","totalCount":14},{"fieldValue":"IdiotsInCars","totalCount":24},{"fieldValue":"IsTodayFridayThe13th","totalCount":1},{"fieldValue":"JusticeServed","totalCount":4},{"fieldValue":"KamikazeByWords","totalCount":1},{"fieldValue":"KidsAreFuckingStupid","totalCount":5},{"fieldValue":"LeopardsAteMyFace","totalCount":11},{"fieldValue":"LifeProTips","totalCount":26},{"fieldValue":"MadeMeSmile","totalCount":304},{"fieldValue":"Minecraft","totalCount":23},{"fieldValue":"MovieDetails","totalCount":3},{"fieldValue":"MurderedByAOC","totalCount":5},{"fieldValue":"MurderedByWords","totalCount":111},{"fieldValue":"Music","totalCount":2},{"fieldValue":"NatureIsFuckingLit","totalCount":11},{"fieldValue":"NoStupidQuestions","totalCount":1},{"fieldValue":"OldSchoolCool","totalCount":4},{"fieldValue":"PoliticalHumor","totalCount":55},{"fieldValue":"PrequelMemes","totalCount":23},{"fieldValue":"PublicFreakout","totalCount":106},{"fieldValue":"SelfAwarewolves","totalCount":2},{"fieldValue":"ShitPostCrusaders","totalCount":1},{"fieldValue":"ShittyLifeProTips","totalCount":3},{"fieldValue":"Showerthoughts","totalCount":11},{"fieldValue":"StarWars","totalCount":1},{"fieldValue":"TIHI","totalCount":4},{"fieldValue":"ThatsInsane","totalCount":6},{"fieldValue":"TheBoys","totalCount":1},{"fieldValue":"TheRightCantMeme","totalCount":1},{"fieldValue":"TikTokCringe","totalCount":3},{"fieldValue":"Tinder","totalCount":5},{"fieldValue":"ToiletPaperUSA","totalCount":2},{"fieldValue":"TwoXChromosomes","totalCount":2},{"fieldValue":"Unexpected","totalCount":141},{"fieldValue":"UpliftingNews","totalCount":5},{"fieldValue":"WTF","totalCount":1},{"fieldValue":"WallStreetbetsELITE","totalCount":1},{"fieldValue":"WatchPeopleDieInside","totalCount":66},{"fieldValue":"Wellthatsucks","totalCount":32},{"fieldValue":"Whatcouldgowrong","totalCount":17},{"fieldValue":"WhitePeopleTwitter","totalCount":284},{"fieldValue":"WinStupidPrizes","totalCount":1},{"fieldValue":"agedlikemilk","totalCount":2},{"fieldValue":"announcements","totalCount":1},{"fieldValue":"apexlegends","totalCount":1},{"fieldValue":"assholedesign","totalCount":4},{"fieldValue":"awfuleverything","totalCount":7},{"fieldValue":"aww","totalCount":393},{"fieldValue":"blackmagicfuckery","totalCount":7},{"fieldValue":"blog","totalCount":2},{"fieldValue":"blursedimages","totalCount":7},{"fieldValue":"canada","totalCount":1},{"fieldValue":"clevercomebacks","totalCount":2},{"fieldValue":"comedyheaven","totalCount":10},{"fieldValue":"confidentlyincorrect","totalCount":2},{"fieldValue":"coolguides","totalCount":5},{"fieldValue":"cursedcomments","totalCount":54},{"fieldValue":"cyberpunkgame","totalCount":3},{"fieldValue":"dankmemes","totalCount":448},{"fieldValue":"dataisbeautiful","totalCount":6},{"fieldValue":"dndmemes","totalCount":1},{"fieldValue":"dogecoin","totalCount":1},{"fieldValue":"europe","totalCount":1},{"fieldValue":"facepalm","totalCount":143},{"fieldValue":"funny","totalCount":339},{"fieldValue":"gaming","totalCount":253},{"fieldValue":"gatekeeping","totalCount":1},{"fieldValue":"gifs","totalCount":49},{"fieldValue":"harrypotter","totalCount":1},{"fieldValue":"iamatotalpieceofshit","totalCount":15},{"fieldValue":"insanepeoplefacebook","totalCount":9},{"fieldValue":"instant_regret","totalCount":9},{"fieldValue":"instantkarma","totalCount":1},{"fieldValue":"interestingasfuck","totalCount":433},{"fieldValue":"intermittentfasting","totalCount":1},{"fieldValue":"lotrmemes","totalCount":1},{"fieldValue":"madlads","totalCount":9},{"fieldValue":"marvelstudios","totalCount":2},{"fieldValue":"me_irl","totalCount":17},{"fieldValue":"memes","totalCount":1082},{"fieldValue":"mildlyinfuriating","totalCount":23},{"fieldValue":"mildlyinteresting","totalCount":100},{"fieldValue":"movies","totalCount":11},{"fieldValue":"natureismetal","totalCount":3},{"fieldValue":"nevertellmetheodds","totalCount":3},{"fieldValue":"news","totalCount":131},{"fieldValue":"nextfuckinglevel","totalCount":596},{"fieldValue":"nottheonion","totalCount":21},{"fieldValue":"oddlysatisfying","totalCount":46},{"fieldValue":"pcmasterrace","totalCount":11},{"fieldValue":"perfectlycutscreams","totalCount":1},{"fieldValue":"pics","totalCount":373},{"fieldValue":"politics","totalCount":186},{"fieldValue":"povertyfinance","totalCount":1},{"fieldValue":"quityourbullshit","totalCount":2},{"fieldValue":"rareinsults","totalCount":15},{"fieldValue":"rarepuppers","totalCount":1},{"fieldValue":"reddit","totalCount":7169},{"fieldValue":"sadcringe","totalCount":1},{"fieldValue":"science","totalCount":23},{"fieldValue":"shittymoviedetails","totalCount":2},{"fieldValue":"space","totalCount":9},{"fieldValue":"specializedtools","totalCount":1},{"fieldValue":"sports","totalCount":2},{"fieldValue":"starterpacks","totalCount":11},{"fieldValue":"stocks","totalCount":1},{"fieldValue":"suspiciouslyspecific","totalCount":1},{"fieldValue":"technicallythetruth","totalCount":12},{"fieldValue":"technology","totalCount":16},{"fieldValue":"teenagers","totalCount":19},{"fieldValue":"therewasanattempt","totalCount":3},{"fieldValue":"tifu","totalCount":1},{"fieldValue":"todayilearned","totalCount":105},{"fieldValue":"toptalent","totalCount":2},{"fieldValue":"trashy","totalCount":2},{"fieldValue":"trippinthroughtime","totalCount":2},{"fieldValue":"videos","totalCount":4},{"fieldValue":"wallstreetbets","totalCount":176},{"fieldValue":"wholesomememes","totalCount":121},{"fieldValue":"woahdude","totalCount":1},{"fieldValue":"worldnews","totalCount":108},{"fieldValue":"youseeingthisshit","totalCount":1}]},"allBlogPost":{"nodes":[{"__typename":"SocialMediaPost","id":"RedditPost-jtwk8i","excerpt":"","slug":"/reddit/r/memes/comments/jtwk8i/life_choices_life_choices/","title":"life choices life choices","date":"November 14, 2020","dateISO":"2020-11-14T05:27:22.000Z","datetime":"2020-11-14 05:27","tags":["memes","reddit"],"image":null,"imageAlt":"Reddit Image","provider":"Reddit","thirdPartyId":"jtwk8i","url":"https://www.reddit.com/r/memes/comments/jtwk8i/life_choices_life_choices/","originalUrl":"https://www.reddit.com/r/memes/comments/jtwk8i/life_choices_life_choices/","imageRemote":"https://preview.redd.it/eayb482j55z51.png?width=320&crop=smart&auto=webp&s=987e420190f8dbd6b63edac5e78729acdb85a2a4","video":null,"channel":"memes","channelUrl":"https://www.reddit.com/r/memes","author":"KikoTheWonderful","authorUrl":"https://www.reddit.com/user/KikoTheWonderful","authorImage":null,"authorSlug":"KikoTheWonderful","score":94003,"views":null,"sharedCount":null,"likeCount":null,"sharedContent":null,"parent":{"__typename":"RedditJson","localize":[{"title":"人生选择人生选择","the_new_excerpt":null,"locale":"zh"},{"title":"人生選擇人生選擇","the_new_excerpt":null,"locale":"zh-Hant"}]}},{"__typename":"SocialMediaPost","id":"RedditPost-jtsdfg","excerpt":"","slug":"/reddit/r/memes/comments/jtsdfg/go_go_go_go_go/","title":"Go go go go go!","date":"November 14, 2020","dateISO":"2020-11-14T00:43:57.000Z","datetime":"2020-11-14 00:43","tags":["memes","reddit"],"image":null,"imageAlt":"Reddit Image","provider":"Reddit","thirdPartyId":"jtsdfg","url":"https://www.reddit.com/r/memes/comments/jtsdfg/go_go_go_go_go/","originalUrl":"https://www.reddit.com/r/memes/comments/jtsdfg/go_go_go_go_go/","imageRemote":"https://preview.redd.it/swtnvpd3r3z51.jpg?width=1080&crop=smart&auto=webp&s=63248cd21be73c1a1c6b3b60a8e4581d0cca0299","video":null,"channel":"memes","channelUrl":"https://www.reddit.com/r/memes","author":"Imsoamerican","authorUrl":"https://www.reddit.com/user/Imsoamerican","authorImage":null,"authorSlug":"Imsoamerican","score":128140,"views":null,"sharedCount":null,"likeCount":null,"sharedContent":null,"parent":{"__typename":"RedditJson","localize":[{"title":"快走快走！","the_new_excerpt":null,"locale":"zh"},{"title":"快走快走！","the_new_excerpt":null,"locale":"zh-Hant"}]}},{"__typename":"SocialMediaPost","id":"RedditPost-jtmez6","excerpt":"","slug":"/reddit/r/memes/comments/jtmez6/grandmas_laugh_intensifies/","title":"Grandma's laugh intensifies","date":"November 13, 2020","dateISO":"2020-11-13T19:28:21.000Z","datetime":"2020-11-13 19:28","tags":["memes","reddit"],"image":null,"imageAlt":"Reddit Image","provider":"Reddit","thirdPartyId":"jtmez6","url":"https://www.reddit.com/r/memes/comments/jtmez6/grandmas_laugh_intensifies/","originalUrl":"https://www.reddit.com/r/memes/comments/jtmez6/grandmas_laugh_intensifies/","imageRemote":"https://preview.redd.it/bek9xbbs62z51.jpg?width=1080&crop=smart&auto=webp&s=8bf22b3eebcb65a971def2054dc5ded3796985d4","video":null,"channel":"memes","channelUrl":"https://www.reddit.com/r/memes","author":"jhonny6","authorUrl":"https://www.reddit.com/user/jhonny6","authorImage":null,"authorSlug":"jhonny6","score":80152,"views":null,"sharedCount":null,"likeCount":null,"sharedContent":null,"parent":{"__typename":"RedditJson","localize":[{"title":"奶奶的笑声愈演愈烈","the_new_excerpt":null,"locale":"zh"},{"title":"奶奶的笑聲愈演愈烈","the_new_excerpt":null,"locale":"zh-Hant"}]}},{"__typename":"SocialMediaPost","id":"RedditPost-jtgytf","excerpt":"","slug":"/reddit/r/memes/comments/jtgytf/wat_da_fuq/","title":"wat da fuq?","date":"November 13, 2020","dateISO":"2020-11-13T14:22:54.000Z","datetime":"2020-11-13 14:22","tags":["memes","reddit"],"image":null,"imageAlt":"Reddit Image","provider":"Reddit","thirdPartyId":"jtgytf","url":"https://www.reddit.com/r/memes/comments/jtgytf/wat_da_fuq/","originalUrl":"https://www.reddit.com/r/memes/comments/jtgytf/wat_da_fuq/","imageRemote":"https://preview.redd.it/45sjngeao0z51.png?width=1080&crop=smart&auto=webp&s=2d5bd831d0c21dc33473c102efb9937f23d388f3","video":null,"channel":"memes","channelUrl":"https://www.reddit.com/r/memes","author":"AlphaVark","authorUrl":"https://www.reddit.com/user/AlphaVark","authorImage":null,"authorSlug":"AlphaVark","score":121228,"views":null,"sharedCount":null,"likeCount":null,"sharedContent":null,"parent":{"__typename":"RedditJson","localize":[{"title":"什么达福？","the_new_excerpt":null,"locale":"zh"},{"title":"什麽達福？","the_new_excerpt":null,"locale":"zh-Hant"}]}},{"__typename":"SocialMediaPost","id":"RedditPost-jtci37","excerpt":"","slug":"/reddit/r/memes/comments/jtci37/well_played_sir/","title":"Well played, sir","date":"November 13, 2020","dateISO":"2020-11-13T06:54:13.000Z","datetime":"2020-11-13 06:54","tags":["memes","reddit"],"image":null,"imageAlt":"Reddit Image","provider":"Reddit","thirdPartyId":"jtci37","url":"https://www.reddit.com/r/memes/comments/jtci37/well_played_sir/","originalUrl":"https://www.reddit.com/r/memes/comments/jtci37/well_played_sir/","imageRemote":"https://preview.redd.it/0leb07r8gyy51.jpg?width=960&crop=smart&auto=webp&s=f2809c6a42abf7eb55181b5af75f89ecf55789b7","video":null,"channel":"memes","channelUrl":"https://www.reddit.com/r/memes","author":"TetraCGT","authorUrl":"https://www.reddit.com/user/TetraCGT","authorImage":null,"authorSlug":"TetraCGT","score":110246,"views":null,"sharedCount":null,"likeCount":null,"sharedContent":null,"parent":{"__typename":"RedditJson","localize":[{"title":"打得好，先生","the_new_excerpt":null,"locale":"zh"},{"title":"打得好，先生","the_new_excerpt":null,"locale":"zh-Hant"}]}},{"__typename":"SocialMediaPost","id":"RedditPost-jt6809","excerpt":"","slug":"/reddit/r/memes/comments/jt6809/you_have_discovered_a_bad_time/","title":"You have discovered A Bad Time","date":"November 12, 2020","dateISO":"2020-11-12T23:49:05.000Z","datetime":"2020-11-12 23:49","tags":["memes","reddit"],"image":null,"imageAlt":"Reddit Image","provider":"Reddit","thirdPartyId":"jt6809","url":"https://www.reddit.com/r/memes/comments/jt6809/you_have_discovered_a_bad_time/","originalUrl":"https://www.reddit.com/r/memes/comments/jt6809/you_have_discovered_a_bad_time/","imageRemote":"https://preview.redd.it/ch8gnjqmbwy51.jpg?width=1080&crop=smart&auto=webp&s=f97daaa60f5f0856a5b2be028359807d2a70b12d","video":null,"channel":"memes","channelUrl":"https://www.reddit.com/r/memes","author":"RobRaziel","authorUrl":"https://www.reddit.com/user/RobRaziel","authorImage":null,"authorSlug":"RobRaziel","score":117393,"views":null,"sharedCount":null,"likeCount":null,"sharedContent":null,"parent":{"__typename":"RedditJson","localize":[{"title":"你发现了一段不愉快的时光","the_new_excerpt":null,"locale":"zh"},{"title":"妳發現了壹段不愉快的時光","the_new_excerpt":null,"locale":"zh-Hant"}]}},{"__typename":"SocialMediaPost","id":"RedditPost-jt2pyt","excerpt":"","slug":"/reddit/r/memes/comments/jt2pyt/im_famous_now/","title":"I’m famous now","date":"November 12, 2020","dateISO":"2020-11-12T20:39:30.000Z","datetime":"2020-11-12 20:39","tags":["memes","reddit"],"image":null,"imageAlt":"Reddit Image","provider":"Reddit","thirdPartyId":"jt2pyt","url":"https://www.reddit.com/r/memes/comments/jt2pyt/im_famous_now/","originalUrl":"https://www.reddit.com/r/memes/comments/jt2pyt/im_famous_now/","imageRemote":"https://preview.redd.it/g9ykvmgkevy51.jpg?width=1080&crop=smart&auto=webp&s=4590cfcd831c82a311d40cf8fcfd95516db425cb","video":null,"channel":"memes","channelUrl":"https://www.reddit.com/r/memes","author":"stynsrienie","authorUrl":"https://www.reddit.com/user/stynsrienie","authorImage":null,"authorSlug":"stynsrienie","score":93051,"views":null,"sharedCount":null,"likeCount":null,"sharedContent":null,"parent":{"__typename":"RedditJson","localize":[{"title":"我现在出名了","the_new_excerpt":null,"locale":"zh"},{"title":"我現在出名了","the_new_excerpt":null,"locale":"zh-Hant"}]}}]}},"pageContext":{"basePath":"/","pageType":"tag","tag":"memes","tagsFilter":{"id":{"glob":"!*Post-1"}},"filter":{"id":{"glob":"!*Post-1"},"tags":{"eq":"memes"}},"limit":25,"skip":1075,"total":1082,"totalPages":44,"currentPage":44,"maxWidth":1024,"maxHeight":512,"locale":"zh","hrefLang":"zh-Hans","originalPath":"/tags/memes/page/44","dateFormat":"YYYY-MM-DD"}},"staticQueryHashes":["1239077767","2506312863","2744905544","3025052997","3493603132","3493603132","3513215887","386998304"]}