{"componentChunkName":"component---node-modules-gatsby-theme-buzzing-src-gatsby-theme-timeline-templates-posts-query-js","path":"/zh-Hant/tags/dankmemes/page/18","result":{"data":{"site":{"siteMetadata":{"title":"Reddit 热门","description":"用中文浏览Reddit热门内容","social":[{"name":"Reddit","url":"https://www.reddit.com","external":true,"prefetch":null},{"name":"Buzzing","url":"https://www.buzzing.cc/","external":true,"prefetch":null}],"menuLinks":[{"name":"每周精选","url":"/issues","external":null,"prefetch":null}],"localize":[{"locale":"en","title":"Buzzing on Reddit","description":"See what's buzzing on Reddit in your native language","social":[{"name":"Reddit","url":"https://www.reddit.com/","external":true,"prefetch":null}],"menuLinks":[{"name":"Weekly Selection","url":"/en/issues","external":null,"prefetch":null}]},{"locale":"zh-Hant","title":"Reddit 熱門","description":"用中文瀏覽Reddit熱門內容","social":null,"menuLinks":[{"name":"每週精選","url":"/zh-Hant/issues","external":null,"prefetch":null}]},{"locale":"ja","title":"Reddit 人気の記事","description":"人気のReddit記事を日本語で閲覧","social":null,"menuLinks":[]}]}},"tagsGroup":{"group":[{"fieldValue":"ABoringDystopia","totalCount":3},{"fieldValue":"AOC","totalCount":1},{"fieldValue":"AbruptChaos","totalCount":1},{"fieldValue":"AmongUs","totalCount":2},{"fieldValue":"AnimalsBeingBros","totalCount":1},{"fieldValue":"Art","totalCount":1},{"fieldValue":"AskReddit","totalCount":43},{"fieldValue":"Bad_Cop_No_Donut","totalCount":2},{"fieldValue":"BeAmazed","totalCount":4},{"fieldValue":"BikiniBottomTwitter","totalCount":7},{"fieldValue":"BlackPeopleTwitter","totalCount":87},{"fieldValue":"Bossfight","totalCount":1},{"fieldValue":"CapitolConsequences","totalCount":1},{"fieldValue":"Conservative","totalCount":1},{"fieldValue":"Coronavirus","totalCount":2},{"fieldValue":"Cringetopia","totalCount":11},{"fieldValue":"Damnthatsinteresting","totalCount":79},{"fieldValue":"DunderMifflin","totalCount":1},{"fieldValue":"FuckYouKaren","totalCount":7},{"fieldValue":"FunnyandSad","totalCount":1},{"fieldValue":"Futurology","totalCount":5},{"fieldValue":"GetMotivated","totalCount":1},{"fieldValue":"HolUp","totalCount":99},{"fieldValue":"HumansBeingBros","totalCount":13},{"fieldValue":"IdiotsInCars","totalCount":22},{"fieldValue":"IsTodayFridayThe13th","totalCount":1},{"fieldValue":"JusticeServed","totalCount":4},{"fieldValue":"KamikazeByWords","totalCount":1},{"fieldValue":"KidsAreFuckingStupid","totalCount":5},{"fieldValue":"LeopardsAteMyFace","totalCount":10},{"fieldValue":"LifeProTips","totalCount":25},{"fieldValue":"MadeMeSmile","totalCount":292},{"fieldValue":"Minecraft","totalCount":23},{"fieldValue":"MovieDetails","totalCount":3},{"fieldValue":"MurderedByAOC","totalCount":5},{"fieldValue":"MurderedByWords","totalCount":104},{"fieldValue":"Music","totalCount":2},{"fieldValue":"NatureIsFuckingLit","totalCount":10},{"fieldValue":"NoStupidQuestions","totalCount":1},{"fieldValue":"OldSchoolCool","totalCount":4},{"fieldValue":"PoliticalHumor","totalCount":54},{"fieldValue":"PrequelMemes","totalCount":23},{"fieldValue":"PublicFreakout","totalCount":104},{"fieldValue":"SelfAwarewolves","totalCount":2},{"fieldValue":"ShitPostCrusaders","totalCount":1},{"fieldValue":"ShittyLifeProTips","totalCount":2},{"fieldValue":"Showerthoughts","totalCount":11},{"fieldValue":"StarWars","totalCount":1},{"fieldValue":"TIHI","totalCount":4},{"fieldValue":"ThatsInsane","totalCount":6},{"fieldValue":"TheBoys","totalCount":1},{"fieldValue":"TheRightCantMeme","totalCount":1},{"fieldValue":"TikTokCringe","totalCount":3},{"fieldValue":"Tinder","totalCount":5},{"fieldValue":"ToiletPaperUSA","totalCount":2},{"fieldValue":"TwoXChromosomes","totalCount":2},{"fieldValue":"Unexpected","totalCount":135},{"fieldValue":"UpliftingNews","totalCount":5},{"fieldValue":"WTF","totalCount":1},{"fieldValue":"WallStreetbetsELITE","totalCount":1},{"fieldValue":"WatchPeopleDieInside","totalCount":65},{"fieldValue":"Wellthatsucks","totalCount":32},{"fieldValue":"Whatcouldgowrong","totalCount":17},{"fieldValue":"WhitePeopleTwitter","totalCount":278},{"fieldValue":"WinStupidPrizes","totalCount":1},{"fieldValue":"agedlikemilk","totalCount":2},{"fieldValue":"announcements","totalCount":1},{"fieldValue":"assholedesign","totalCount":4},{"fieldValue":"awfuleverything","totalCount":7},{"fieldValue":"aww","totalCount":384},{"fieldValue":"blackmagicfuckery","totalCount":6},{"fieldValue":"blog","totalCount":2},{"fieldValue":"blursedimages","totalCount":7},{"fieldValue":"canada","totalCount":1},{"fieldValue":"clevercomebacks","totalCount":2},{"fieldValue":"comedyheaven","totalCount":10},{"fieldValue":"confidentlyincorrect","totalCount":2},{"fieldValue":"coolguides","totalCount":5},{"fieldValue":"cursedcomments","totalCount":53},{"fieldValue":"cyberpunkgame","totalCount":3},{"fieldValue":"dankmemes","totalCount":440},{"fieldValue":"dataisbeautiful","totalCount":6},{"fieldValue":"dndmemes","totalCount":1},{"fieldValue":"dogecoin","totalCount":1},{"fieldValue":"europe","totalCount":1},{"fieldValue":"facepalm","totalCount":140},{"fieldValue":"funny","totalCount":331},{"fieldValue":"gaming","totalCount":248},{"fieldValue":"gatekeeping","totalCount":1},{"fieldValue":"gifs","totalCount":49},{"fieldValue":"harrypotter","totalCount":1},{"fieldValue":"iamatotalpieceofshit","totalCount":15},{"fieldValue":"insanepeoplefacebook","totalCount":9},{"fieldValue":"instant_regret","totalCount":8},{"fieldValue":"instantkarma","totalCount":1},{"fieldValue":"interestingasfuck","totalCount":426},{"fieldValue":"intermittentfasting","totalCount":1},{"fieldValue":"lotrmemes","totalCount":1},{"fieldValue":"madlads","totalCount":9},{"fieldValue":"marvelstudios","totalCount":2},{"fieldValue":"me_irl","totalCount":17},{"fieldValue":"memes","totalCount":1061},{"fieldValue":"mildlyinfuriating","totalCount":22},{"fieldValue":"mildlyinteresting","totalCount":98},{"fieldValue":"movies","totalCount":11},{"fieldValue":"natureismetal","totalCount":3},{"fieldValue":"nevertellmetheodds","totalCount":3},{"fieldValue":"news","totalCount":126},{"fieldValue":"nextfuckinglevel","totalCount":578},{"fieldValue":"nottheonion","totalCount":20},{"fieldValue":"oddlysatisfying","totalCount":45},{"fieldValue":"pcmasterrace","totalCount":11},{"fieldValue":"perfectlycutscreams","totalCount":1},{"fieldValue":"pics","totalCount":363},{"fieldValue":"politics","totalCount":186},{"fieldValue":"povertyfinance","totalCount":1},{"fieldValue":"quityourbullshit","totalCount":2},{"fieldValue":"rareinsults","totalCount":15},{"fieldValue":"rarepuppers","totalCount":1},{"fieldValue":"reddit","totalCount":7004},{"fieldValue":"sadcringe","totalCount":1},{"fieldValue":"science","totalCount":23},{"fieldValue":"shittymoviedetails","totalCount":2},{"fieldValue":"space","totalCount":9},{"fieldValue":"specializedtools","totalCount":1},{"fieldValue":"sports","totalCount":2},{"fieldValue":"starterpacks","totalCount":11},{"fieldValue":"stocks","totalCount":1},{"fieldValue":"suspiciouslyspecific","totalCount":1},{"fieldValue":"technicallythetruth","totalCount":12},{"fieldValue":"technology","totalCount":16},{"fieldValue":"teenagers","totalCount":19},{"fieldValue":"therewasanattempt","totalCount":3},{"fieldValue":"tifu","totalCount":1},{"fieldValue":"todayilearned","totalCount":102},{"fieldValue":"toptalent","totalCount":2},{"fieldValue":"trashy","totalCount":2},{"fieldValue":"trippinthroughtime","totalCount":2},{"fieldValue":"videos","totalCount":4},{"fieldValue":"wallstreetbets","totalCount":176},{"fieldValue":"wholesomememes","totalCount":118},{"fieldValue":"woahdude","totalCount":1},{"fieldValue":"worldnews","totalCount":107},{"fieldValue":"youseeingthisshit","totalCount":1}]},"allBlogPost":{"nodes":[{"__typename":"SocialMediaPost","id":"RedditPost-jursm0","excerpt":"","slug":"/reddit/r/dankmemes/comments/jursm0/shes_been_grinding_since_2014/","title":"she's been grinding since 2014","date":"November 16, 2020","dateISO":"2020-11-16T18:24:29.000Z","datetime":"2020-11-16 18:24","tags":["dankmemes","reddit"],"image":null,"imageAlt":"Reddit Image","provider":"Reddit","thirdPartyId":"jursm0","url":"https://www.reddit.com/r/dankmemes/comments/jursm0/shes_been_grinding_since_2014/","originalUrl":"https://www.reddit.com/r/dankmemes/comments/jursm0/shes_been_grinding_since_2014/","imageRemote":"https://preview.redd.it/y6c9ua3ehgz51.jpg?width=320&crop=smart&auto=webp&s=10ce615b0c12af5ea17bb06216d984aede9455ba","video":null,"channel":"dankmemes","channelUrl":"https://www.reddit.com/r/dankmemes","author":"lexyp29","authorUrl":"https://www.reddit.com/user/lexyp29","authorImage":null,"authorSlug":"lexyp29","score":67661,"views":null,"sharedCount":null,"likeCount":null,"sharedContent":null,"parent":{"__typename":"RedditJson","localize":[{"title":"她自2014年以来一直在磨练","the_new_excerpt":null,"locale":"zh"},{"title":"她自2014年以來壹直在磨練","the_new_excerpt":null,"locale":"zh-Hant"}]}},{"__typename":"SocialMediaPost","id":"RedditPost-jut5y9","excerpt":"","slug":"/reddit/r/dankmemes/comments/jut5y9/spiderman_more_like_unitofmeasurementman/","title":"Spiderman more like unitofmeasurementman","date":"November 16, 2020","dateISO":"2020-11-16T18:24:29.000Z","datetime":"2020-11-16 18:24","tags":["dankmemes","reddit"],"image":null,"imageAlt":"Reddit Image","provider":"Reddit","thirdPartyId":"jut5y9","url":"https://www.reddit.com/r/dankmemes/comments/jut5y9/spiderman_more_like_unitofmeasurementman/","originalUrl":"https://www.reddit.com/r/dankmemes/comments/jut5y9/spiderman_more_like_unitofmeasurementman/","imageRemote":"https://preview.redd.it/ss1d2lxhugz51.jpg?width=640&crop=smart&auto=webp&s=0813e574e758e4ff4a209bb5179b3c04975c811b","video":null,"channel":"dankmemes","channelUrl":"https://www.reddit.com/r/dankmemes","author":"MelonInDisguise","authorUrl":"https://www.reddit.com/user/MelonInDisguise","authorImage":null,"authorSlug":"MelonInDisguise","score":72104,"views":null,"sharedCount":null,"likeCount":null,"sharedContent":null,"parent":{"__typename":"RedditJson","localize":[{"title":"蜘蛛侠更像是一个测量单位","the_new_excerpt":null,"locale":"zh"},{"title":"蜘蛛俠更像是壹個測量單位","the_new_excerpt":null,"locale":"zh-Hant"}]}},{"__typename":"SocialMediaPost","id":"RedditPost-juzphh","excerpt":"","slug":"/reddit/r/dankmemes/comments/juzphh/fairy_tales_in_a_nutshell/","title":"Fairy tales in a nutshell","date":"November 16, 2020","dateISO":"2020-11-16T13:16:41.000Z","datetime":"2020-11-16 13:16","tags":["dankmemes","reddit"],"image":null,"imageAlt":"Reddit Image","provider":"Reddit","thirdPartyId":"juzphh","url":"https://www.reddit.com/r/dankmemes/comments/juzphh/fairy_tales_in_a_nutshell/","originalUrl":"https://www.reddit.com/r/dankmemes/comments/juzphh/fairy_tales_in_a_nutshell/","imageRemote":"https://preview.redd.it/fwklb0mwuiz51.jpg?width=320&crop=smart&auto=webp&s=1f397190cf24b6e76884b97809bd4e2961f53cf5","video":null,"channel":"dankmemes","channelUrl":"https://www.reddit.com/r/dankmemes","author":"shawonni","authorUrl":"https://www.reddit.com/user/shawonni","authorImage":null,"authorSlug":"shawonni","score":102492,"views":null,"sharedCount":null,"likeCount":null,"sharedContent":null,"parent":{"__typename":"RedditJson","localize":[{"title":"简而言之，童话故事","the_new_excerpt":null,"locale":"zh"},{"title":"簡而言之，童話故事","the_new_excerpt":null,"locale":"zh-Hant"}]}},{"__typename":"SocialMediaPost","id":"RedditPost-junbzg","excerpt":"","slug":"/reddit/r/dankmemes/comments/junbzg/he_literally_plays_himself_in_every_movie/","title":"He literally plays himself in every movie","date":"November 16, 2020","dateISO":"2020-11-16T02:24:48.000Z","datetime":"2020-11-16 02:24","tags":["dankmemes","reddit"],"image":null,"imageAlt":"Reddit Image","provider":"Reddit","thirdPartyId":"junbzg","url":"https://www.reddit.com/r/dankmemes/comments/junbzg/he_literally_plays_himself_in_every_movie/","originalUrl":"https://www.reddit.com/r/dankmemes/comments/junbzg/he_literally_plays_himself_in_every_movie/","imageRemote":"https://preview.redd.it/4k3rpy487fz51.jpg?width=1080&crop=smart&auto=webp&s=ba96ac4767ab85d0d0e6cb0befb6b4826a668d37","video":null,"channel":"dankmemes","channelUrl":"https://www.reddit.com/r/dankmemes","author":"RDS327","authorUrl":"https://www.reddit.com/user/RDS327","authorImage":null,"authorSlug":"RDS327","score":75848,"views":null,"sharedCount":null,"likeCount":null,"sharedContent":null,"parent":{"__typename":"RedditJson","localize":[{"title":"他真的在每部电影中扮演自己","the_new_excerpt":null,"locale":"zh"},{"title":"他真的在每部電影中扮演自己","the_new_excerpt":null,"locale":"zh-Hant"}]}},{"__typename":"SocialMediaPost","id":"RedditPost-jumkfe","excerpt":"","slug":"/reddit/r/dankmemes/comments/jumkfe/what_do_they_mean/","title":"What do they mean","date":"November 15, 2020","dateISO":"2020-11-15T23:16:53.000Z","datetime":"2020-11-15 23:16","tags":["dankmemes","reddit"],"image":null,"imageAlt":"Reddit Image","provider":"Reddit","thirdPartyId":"jumkfe","url":"https://www.reddit.com/r/dankmemes/comments/jumkfe/what_do_they_mean/","originalUrl":"https://www.reddit.com/r/dankmemes/comments/jumkfe/what_do_they_mean/","imageRemote":"https://external-preview.redd.it/PZ4u4KCDKq7itTM2Kyub2pnNxVXtaaO5LmVgrz530ww.jpg?width=1080&crop=smart&auto=webp&s=299d571ee440491fef1c8fdd5afd661a6db78ab0","video":null,"channel":"dankmemes","channelUrl":"https://www.reddit.com/r/dankmemes","author":"MadOrange64","authorUrl":"https://www.reddit.com/user/MadOrange64","authorImage":null,"authorSlug":"MadOrange64","score":82625,"views":null,"sharedCount":null,"likeCount":null,"sharedContent":null,"parent":{"__typename":"RedditJson","localize":[{"title":"它们是什么意思？","the_new_excerpt":null,"locale":"zh"},{"title":"它們是什麽意思？","the_new_excerpt":null,"locale":"zh-Hant"}]}},{"__typename":"SocialMediaPost","id":"RedditPost-juf96r","excerpt":"","slug":"/reddit/r/dankmemes/comments/juf96r/thats_not_how_you_are_supposed_to_play_the_game/","title":"That’s not how you are supposed to play the game","date":"November 15, 2020","dateISO":"2020-11-15T03:31:55.000Z","datetime":"2020-11-15 03:31","tags":["dankmemes","reddit"],"image":null,"imageAlt":null,"provider":"Reddit","thirdPartyId":"juf96r","url":"https://www.reddit.com/r/dankmemes/comments/juf96r/thats_not_how_you_are_supposed_to_play_the_game/","originalUrl":"https://www.reddit.com/r/dankmemes/comments/juf96r/thats_not_how_you_are_supposed_to_play_the_game/","imageRemote":null,"video":{"url":"https://external-preview.redd.it/kmH9QHlmtd31PxWnSYOGrj2lJwLmQSlwe5i10KEHPMI.gif?format=mp4&s=40768f97afcb8660d9e9e7057125cb182d7a544c","embed":null,"width":480,"height":406},"channel":"dankmemes","channelUrl":"https://www.reddit.com/r/dankmemes","author":"cheetosrgood_","authorUrl":"https://www.reddit.com/user/cheetosrgood_","authorImage":null,"authorSlug":"cheetosrgood_","score":77137,"views":null,"sharedCount":null,"likeCount":null,"sharedContent":null,"parent":{"__typename":"RedditJson","localize":[{"title":"你不应该这样玩这个游戏","the_new_excerpt":null,"locale":"zh"},{"title":"妳不應該這樣玩這個遊戲","the_new_excerpt":null,"locale":"zh-Hant"}]}},{"__typename":"SocialMediaPost","id":"RedditPost-jub5ay","excerpt":"","slug":"/reddit/r/dankmemes/comments/jub5ay/see_not_so_scary_any_more/","title":"See not so scary any more","date":"November 14, 2020","dateISO":"2020-11-14T22:58:23.000Z","datetime":"2020-11-14 22:58","tags":["dankmemes","reddit"],"image":null,"imageAlt":"Reddit Image","provider":"Reddit","thirdPartyId":"jub5ay","url":"https://www.reddit.com/r/dankmemes/comments/jub5ay/see_not_so_scary_any_more/","originalUrl":"https://www.reddit.com/r/dankmemes/comments/jub5ay/see_not_so_scary_any_more/","imageRemote":"https://preview.redd.it/bq2t7ur3daz51.jpg?width=1080&crop=smart&auto=webp&s=1cdfa682b90019917fc8749dbc34c11ce4a3b97e","video":null,"channel":"dankmemes","channelUrl":"https://www.reddit.com/r/dankmemes","author":"Impossible_Test5258","authorUrl":"https://www.reddit.com/user/Impossible_Test5258","authorImage":null,"authorSlug":"Impossible_Test5258","score":82198,"views":null,"sharedCount":null,"likeCount":null,"sharedContent":null,"parent":{"__typename":"RedditJson","localize":[{"title":"看不再那么可怕了","the_new_excerpt":null,"locale":"zh"},{"title":"看不再那麽可怕了","the_new_excerpt":null,"locale":"zh-Hant"}]}},{"__typename":"SocialMediaPost","id":"RedditPost-ju7efh","excerpt":"","slug":"/reddit/r/dankmemes/comments/ju7efh/im_a_bigger_trickster_than_him/","title":"I'm a bigger trickster than him","date":"November 14, 2020","dateISO":"2020-11-14T19:13:46.000Z","datetime":"2020-11-14 19:13","tags":["dankmemes","reddit"],"image":null,"imageAlt":"Reddit Image","provider":"Reddit","thirdPartyId":"ju7efh","url":"https://www.reddit.com/r/dankmemes/comments/ju7efh/im_a_bigger_trickster_than_him/","originalUrl":"https://www.reddit.com/r/dankmemes/comments/ju7efh/im_a_bigger_trickster_than_him/","imageRemote":"https://preview.redd.it/eap1uva399z51.jpg?width=640&crop=smart&auto=webp&s=bc4fe2e0e7ab9af8f6191b1b37058dedb3a388c1","video":null,"channel":"dankmemes","channelUrl":"https://www.reddit.com/r/dankmemes","author":"mijuzz7","authorUrl":"https://www.reddit.com/user/mijuzz7","authorImage":null,"authorSlug":"mijuzz7","score":72199,"views":null,"sharedCount":null,"likeCount":null,"sharedContent":null,"parent":{"__typename":"RedditJson","localize":[{"title":"我比他更会耍花招","the_new_excerpt":null,"locale":"zh"},{"title":"我比他更會耍花招","the_new_excerpt":null,"locale":"zh-Hant"}]}},{"__typename":"SocialMediaPost","id":"RedditPost-ju2b7f","excerpt":"","slug":"/reddit/r/dankmemes/comments/ju2b7f/looking_fresh_tho/","title":"Looking fresh tho","date":"November 14, 2020","dateISO":"2020-11-14T13:58:04.000Z","datetime":"2020-11-14 13:58","tags":["dankmemes","reddit"],"image":null,"imageAlt":"Reddit Image","provider":"Reddit","thirdPartyId":"ju2b7f","url":"https://www.reddit.com/r/dankmemes/comments/ju2b7f/looking_fresh_tho/","originalUrl":"https://www.reddit.com/r/dankmemes/comments/ju2b7f/looking_fresh_tho/","imageRemote":"https://preview.redd.it/tyy2c6rro7z51.jpg?width=1080&crop=smart&auto=webp&s=633f322598ff373ac5d4276583ee68a531fc9a8d","video":null,"channel":"dankmemes","channelUrl":"https://www.reddit.com/r/dankmemes","author":"achilles-_-23","authorUrl":"https://www.reddit.com/user/achilles-_-23","authorImage":null,"authorSlug":"achilles-_-23","score":107604,"views":null,"sharedCount":null,"likeCount":null,"sharedContent":null,"parent":{"__typename":"RedditJson","localize":[{"title":"虽然看起来很新鲜","the_new_excerpt":null,"locale":"zh"},{"title":"雖然看起來很新鮮","the_new_excerpt":null,"locale":"zh-Hant"}]}},{"__typename":"SocialMediaPost","id":"RedditPost-jtuqda","excerpt":"","slug":"/reddit/r/dankmemes/comments/jtuqda/then_they_proceed_to_not_post_the_instructions/","title":"Then they proceed to not post the instructions","date":"November 14, 2020","dateISO":"2020-11-14T03:14:33.000Z","datetime":"2020-11-14 03:14","tags":["dankmemes","reddit"],"image":null,"imageAlt":null,"provider":"Reddit","thirdPartyId":"jtuqda","url":"https://www.reddit.com/r/dankmemes/comments/jtuqda/then_they_proceed_to_not_post_the_instructions/","originalUrl":"https://www.reddit.com/r/dankmemes/comments/jtuqda/then_they_proceed_to_not_post_the_instructions/","imageRemote":null,"video":{"url":"https://preview.redd.it/hsek9axxh4z51.gif?format=mp4&s=e5861eb2855d914245f5e8122c4108cb04ed39b8","embed":null,"width":592,"height":558},"channel":"dankmemes","channelUrl":"https://www.reddit.com/r/dankmemes","author":"GilAmmeXd","authorUrl":"https://www.reddit.com/user/GilAmmeXd","authorImage":null,"authorSlug":"GilAmmeXd","score":69358,"views":null,"sharedCount":null,"likeCount":null,"sharedContent":null,"parent":{"__typename":"RedditJson","localize":[{"title":"然后，他们继续不张贴说明","the_new_excerpt":null,"locale":"zh"},{"title":"然後，他們繼續不張貼說明","the_new_excerpt":null,"locale":"zh-Hant"}]}},{"__typename":"SocialMediaPost","id":"RedditPost-jtq9nl","excerpt":"","slug":"/reddit/r/dankmemes/comments/jtq9nl/assassins_war_ragnahalla/","title":"Assassin’s War: Ragnahalla","date":"November 13, 2020","dateISO":"2020-11-13T22:40:55.000Z","datetime":"2020-11-13 22:40","tags":["dankmemes","reddit"],"image":null,"imageAlt":"Reddit Image","provider":"Reddit","thirdPartyId":"jtq9nl","url":"https://www.reddit.com/r/dankmemes/comments/jtq9nl/assassins_war_ragnahalla/","originalUrl":"https://www.reddit.com/r/dankmemes/comments/jtq9nl/assassins_war_ragnahalla/","imageRemote":"https://preview.redd.it/i597f36553z51.jpg?width=640&crop=smart&auto=webp&s=2ebfee8d6b3639038a24e9159800f6bbf7d252fd","video":null,"channel":"dankmemes","channelUrl":"https://www.reddit.com/r/dankmemes","author":"KnafehIsKey","authorUrl":"https://www.reddit.com/user/KnafehIsKey","authorImage":null,"authorSlug":"KnafehIsKey","score":77985,"views":null,"sharedCount":null,"likeCount":null,"sharedContent":null,"parent":{"__typename":"RedditJson","localize":[{"title":"刺客之战：Ragnahalla","the_new_excerpt":null,"locale":"zh"},{"title":"刺客之戰：Ragnahalla","the_new_excerpt":null,"locale":"zh-Hant"}]}},{"__typename":"SocialMediaPost","id":"RedditPost-jtjb0s","excerpt":"","slug":"/reddit/r/dankmemes/comments/jtjb0s/wow_everyone_loves_me/","title":"Wow everyone loves me","date":"November 13, 2020","dateISO":"2020-11-13T16:52:25.000Z","datetime":"2020-11-13 16:52","tags":["dankmemes","reddit"],"image":null,"imageAlt":null,"provider":"Reddit","thirdPartyId":"jtjb0s","url":"https://www.reddit.com/r/dankmemes/comments/jtjb0s/wow_everyone_loves_me/","originalUrl":"https://www.reddit.com/r/dankmemes/comments/jtjb0s/wow_everyone_loves_me/","imageRemote":null,"video":{"url":"https://v.redd.it/tvqtlf0ze1z51/DASH_240.mp4","embed":null,"width":346,"height":240},"channel":"dankmemes","channelUrl":"https://www.reddit.com/r/dankmemes","author":"mijuzz7","authorUrl":"https://www.reddit.com/user/mijuzz7","authorImage":null,"authorSlug":"mijuzz7","score":79995,"views":null,"sharedCount":null,"likeCount":null,"sharedContent":null,"parent":{"__typename":"RedditJson","localize":[{"title":"哇，每个人都爱我","the_new_excerpt":null,"locale":"zh"},{"title":"哇，每個人都愛我","the_new_excerpt":null,"locale":"zh-Hant"}]}},{"__typename":"SocialMediaPost","id":"RedditPost-jtgz2l","excerpt":"","slug":"/reddit/r/dankmemes/comments/jtgz2l/all_my_homies_hate_that_kid_please_be_nice_to/","title":"All my homies hate that kid. Please be nice to teachers, they try their hardest.","date":"November 13, 2020","dateISO":"2020-11-13T14:23:45.000Z","datetime":"2020-11-13 14:23","tags":["dankmemes","reddit"],"image":null,"imageAlt":null,"provider":"Reddit","thirdPartyId":"jtgz2l","url":"https://www.reddit.com/r/dankmemes/comments/jtgz2l/all_my_homies_hate_that_kid_please_be_nice_to/","originalUrl":"https://www.reddit.com/r/dankmemes/comments/jtgz2l/all_my_homies_hate_that_kid_please_be_nice_to/","imageRemote":null,"video":{"url":"https://preview.redd.it/8p60n94bo0z51.gif?format=mp4&s=bf351d297764df0685c1d6f9ba4970d022b6a2a7","embed":null,"width":880,"height":638},"channel":"dankmemes","channelUrl":"https://www.reddit.com/r/dankmemes","author":"IOnlyPlayAs-Brainiac","authorUrl":"https://www.reddit.com/user/IOnlyPlayAs-Brainiac","authorImage":null,"authorSlug":"IOnlyPlayAs-Brainiac","score":74892,"views":null,"sharedCount":null,"likeCount":null,"sharedContent":null,"parent":{"__typename":"RedditJson","localize":[{"title":"我所有的兄弟都恨那个孩子。请善待老师，他们会尽力的。","the_new_excerpt":null,"locale":"zh"},{"title":"我所有的兄弟都恨那個孩子。請善待老師，他們會盡力的。","the_new_excerpt":null,"locale":"zh-Hant"}]}},{"__typename":"SocialMediaPost","id":"RedditPost-jtewzm","excerpt":"","slug":"/reddit/r/dankmemes/comments/jtewzm/moooom_helpppp/","title":"moooom helpppp","date":"November 13, 2020","dateISO":"2020-11-13T10:40:57.000Z","datetime":"2020-11-13 10:40","tags":["dankmemes","reddit"],"image":null,"imageAlt":"Reddit Image","provider":"Reddit","thirdPartyId":"jtewzm","url":"https://www.reddit.com/r/dankmemes/comments/jtewzm/moooom_helpppp/","originalUrl":"https://www.reddit.com/r/dankmemes/comments/jtewzm/moooom_helpppp/","imageRemote":"https://preview.redd.it/q9wzu93okzy51.jpg?width=320&crop=smart&auto=webp&s=6740f7e2c20a1f00540772d1b37d621e175a722d","video":null,"channel":"dankmemes","channelUrl":"https://www.reddit.com/r/dankmemes","author":"PowerfulOperation8","authorUrl":"https://www.reddit.com/user/PowerfulOperation8","authorImage":null,"authorSlug":"PowerfulOperation8","score":88699,"views":null,"sharedCount":null,"likeCount":null,"sharedContent":null,"parent":{"__typename":"RedditJson","localize":[{"title":"Moooom帮助程序","the_new_excerpt":null,"locale":"zh"},{"title":"Moooom幫助程序","the_new_excerpt":null,"locale":"zh-Hant"}]}},{"__typename":"SocialMediaPost","id":"RedditPost-jtbrij","excerpt":"","slug":"/reddit/r/dankmemes/comments/jtbrij/it_was_the_saddest_walk_of_my_life/","title":"It was the saddest walk of my life","date":"November 13, 2020","dateISO":"2020-11-13T05:55:10.000Z","datetime":"2020-11-13 05:55","tags":["dankmemes","reddit"],"image":null,"imageAlt":null,"provider":"Reddit","thirdPartyId":"jtbrij","url":"https://www.reddit.com/r/dankmemes/comments/jtbrij/it_was_the_saddest_walk_of_my_life/","originalUrl":"https://www.reddit.com/r/dankmemes/comments/jtbrij/it_was_the_saddest_walk_of_my_life/","imageRemote":null,"video":{"url":"https://preview.redd.it/ks00bm0j5yy51.gif?format=mp4&s=f0994a7e73056e1bd858a90a78afbcdd2c176e92","embed":null,"width":452,"height":480},"channel":"dankmemes","channelUrl":"https://www.reddit.com/r/dankmemes","author":"RegularNoodles","authorUrl":"https://www.reddit.com/user/RegularNoodles","authorImage":null,"authorSlug":"RegularNoodles","score":96280,"views":null,"sharedCount":null,"likeCount":null,"sharedContent":null,"parent":{"__typename":"RedditJson","localize":[{"title":"那是我一生中最悲伤的一次行走","the_new_excerpt":null,"locale":"zh"},{"title":"那是我壹生中最悲傷的壹次行走","the_new_excerpt":null,"locale":"zh-Hant"}]}}]}},"pageContext":{"basePath":"/","pageType":"tag","tag":"dankmemes","tagsFilter":{"id":{"glob":"!*Post-1"}},"filter":{"id":{"glob":"!*Post-1"},"tags":{"eq":"dankmemes"}},"limit":25,"skip":425,"total":440,"totalPages":18,"currentPage":18,"maxWidth":1024,"maxHeight":512,"locale":"zh-Hant","hrefLang":"zh-Hant","originalPath":"/tags/dankmemes/page/18","dateFormat":"YYYY-MM-DD"}},"staticQueryHashes":["1239077767","2506312863","2744905544","3025052997","3493603132","3493603132","3513215887","386998304"]}