{"componentChunkName":"component---node-modules-gatsby-theme-buzzing-src-gatsby-theme-timeline-templates-posts-query-js","path":"/tags/made-me-smile/page/12","result":{"data":{"site":{"siteMetadata":{"title":"Reddit 热门","description":"用中文浏览Reddit热门内容","social":[{"name":"Reddit","url":"https://www.reddit.com","external":true,"prefetch":null},{"name":"Buzzing","url":"https://www.buzzing.cc/","external":true,"prefetch":null}],"menuLinks":[{"name":"每周精选","url":"/issues","external":null,"prefetch":null}],"localize":[{"locale":"en","title":"Buzzing on Reddit","description":"See what's buzzing on Reddit in your native language","social":[{"name":"Reddit","url":"https://www.reddit.com/","external":true,"prefetch":null}],"menuLinks":[{"name":"Weekly Selection","url":"/en/issues","external":null,"prefetch":null}]},{"locale":"zh-Hant","title":"Reddit 熱門","description":"用中文瀏覽Reddit熱門內容","social":null,"menuLinks":[{"name":"每週精選","url":"/zh-Hant/issues","external":null,"prefetch":null}]},{"locale":"ja","title":"Reddit 人気の記事","description":"人気のReddit記事を日本語で閲覧","social":null,"menuLinks":[]}]}},"tagsGroup":{"group":[{"fieldValue":"ABoringDystopia","totalCount":3},{"fieldValue":"AOC","totalCount":1},{"fieldValue":"AbruptChaos","totalCount":1},{"fieldValue":"AmongUs","totalCount":2},{"fieldValue":"AnimalsBeingBros","totalCount":1},{"fieldValue":"Art","totalCount":1},{"fieldValue":"AskReddit","totalCount":43},{"fieldValue":"Bad_Cop_No_Donut","totalCount":2},{"fieldValue":"BeAmazed","totalCount":4},{"fieldValue":"BikiniBottomTwitter","totalCount":7},{"fieldValue":"BlackPeopleTwitter","totalCount":87},{"fieldValue":"Bossfight","totalCount":1},{"fieldValue":"CapitolConsequences","totalCount":1},{"fieldValue":"Conservative","totalCount":1},{"fieldValue":"Coronavirus","totalCount":2},{"fieldValue":"Cringetopia","totalCount":11},{"fieldValue":"Damnthatsinteresting","totalCount":79},{"fieldValue":"DunderMifflin","totalCount":1},{"fieldValue":"FuckYouKaren","totalCount":7},{"fieldValue":"FunnyandSad","totalCount":1},{"fieldValue":"Futurology","totalCount":5},{"fieldValue":"GetMotivated","totalCount":1},{"fieldValue":"HolUp","totalCount":99},{"fieldValue":"HumansBeingBros","totalCount":13},{"fieldValue":"IdiotsInCars","totalCount":22},{"fieldValue":"IsTodayFridayThe13th","totalCount":1},{"fieldValue":"JusticeServed","totalCount":4},{"fieldValue":"KamikazeByWords","totalCount":1},{"fieldValue":"KidsAreFuckingStupid","totalCount":5},{"fieldValue":"LeopardsAteMyFace","totalCount":10},{"fieldValue":"LifeProTips","totalCount":25},{"fieldValue":"MadeMeSmile","totalCount":292},{"fieldValue":"Minecraft","totalCount":23},{"fieldValue":"MovieDetails","totalCount":3},{"fieldValue":"MurderedByAOC","totalCount":5},{"fieldValue":"MurderedByWords","totalCount":104},{"fieldValue":"Music","totalCount":2},{"fieldValue":"NatureIsFuckingLit","totalCount":10},{"fieldValue":"NoStupidQuestions","totalCount":1},{"fieldValue":"OldSchoolCool","totalCount":4},{"fieldValue":"PoliticalHumor","totalCount":54},{"fieldValue":"PrequelMemes","totalCount":23},{"fieldValue":"PublicFreakout","totalCount":104},{"fieldValue":"SelfAwarewolves","totalCount":2},{"fieldValue":"ShitPostCrusaders","totalCount":1},{"fieldValue":"ShittyLifeProTips","totalCount":2},{"fieldValue":"Showerthoughts","totalCount":11},{"fieldValue":"StarWars","totalCount":1},{"fieldValue":"TIHI","totalCount":4},{"fieldValue":"ThatsInsane","totalCount":6},{"fieldValue":"TheBoys","totalCount":1},{"fieldValue":"TheRightCantMeme","totalCount":1},{"fieldValue":"TikTokCringe","totalCount":3},{"fieldValue":"Tinder","totalCount":5},{"fieldValue":"ToiletPaperUSA","totalCount":2},{"fieldValue":"TwoXChromosomes","totalCount":2},{"fieldValue":"Unexpected","totalCount":135},{"fieldValue":"UpliftingNews","totalCount":5},{"fieldValue":"WTF","totalCount":1},{"fieldValue":"WallStreetbetsELITE","totalCount":1},{"fieldValue":"WatchPeopleDieInside","totalCount":65},{"fieldValue":"Wellthatsucks","totalCount":32},{"fieldValue":"Whatcouldgowrong","totalCount":17},{"fieldValue":"WhitePeopleTwitter","totalCount":278},{"fieldValue":"WinStupidPrizes","totalCount":1},{"fieldValue":"agedlikemilk","totalCount":2},{"fieldValue":"announcements","totalCount":1},{"fieldValue":"assholedesign","totalCount":4},{"fieldValue":"awfuleverything","totalCount":7},{"fieldValue":"aww","totalCount":384},{"fieldValue":"blackmagicfuckery","totalCount":6},{"fieldValue":"blog","totalCount":2},{"fieldValue":"blursedimages","totalCount":7},{"fieldValue":"canada","totalCount":1},{"fieldValue":"clevercomebacks","totalCount":2},{"fieldValue":"comedyheaven","totalCount":10},{"fieldValue":"confidentlyincorrect","totalCount":2},{"fieldValue":"coolguides","totalCount":5},{"fieldValue":"cursedcomments","totalCount":53},{"fieldValue":"cyberpunkgame","totalCount":3},{"fieldValue":"dankmemes","totalCount":440},{"fieldValue":"dataisbeautiful","totalCount":6},{"fieldValue":"dndmemes","totalCount":1},{"fieldValue":"dogecoin","totalCount":1},{"fieldValue":"europe","totalCount":1},{"fieldValue":"facepalm","totalCount":140},{"fieldValue":"funny","totalCount":331},{"fieldValue":"gaming","totalCount":248},{"fieldValue":"gatekeeping","totalCount":1},{"fieldValue":"gifs","totalCount":49},{"fieldValue":"harrypotter","totalCount":1},{"fieldValue":"iamatotalpieceofshit","totalCount":15},{"fieldValue":"insanepeoplefacebook","totalCount":9},{"fieldValue":"instant_regret","totalCount":8},{"fieldValue":"instantkarma","totalCount":1},{"fieldValue":"interestingasfuck","totalCount":426},{"fieldValue":"intermittentfasting","totalCount":1},{"fieldValue":"lotrmemes","totalCount":1},{"fieldValue":"madlads","totalCount":9},{"fieldValue":"marvelstudios","totalCount":2},{"fieldValue":"me_irl","totalCount":17},{"fieldValue":"memes","totalCount":1061},{"fieldValue":"mildlyinfuriating","totalCount":22},{"fieldValue":"mildlyinteresting","totalCount":98},{"fieldValue":"movies","totalCount":11},{"fieldValue":"natureismetal","totalCount":3},{"fieldValue":"nevertellmetheodds","totalCount":3},{"fieldValue":"news","totalCount":126},{"fieldValue":"nextfuckinglevel","totalCount":578},{"fieldValue":"nottheonion","totalCount":20},{"fieldValue":"oddlysatisfying","totalCount":45},{"fieldValue":"pcmasterrace","totalCount":11},{"fieldValue":"perfectlycutscreams","totalCount":1},{"fieldValue":"pics","totalCount":363},{"fieldValue":"politics","totalCount":186},{"fieldValue":"povertyfinance","totalCount":1},{"fieldValue":"quityourbullshit","totalCount":2},{"fieldValue":"rareinsults","totalCount":15},{"fieldValue":"rarepuppers","totalCount":1},{"fieldValue":"reddit","totalCount":7004},{"fieldValue":"sadcringe","totalCount":1},{"fieldValue":"science","totalCount":23},{"fieldValue":"shittymoviedetails","totalCount":2},{"fieldValue":"space","totalCount":9},{"fieldValue":"specializedtools","totalCount":1},{"fieldValue":"sports","totalCount":2},{"fieldValue":"starterpacks","totalCount":11},{"fieldValue":"stocks","totalCount":1},{"fieldValue":"suspiciouslyspecific","totalCount":1},{"fieldValue":"technicallythetruth","totalCount":12},{"fieldValue":"technology","totalCount":16},{"fieldValue":"teenagers","totalCount":19},{"fieldValue":"therewasanattempt","totalCount":3},{"fieldValue":"tifu","totalCount":1},{"fieldValue":"todayilearned","totalCount":102},{"fieldValue":"toptalent","totalCount":2},{"fieldValue":"trashy","totalCount":2},{"fieldValue":"trippinthroughtime","totalCount":2},{"fieldValue":"videos","totalCount":4},{"fieldValue":"wallstreetbets","totalCount":176},{"fieldValue":"wholesomememes","totalCount":118},{"fieldValue":"woahdude","totalCount":1},{"fieldValue":"worldnews","totalCount":107},{"fieldValue":"youseeingthisshit","totalCount":1}]},"allBlogPost":{"nodes":[{"__typename":"SocialMediaPost","id":"RedditPost-jy9pdj","excerpt":"","slug":"/reddit/r/MadeMeSmile/comments/jy9pdj/shes_so_happy/","title":"She's so happy","date":"November 21, 2020","dateISO":"2020-11-21T20:21:47.000Z","datetime":"2020-11-21 20:21","tags":["MadeMeSmile","reddit"],"image":null,"imageAlt":"Reddit Image","provider":"Reddit","thirdPartyId":"jy9pdj","url":"https://www.reddit.com/r/MadeMeSmile/comments/jy9pdj/shes_so_happy/","originalUrl":"https://www.reddit.com/r/MadeMeSmile/comments/jy9pdj/shes_so_happy/","imageRemote":"https://preview.redd.it/e472lr0i3l061.jpg?width=1080&crop=smart&auto=webp&s=43f325fd5132568870fbf3003ccae4457be46bc5","video":null,"channel":"MadeMeSmile","channelUrl":"https://www.reddit.com/r/MadeMeSmile","author":"Stewie344","authorUrl":"https://www.reddit.com/user/Stewie344","authorImage":null,"authorSlug":"Stewie344","score":82452,"views":null,"sharedCount":null,"likeCount":null,"sharedContent":null,"parent":{"__typename":"RedditJson","localize":[{"title":"她太高兴了","the_new_excerpt":null,"locale":"zh"},{"title":"她太高興了","the_new_excerpt":null,"locale":"zh-Hant"}]}},{"__typename":"SocialMediaPost","id":"RedditPost-jxu0gk","excerpt":"","slug":"/reddit/r/MadeMeSmile/comments/jxu0gk/cant_leave_without_it/","title":"Can't leave without it","date":"November 21, 2020","dateISO":"2020-11-21T14:37:05.000Z","datetime":"2020-11-21 14:37","tags":["MadeMeSmile","reddit"],"image":null,"imageAlt":"Reddit Image","provider":"Reddit","thirdPartyId":"jxu0gk","url":"https://www.reddit.com/r/MadeMeSmile/comments/jxu0gk/cant_leave_without_it/","originalUrl":"https://www.reddit.com/r/MadeMeSmile/comments/jxu0gk/cant_leave_without_it/","imageRemote":"https://preview.redd.it/tzenb4nkpf061.jpg?width=1080&crop=smart&auto=webp&s=4e23f847011622fafefdee0b84e6782f8438e1ec","video":null,"channel":"MadeMeSmile","channelUrl":"https://www.reddit.com/r/MadeMeSmile","author":"JaxonGrow","authorUrl":"https://www.reddit.com/user/JaxonGrow","authorImage":null,"authorSlug":"JaxonGrow","score":70035,"views":null,"sharedCount":null,"likeCount":null,"sharedContent":null,"parent":{"__typename":"RedditJson","localize":[{"title":"没有它我不能走","the_new_excerpt":null,"locale":"zh"},{"title":"沒有它我不能走","the_new_excerpt":null,"locale":"zh-Hant"}]}},{"__typename":"SocialMediaPost","id":"RedditPost-jxe0km","excerpt":"","slug":"/reddit/r/MadeMeSmile/comments/jxe0km/4_years_sober_today/","title":"4 years sober today!","date":"November 20, 2020","dateISO":"2020-11-20T14:21:44.000Z","datetime":"2020-11-20 14:21","tags":["MadeMeSmile","reddit"],"image":null,"imageAlt":"Reddit Image","provider":"Reddit","thirdPartyId":"jxe0km","url":"https://www.reddit.com/r/MadeMeSmile/comments/jxe0km/4_years_sober_today/","originalUrl":"https://www.reddit.com/r/MadeMeSmile/comments/jxe0km/4_years_sober_today/","imageRemote":"https://preview.redd.it/15u0pmtq8a061.jpg?width=1080&crop=smart&auto=webp&s=181db2992dd8c62b1c1544e18537e881cc39dc76","video":null,"channel":"MadeMeSmile","channelUrl":"https://www.reddit.com/r/MadeMeSmile","author":"virginiapublicradio","authorUrl":"https://www.reddit.com/user/virginiapublicradio","authorImage":null,"authorSlug":"virginiapublicradio","score":79199,"views":null,"sharedCount":null,"likeCount":null,"sharedContent":null,"parent":{"__typename":"RedditJson","localize":[{"title":"今天戒酒4年了！","the_new_excerpt":null,"locale":"zh"},{"title":"今天戒酒4年了！","the_new_excerpt":null,"locale":"zh-Hant"}]}},{"__typename":"SocialMediaPost","id":"RedditPost-jwzjbu","excerpt":"","slug":"/reddit/r/MadeMeSmile/comments/jwzjbu/humanity/","title":"Humanity","date":"November 19, 2020","dateISO":"2020-11-19T21:17:50.000Z","datetime":"2020-11-19 21:17","tags":["MadeMeSmile","reddit"],"image":null,"imageAlt":null,"provider":"Reddit","thirdPartyId":"jwzjbu","url":"https://www.reddit.com/r/MadeMeSmile/comments/jwzjbu/humanity/","originalUrl":"https://www.reddit.com/r/MadeMeSmile/comments/jwzjbu/humanity/","imageRemote":null,"video":{"url":"https://v.redd.it/sak0w7r0y5061/DASH_720.mp4","embed":null,"width":506,"height":720},"channel":"MadeMeSmile","channelUrl":"https://www.reddit.com/r/MadeMeSmile","author":"My_Memes_Will_Cure_U","authorUrl":"https://www.reddit.com/user/My_Memes_Will_Cure_U","authorImage":null,"authorSlug":"My_Memes_Will_Cure_U","score":74429,"views":null,"sharedCount":null,"likeCount":null,"sharedContent":null,"parent":{"__typename":"RedditJson","localize":[{"title":"人性","the_new_excerpt":null,"locale":"zh"},{"title":"人性","the_new_excerpt":null,"locale":"zh-Hant"}]}},{"__typename":"SocialMediaPost","id":"RedditPost-jwv9yh","excerpt":"","slug":"/reddit/r/MadeMeSmile/comments/jwv9yh/this_dog_victim_of_abuse_was_taken_to_an_animal/","title":"This dog, victim of abuse, was taken to an animal shelter. He refused to eat, and the vet decided to use an unconventional method to revive him for life...","date":"November 19, 2020","dateISO":"2020-11-19T21:01:46.000Z","datetime":"2020-11-19 21:01","tags":["MadeMeSmile","reddit"],"image":null,"imageAlt":null,"provider":"Reddit","thirdPartyId":"jwv9yh","url":"https://www.reddit.com/r/MadeMeSmile/comments/jwv9yh/this_dog_victim_of_abuse_was_taken_to_an_animal/","originalUrl":"https://www.reddit.com/r/MadeMeSmile/comments/jwv9yh/this_dog_victim_of_abuse_was_taken_to_an_animal/","imageRemote":null,"video":{"url":"https://www.reddit.com/mediaembed/jwv9yh","embed":true,"width":1280,"height":720},"channel":"MadeMeSmile","channelUrl":"https://www.reddit.com/r/MadeMeSmile","author":"MeliaDanae","authorUrl":"https://www.reddit.com/user/MeliaDanae","authorImage":null,"authorSlug":"MeliaDanae","score":68137,"views":null,"sharedCount":null,"likeCount":null,"sharedContent":null,"parent":{"__typename":"RedditJson","localize":[{"title":"这条狗是虐待的受害者，被带到动物收容所。他拒绝进食，兽医决定用一种非常规的方法使他复活。","the_new_excerpt":null,"locale":"zh"},{"title":"這條狗是虐待的受害者，被帶到動物收容所。他拒絕進食，獸醫決定用壹種非常規的方法使他復活。","the_new_excerpt":null,"locale":"zh-Hant"}]}},{"__typename":"SocialMediaPost","id":"RedditPost-jwqq57","excerpt":"","slug":"/reddit/r/MadeMeSmile/comments/jwqq57/a_few_weeks_ago_i_woke_up_from_emergency_surgery/","title":"A few weeks ago I woke up from emergency surgery and found I could not walk anymore.. a few days ago I managed to stand up and walk a bit with a walking stick. So many smiles :-)","date":"November 19, 2020","dateISO":"2020-11-19T18:24:53.000Z","datetime":"2020-11-19 18:24","tags":["MadeMeSmile","reddit"],"image":null,"imageAlt":"Reddit Image","provider":"Reddit","thirdPartyId":"jwqq57","url":"https://www.reddit.com/r/MadeMeSmile/comments/jwqq57/a_few_weeks_ago_i_woke_up_from_emergency_surgery/","originalUrl":"https://www.reddit.com/r/MadeMeSmile/comments/jwqq57/a_few_weeks_ago_i_woke_up_from_emergency_surgery/","imageRemote":"https://preview.redd.it/i6xql5yxw2061.jpg?width=1080&crop=smart&auto=webp&s=462baf7b18f6de21932436b174b06688fd868169","video":null,"channel":"MadeMeSmile","channelUrl":"https://www.reddit.com/r/MadeMeSmile","author":"UnusualSoup","authorUrl":"https://www.reddit.com/user/UnusualSoup","authorImage":null,"authorSlug":"UnusualSoup","score":69219,"views":null,"sharedCount":null,"likeCount":null,"sharedContent":null,"parent":{"__typename":"RedditJson","localize":[{"title":"几周前，我从紧急手术中醒来，发现自己再也走不动了。几天前，我好不容易站了起来，拄着拐杖走了一小段路。如此多的微笑：-)","the_new_excerpt":null,"locale":"zh"},{"title":"幾周前，我從緊急手術中醒來，發現自己再也走不動了。幾天前，我好不容易站了起來，拄著拐杖走了壹小段路。如此多的微笑：-)","the_new_excerpt":null,"locale":"zh-Hant"}]}},{"__typename":"SocialMediaPost","id":"RedditPost-jvwubd","excerpt":"","slug":"/reddit/r/MadeMeSmile/comments/jvwubd/holding_back_tears/","title":"Holding back tears","date":"November 18, 2020","dateISO":"2020-11-18T12:00:25.000Z","datetime":"2020-11-18 12:00","tags":["MadeMeSmile","reddit"],"image":null,"imageAlt":"Reddit Image","provider":"Reddit","thirdPartyId":"jvwubd","url":"https://www.reddit.com/r/MadeMeSmile/comments/jvwubd/holding_back_tears/","originalUrl":"https://www.reddit.com/r/MadeMeSmile/comments/jvwubd/holding_back_tears/","imageRemote":"https://preview.redd.it/gt2df4o02uz51.jpg?width=1080&crop=smart&auto=webp&s=8ba05ecd8bf67722aa32133304c8ae8bf668cd5e","video":null,"channel":"MadeMeSmile","channelUrl":"https://www.reddit.com/r/MadeMeSmile","author":"ball-_-fondler","authorUrl":"https://www.reddit.com/user/ball-_-fondler","authorImage":null,"authorSlug":"ball-_-fondler","score":74172,"views":null,"sharedCount":null,"likeCount":null,"sharedContent":null,"parent":{"__typename":"RedditJson","localize":[{"title":"强忍着泪水","the_new_excerpt":null,"locale":"zh"},{"title":"強忍著淚水","the_new_excerpt":null,"locale":"zh-Hant"}]}},{"__typename":"SocialMediaPost","id":"RedditPost-jvmyon","excerpt":"","slug":"/reddit/r/MadeMeSmile/comments/jvmyon/a_new_beginning/","title":"A new beginning","date":"November 18, 2020","dateISO":"2020-11-18T01:16:27.000Z","datetime":"2020-11-18 01:16","tags":["MadeMeSmile","reddit"],"image":null,"imageAlt":"Reddit Image","provider":"Reddit","thirdPartyId":"jvmyon","url":"https://www.reddit.com/r/MadeMeSmile/comments/jvmyon/a_new_beginning/","originalUrl":"https://www.reddit.com/r/MadeMeSmile/comments/jvmyon/a_new_beginning/","imageRemote":"https://preview.redd.it/eccw9kgweqz51.jpg?width=640&crop=smart&auto=webp&s=5836fb3faa88b4900c83790d1add2807897323f8","video":null,"channel":"MadeMeSmile","channelUrl":"https://www.reddit.com/r/MadeMeSmile","author":"memezzer","authorUrl":"https://www.reddit.com/user/memezzer","authorImage":null,"authorSlug":"memezzer","score":66544,"views":null,"sharedCount":null,"likeCount":null,"sharedContent":null,"parent":{"__typename":"RedditJson","localize":[{"title":"新的开始","the_new_excerpt":null,"locale":"zh"},{"title":"新的開始","the_new_excerpt":null,"locale":"zh-Hant"}]}},{"__typename":"SocialMediaPost","id":"RedditPost-jvr70w","excerpt":"","slug":"/reddit/r/MadeMeSmile/comments/jvr70w/what_a_great_story/","title":"What a great story :)","date":"November 18, 2020","dateISO":"2020-11-18T00:54:27.000Z","datetime":"2020-11-18 00:54","tags":["MadeMeSmile","reddit"],"image":null,"imageAlt":"Reddit Image","provider":"Reddit","thirdPartyId":"jvr70w","url":"https://www.reddit.com/r/MadeMeSmile/comments/jvr70w/what_a_great_story/","originalUrl":"https://www.reddit.com/r/MadeMeSmile/comments/jvr70w/what_a_great_story/","imageRemote":"https://preview.redd.it/6g82p65x8sz51.jpg?width=1080&crop=smart&auto=webp&s=749acdedff2dc2c94ece990f5fb66c53ced660de","video":null,"channel":"MadeMeSmile","channelUrl":"https://www.reddit.com/r/MadeMeSmile","author":"MainPaladin2166","authorUrl":"https://www.reddit.com/user/MainPaladin2166","authorImage":null,"authorSlug":"MainPaladin2166","score":72798,"views":null,"sharedCount":null,"likeCount":null,"sharedContent":null,"parent":{"__typename":"RedditJson","localize":[{"title":"多棒的故事啊：)","the_new_excerpt":null,"locale":"zh"},{"title":"多棒的故事啊：)","the_new_excerpt":null,"locale":"zh-Hant"}]}},{"__typename":"SocialMediaPost","id":"RedditPost-jv7ioj","excerpt":"","slug":"/reddit/r/MadeMeSmile/comments/jv7ioj/be_a_man/","title":"Be a man","date":"November 16, 2020","dateISO":"2020-11-16T23:04:08.000Z","datetime":"2020-11-16 23:04","tags":["MadeMeSmile","reddit"],"image":null,"imageAlt":"Reddit Image","provider":"Reddit","thirdPartyId":"jv7ioj","url":"https://www.reddit.com/r/MadeMeSmile/comments/jv7ioj/be_a_man/","originalUrl":"https://www.reddit.com/r/MadeMeSmile/comments/jv7ioj/be_a_man/","imageRemote":"https://external-preview.redd.it/BYm4uiZtbFlj52A3nfeequu0RWSP2kPh-6DOeUpHBy0.jpg?width=1080&crop=smart&auto=webp&s=f093f9552cbf85878d83f8d57cf0da5d9c53adb3","video":null,"channel":"MadeMeSmile","channelUrl":"https://www.reddit.com/r/MadeMeSmile","author":"My_Memes_Will_Cure_U","authorUrl":"https://www.reddit.com/user/My_Memes_Will_Cure_U","authorImage":null,"authorSlug":"My_Memes_Will_Cure_U","score":95179,"views":null,"sharedCount":null,"likeCount":null,"sharedContent":null,"parent":{"__typename":"RedditJson","localize":[{"title":"你得像个男子汉","the_new_excerpt":null,"locale":"zh"},{"title":"妳得像個男子漢","the_new_excerpt":null,"locale":"zh-Hant"}]}},{"__typename":"SocialMediaPost","id":"RedditPost-juokp4","excerpt":"","slug":"/reddit/r/MadeMeSmile/comments/juokp4/my_silly_parents_playing_in_a_leaf_pile/","title":"My silly parents playing in a leaf pile.","date":"November 16, 2020","dateISO":"2020-11-16T01:27:11.000Z","datetime":"2020-11-16 01:27","tags":["MadeMeSmile","reddit"],"image":null,"imageAlt":null,"provider":"Reddit","thirdPartyId":"juokp4","url":"https://www.reddit.com/r/MadeMeSmile/comments/juokp4/my_silly_parents_playing_in_a_leaf_pile/","originalUrl":"https://www.reddit.com/r/MadeMeSmile/comments/juokp4/my_silly_parents_playing_in_a_leaf_pile/","imageRemote":null,"video":{"url":"https://www.reddit.com/mediaembed/juokp4","embed":true,"width":607,"height":1080},"channel":"MadeMeSmile","channelUrl":"https://www.reddit.com/r/MadeMeSmile","author":"LoveMeSomeGoodLife","authorUrl":"https://www.reddit.com/user/LoveMeSomeGoodLife","authorImage":null,"authorSlug":"LoveMeSomeGoodLife","score":108758,"views":null,"sharedCount":null,"likeCount":null,"sharedContent":null,"parent":{"__typename":"RedditJson","localize":[{"title":"我愚蠢的父母在树叶堆里玩耍。","the_new_excerpt":null,"locale":"zh"},{"title":"我愚蠢的父母在樹葉堆裏玩耍。","the_new_excerpt":null,"locale":"zh-Hant"}]}},{"__typename":"SocialMediaPost","id":"RedditPost-juhnau","excerpt":"","slug":"/reddit/r/MadeMeSmile/comments/juhnau/so_wholesome_d/","title":"So wholesome! :D","date":"November 15, 2020","dateISO":"2020-11-15T23:02:15.000Z","datetime":"2020-11-15 23:02","tags":["MadeMeSmile","reddit"],"image":null,"imageAlt":"Reddit Image","provider":"Reddit","thirdPartyId":"juhnau","url":"https://www.reddit.com/r/MadeMeSmile/comments/juhnau/so_wholesome_d/","originalUrl":"https://www.reddit.com/r/MadeMeSmile/comments/juhnau/so_wholesome_d/","imageRemote":"https://preview.redd.it/na4r1e4tncz51.jpg?width=1080&crop=smart&auto=webp&s=5de6157aa7b99efa64e03ae0d4dc6229d53bca7b","video":null,"channel":"MadeMeSmile","channelUrl":"https://www.reddit.com/r/MadeMeSmile","author":"Good_quality_OwO","authorUrl":"https://www.reddit.com/user/Good_quality_OwO","authorImage":null,"authorSlug":"Good_quality_OwO","score":65048,"views":null,"sharedCount":null,"likeCount":null,"sharedContent":null,"parent":{"__typename":"RedditJson","localize":[{"title":"太健康了！：D","the_new_excerpt":null,"locale":"zh"},{"title":"太健康了！：D","the_new_excerpt":null,"locale":"zh-Hant"}]}},{"__typename":"SocialMediaPost","id":"RedditPost-juckxc","excerpt":"","slug":"/reddit/r/MadeMeSmile/comments/juckxc/this_made_my_day/","title":"This made my day :)","date":"November 15, 2020","dateISO":"2020-11-15T00:29:37.000Z","datetime":"2020-11-15 00:29","tags":["MadeMeSmile","reddit"],"image":null,"imageAlt":"Reddit Image","provider":"Reddit","thirdPartyId":"juckxc","url":"https://www.reddit.com/r/MadeMeSmile/comments/juckxc/this_made_my_day/","originalUrl":"https://www.reddit.com/r/MadeMeSmile/comments/juckxc/this_made_my_day/","imageRemote":"https://preview.redd.it/zc3xy84gtaz51.jpg?width=640&crop=smart&auto=webp&s=a882abf2c9ecae61336b04b149432c134798a80c","video":null,"channel":"MadeMeSmile","channelUrl":"https://www.reddit.com/r/MadeMeSmile","author":"Good_quality_OwO","authorUrl":"https://www.reddit.com/user/Good_quality_OwO","authorImage":null,"authorSlug":"Good_quality_OwO","score":101707,"views":null,"sharedCount":null,"likeCount":null,"sharedContent":null,"parent":{"__typename":"RedditJson","localize":[{"title":"这让我一天都很开心：)","the_new_excerpt":null,"locale":"zh"},{"title":"這讓我壹天都很開心：)","the_new_excerpt":null,"locale":"zh-Hant"}]}},{"__typename":"SocialMediaPost","id":"RedditPost-ju3yd6","excerpt":"","slug":"/reddit/r/MadeMeSmile/comments/ju3yd6/dude_teaches_little_guy_to_skate/","title":"Dude teaches little guy to skate","date":"November 14, 2020","dateISO":"2020-11-14T15:49:59.000Z","datetime":"2020-11-14 15:49","tags":["MadeMeSmile","reddit"],"image":null,"imageAlt":null,"provider":"Reddit","thirdPartyId":"ju3yd6","url":"https://www.reddit.com/r/MadeMeSmile/comments/ju3yd6/dude_teaches_little_guy_to_skate/","originalUrl":"https://www.reddit.com/r/MadeMeSmile/comments/ju3yd6/dude_teaches_little_guy_to_skate/","imageRemote":null,"video":{"url":"https://www.reddit.com/mediaembed/ju3yd6","embed":true,"width":576,"height":720},"channel":"MadeMeSmile","channelUrl":"https://www.reddit.com/r/MadeMeSmile","author":"monsterup111","authorUrl":"https://www.reddit.com/user/monsterup111","authorImage":null,"authorSlug":"monsterup111","score":82874,"views":null,"sharedCount":null,"likeCount":null,"sharedContent":null,"parent":{"__typename":"RedditJson","localize":[{"title":"哥们儿教小家伙滑冰","the_new_excerpt":null,"locale":"zh"},{"title":"哥們兒教小家夥滑冰","the_new_excerpt":null,"locale":"zh-Hant"}]}},{"__typename":"SocialMediaPost","id":"RedditPost-jtkmz0","excerpt":"","slug":"/reddit/r/MadeMeSmile/comments/jtkmz0/ok_this_is_really_wholesome/","title":"Ok, this is really wholesome","date":"November 13, 2020","dateISO":"2020-11-13T17:58:58.000Z","datetime":"2020-11-13 17:58","tags":["MadeMeSmile","reddit"],"image":null,"imageAlt":"Reddit Image","provider":"Reddit","thirdPartyId":"jtkmz0","url":"https://www.reddit.com/r/MadeMeSmile/comments/jtkmz0/ok_this_is_really_wholesome/","originalUrl":"https://www.reddit.com/r/MadeMeSmile/comments/jtkmz0/ok_this_is_really_wholesome/","imageRemote":"https://preview.redd.it/8p5mt7fsq1z51.jpg?width=640&crop=smart&auto=webp&s=aa4d59f616d7a36aeefc9e6443d8a5e8bbeb0804","video":null,"channel":"MadeMeSmile","channelUrl":"https://www.reddit.com/r/MadeMeSmile","author":"french_onion_salad","authorUrl":"https://www.reddit.com/user/french_onion_salad","authorImage":null,"authorSlug":"french_onion_salad","score":96904,"views":null,"sharedCount":null,"likeCount":null,"sharedContent":null,"parent":{"__typename":"RedditJson","localize":[{"title":"好的，这真的很有益健康","the_new_excerpt":null,"locale":"zh"},{"title":"好的，這真的很有益健康","the_new_excerpt":null,"locale":"zh-Hant"}]}},{"__typename":"SocialMediaPost","id":"RedditPost-jteit6","excerpt":"","slug":"/reddit/r/MadeMeSmile/comments/jteit6/the_perks_of_being_an_amputee/","title":"The perks of being an amputee","date":"November 13, 2020","dateISO":"2020-11-13T10:01:58.000Z","datetime":"2020-11-13 10:01","tags":["MadeMeSmile","reddit"],"image":null,"imageAlt":null,"provider":"Reddit","thirdPartyId":"jteit6","url":"https://www.reddit.com/r/MadeMeSmile/comments/jteit6/the_perks_of_being_an_amputee/","originalUrl":"https://www.reddit.com/r/MadeMeSmile/comments/jteit6/the_perks_of_being_an_amputee/","imageRemote":null,"video":{"url":"https://www.reddit.com/mediaembed/jteit6","embed":true,"width":608,"height":1080},"channel":"MadeMeSmile","channelUrl":"https://www.reddit.com/r/MadeMeSmile","author":"australiughhh","authorUrl":"https://www.reddit.com/user/australiughhh","authorImage":null,"authorSlug":"australiughhh","score":72195,"views":null,"sharedCount":null,"likeCount":null,"sharedContent":null,"parent":{"__typename":"RedditJson","localize":[{"title":"截肢者的福利","the_new_excerpt":null,"locale":"zh"},{"title":"截肢者的福利","the_new_excerpt":null,"locale":"zh-Hant"}]}},{"__typename":"SocialMediaPost","id":"RedditPost-jt3281","excerpt":"","slug":"/reddit/r/MadeMeSmile/comments/jt3281/just_something_cute/","title":"Just something cute :)","date":"November 12, 2020","dateISO":"2020-11-12T20:57:37.000Z","datetime":"2020-11-12 20:57","tags":["MadeMeSmile","reddit"],"image":null,"imageAlt":"Reddit Image","provider":"Reddit","thirdPartyId":"jt3281","url":"https://www.reddit.com/r/MadeMeSmile/comments/jt3281/just_something_cute/","originalUrl":"https://www.reddit.com/r/MadeMeSmile/comments/jt3281/just_something_cute/","imageRemote":"https://preview.redd.it/q1a0v2wshvy51.jpg?width=1080&crop=smart&auto=webp&s=54fdc3bf4763b34f282a41f27e64fadd774e24fc","video":null,"channel":"MadeMeSmile","channelUrl":"https://www.reddit.com/r/MadeMeSmile","author":"unexpecteddelight","authorUrl":"https://www.reddit.com/user/unexpecteddelight","authorImage":null,"authorSlug":"unexpecteddelight","score":81862,"views":null,"sharedCount":null,"likeCount":null,"sharedContent":null,"parent":{"__typename":"RedditJson","localize":[{"title":"只是一些可爱的东西：)","the_new_excerpt":null,"locale":"zh"},{"title":"只是壹些可愛的東西：)","the_new_excerpt":null,"locale":"zh-Hant"}]}}]}},"pageContext":{"basePath":"/","pageType":"tag","tag":"MadeMeSmile","tagsFilter":{"id":{"glob":"!*Post-1"}},"filter":{"id":{"glob":"!*Post-1"},"tags":{"eq":"MadeMeSmile"}},"limit":25,"skip":275,"total":292,"totalPages":12,"currentPage":12,"maxWidth":1024,"maxHeight":512,"locale":"zh","hrefLang":"zh-Hans","originalPath":"/tags/made-me-smile/page/12","dateFormat":"YYYY-MM-DD"}},"staticQueryHashes":["1239077767","2506312863","2744905544","3025052997","3493603132","3493603132","3513215887","386998304"]}