{"componentChunkName":"component---node-modules-gatsby-theme-buzzing-src-gatsby-theme-timeline-templates-posts-query-js","path":"/zh-Hant/tags/made-me-smile/page/13","result":{"data":{"site":{"siteMetadata":{"title":"Reddit 热门","description":"用中文浏览Reddit热门内容","social":[{"name":"Reddit","url":"https://www.reddit.com","external":true,"prefetch":null},{"name":"Buzzing","url":"https://www.buzzing.cc/","external":true,"prefetch":null}],"menuLinks":[{"name":"每周精选","url":"/issues","external":null,"prefetch":null}],"localize":[{"locale":"en","title":"Buzzing on Reddit","description":"See what's buzzing on Reddit in your native language","social":[{"name":"Reddit","url":"https://www.reddit.com/","external":true,"prefetch":null}],"menuLinks":[{"name":"Weekly Selection","url":"/en/issues","external":null,"prefetch":null}]},{"locale":"zh-Hant","title":"Reddit 熱門","description":"用中文瀏覽Reddit熱門內容","social":null,"menuLinks":[{"name":"每週精選","url":"/zh-Hant/issues","external":null,"prefetch":null}]},{"locale":"ja","title":"Reddit 人気の記事","description":"人気のReddit記事を日本語で閲覧","social":null,"menuLinks":[]}]}},"tagsGroup":{"group":[{"fieldValue":"ABoringDystopia","totalCount":3},{"fieldValue":"AOC","totalCount":1},{"fieldValue":"AbruptChaos","totalCount":1},{"fieldValue":"AmongUs","totalCount":2},{"fieldValue":"AnimalsBeingBros","totalCount":1},{"fieldValue":"Art","totalCount":1},{"fieldValue":"AskReddit","totalCount":43},{"fieldValue":"Bad_Cop_No_Donut","totalCount":2},{"fieldValue":"BeAmazed","totalCount":4},{"fieldValue":"BikiniBottomTwitter","totalCount":7},{"fieldValue":"BlackPeopleTwitter","totalCount":90},{"fieldValue":"Bossfight","totalCount":1},{"fieldValue":"CapitolConsequences","totalCount":1},{"fieldValue":"Conservative","totalCount":1},{"fieldValue":"Coronavirus","totalCount":2},{"fieldValue":"Cringetopia","totalCount":11},{"fieldValue":"Damnthatsinteresting","totalCount":83},{"fieldValue":"DunderMifflin","totalCount":1},{"fieldValue":"FuckYouKaren","totalCount":8},{"fieldValue":"FunnyandSad","totalCount":1},{"fieldValue":"Futurology","totalCount":5},{"fieldValue":"GetMotivated","totalCount":1},{"fieldValue":"HolUp","totalCount":104},{"fieldValue":"HumansBeingBros","totalCount":14},{"fieldValue":"IdiotsInCars","totalCount":24},{"fieldValue":"IsTodayFridayThe13th","totalCount":1},{"fieldValue":"JusticeServed","totalCount":4},{"fieldValue":"KamikazeByWords","totalCount":1},{"fieldValue":"KidsAreFuckingStupid","totalCount":5},{"fieldValue":"LeopardsAteMyFace","totalCount":11},{"fieldValue":"LifeProTips","totalCount":26},{"fieldValue":"MadeMeSmile","totalCount":304},{"fieldValue":"Minecraft","totalCount":23},{"fieldValue":"MovieDetails","totalCount":3},{"fieldValue":"MurderedByAOC","totalCount":5},{"fieldValue":"MurderedByWords","totalCount":111},{"fieldValue":"Music","totalCount":2},{"fieldValue":"NatureIsFuckingLit","totalCount":11},{"fieldValue":"NoStupidQuestions","totalCount":1},{"fieldValue":"OldSchoolCool","totalCount":4},{"fieldValue":"PoliticalHumor","totalCount":55},{"fieldValue":"PrequelMemes","totalCount":23},{"fieldValue":"PublicFreakout","totalCount":106},{"fieldValue":"SelfAwarewolves","totalCount":2},{"fieldValue":"ShitPostCrusaders","totalCount":1},{"fieldValue":"ShittyLifeProTips","totalCount":3},{"fieldValue":"Showerthoughts","totalCount":11},{"fieldValue":"StarWars","totalCount":1},{"fieldValue":"TIHI","totalCount":4},{"fieldValue":"ThatsInsane","totalCount":6},{"fieldValue":"TheBoys","totalCount":1},{"fieldValue":"TheRightCantMeme","totalCount":1},{"fieldValue":"TikTokCringe","totalCount":3},{"fieldValue":"Tinder","totalCount":5},{"fieldValue":"ToiletPaperUSA","totalCount":2},{"fieldValue":"TwoXChromosomes","totalCount":2},{"fieldValue":"Unexpected","totalCount":141},{"fieldValue":"UpliftingNews","totalCount":5},{"fieldValue":"WTF","totalCount":1},{"fieldValue":"WallStreetbetsELITE","totalCount":1},{"fieldValue":"WatchPeopleDieInside","totalCount":66},{"fieldValue":"Wellthatsucks","totalCount":32},{"fieldValue":"Whatcouldgowrong","totalCount":17},{"fieldValue":"WhitePeopleTwitter","totalCount":284},{"fieldValue":"WinStupidPrizes","totalCount":1},{"fieldValue":"agedlikemilk","totalCount":2},{"fieldValue":"announcements","totalCount":1},{"fieldValue":"apexlegends","totalCount":1},{"fieldValue":"assholedesign","totalCount":4},{"fieldValue":"awfuleverything","totalCount":7},{"fieldValue":"aww","totalCount":393},{"fieldValue":"blackmagicfuckery","totalCount":7},{"fieldValue":"blog","totalCount":2},{"fieldValue":"blursedimages","totalCount":7},{"fieldValue":"canada","totalCount":1},{"fieldValue":"clevercomebacks","totalCount":2},{"fieldValue":"comedyheaven","totalCount":10},{"fieldValue":"confidentlyincorrect","totalCount":2},{"fieldValue":"coolguides","totalCount":5},{"fieldValue":"cursedcomments","totalCount":54},{"fieldValue":"cyberpunkgame","totalCount":3},{"fieldValue":"dankmemes","totalCount":448},{"fieldValue":"dataisbeautiful","totalCount":6},{"fieldValue":"dndmemes","totalCount":1},{"fieldValue":"dogecoin","totalCount":1},{"fieldValue":"europe","totalCount":1},{"fieldValue":"facepalm","totalCount":143},{"fieldValue":"funny","totalCount":339},{"fieldValue":"gaming","totalCount":253},{"fieldValue":"gatekeeping","totalCount":1},{"fieldValue":"gifs","totalCount":49},{"fieldValue":"harrypotter","totalCount":1},{"fieldValue":"iamatotalpieceofshit","totalCount":15},{"fieldValue":"insanepeoplefacebook","totalCount":9},{"fieldValue":"instant_regret","totalCount":9},{"fieldValue":"instantkarma","totalCount":1},{"fieldValue":"interestingasfuck","totalCount":433},{"fieldValue":"intermittentfasting","totalCount":1},{"fieldValue":"lotrmemes","totalCount":1},{"fieldValue":"madlads","totalCount":9},{"fieldValue":"marvelstudios","totalCount":2},{"fieldValue":"me_irl","totalCount":17},{"fieldValue":"memes","totalCount":1082},{"fieldValue":"mildlyinfuriating","totalCount":23},{"fieldValue":"mildlyinteresting","totalCount":100},{"fieldValue":"movies","totalCount":11},{"fieldValue":"natureismetal","totalCount":3},{"fieldValue":"nevertellmetheodds","totalCount":3},{"fieldValue":"news","totalCount":131},{"fieldValue":"nextfuckinglevel","totalCount":596},{"fieldValue":"nottheonion","totalCount":21},{"fieldValue":"oddlysatisfying","totalCount":46},{"fieldValue":"pcmasterrace","totalCount":11},{"fieldValue":"perfectlycutscreams","totalCount":1},{"fieldValue":"pics","totalCount":373},{"fieldValue":"politics","totalCount":186},{"fieldValue":"povertyfinance","totalCount":1},{"fieldValue":"quityourbullshit","totalCount":2},{"fieldValue":"rareinsults","totalCount":15},{"fieldValue":"rarepuppers","totalCount":1},{"fieldValue":"reddit","totalCount":7169},{"fieldValue":"sadcringe","totalCount":1},{"fieldValue":"science","totalCount":23},{"fieldValue":"shittymoviedetails","totalCount":2},{"fieldValue":"space","totalCount":9},{"fieldValue":"specializedtools","totalCount":1},{"fieldValue":"sports","totalCount":2},{"fieldValue":"starterpacks","totalCount":11},{"fieldValue":"stocks","totalCount":1},{"fieldValue":"suspiciouslyspecific","totalCount":1},{"fieldValue":"technicallythetruth","totalCount":12},{"fieldValue":"technology","totalCount":16},{"fieldValue":"teenagers","totalCount":19},{"fieldValue":"therewasanattempt","totalCount":3},{"fieldValue":"tifu","totalCount":1},{"fieldValue":"todayilearned","totalCount":105},{"fieldValue":"toptalent","totalCount":2},{"fieldValue":"trashy","totalCount":2},{"fieldValue":"trippinthroughtime","totalCount":2},{"fieldValue":"videos","totalCount":4},{"fieldValue":"wallstreetbets","totalCount":176},{"fieldValue":"wholesomememes","totalCount":121},{"fieldValue":"woahdude","totalCount":1},{"fieldValue":"worldnews","totalCount":108},{"fieldValue":"youseeingthisshit","totalCount":1}]},"allBlogPost":{"nodes":[{"__typename":"SocialMediaPost","id":"RedditPost-ju3yd6","excerpt":"","slug":"/reddit/r/MadeMeSmile/comments/ju3yd6/dude_teaches_little_guy_to_skate/","title":"Dude teaches little guy to skate","date":"November 14, 2020","dateISO":"2020-11-14T15:49:59.000Z","datetime":"2020-11-14 15:49","tags":["MadeMeSmile","reddit"],"image":null,"imageAlt":null,"provider":"Reddit","thirdPartyId":"ju3yd6","url":"https://www.reddit.com/r/MadeMeSmile/comments/ju3yd6/dude_teaches_little_guy_to_skate/","originalUrl":"https://www.reddit.com/r/MadeMeSmile/comments/ju3yd6/dude_teaches_little_guy_to_skate/","imageRemote":null,"video":{"url":"https://www.reddit.com/mediaembed/ju3yd6","embed":true,"width":576,"height":720},"channel":"MadeMeSmile","channelUrl":"https://www.reddit.com/r/MadeMeSmile","author":"monsterup111","authorUrl":"https://www.reddit.com/user/monsterup111","authorImage":null,"authorSlug":"monsterup111","score":82874,"views":null,"sharedCount":null,"likeCount":null,"sharedContent":null,"parent":{"__typename":"RedditJson","localize":[{"title":"哥们儿教小家伙滑冰","the_new_excerpt":null,"locale":"zh"},{"title":"哥們兒教小家夥滑冰","the_new_excerpt":null,"locale":"zh-Hant"}]}},{"__typename":"SocialMediaPost","id":"RedditPost-jtkmz0","excerpt":"","slug":"/reddit/r/MadeMeSmile/comments/jtkmz0/ok_this_is_really_wholesome/","title":"Ok, this is really wholesome","date":"November 13, 2020","dateISO":"2020-11-13T17:58:58.000Z","datetime":"2020-11-13 17:58","tags":["MadeMeSmile","reddit"],"image":null,"imageAlt":"Reddit Image","provider":"Reddit","thirdPartyId":"jtkmz0","url":"https://www.reddit.com/r/MadeMeSmile/comments/jtkmz0/ok_this_is_really_wholesome/","originalUrl":"https://www.reddit.com/r/MadeMeSmile/comments/jtkmz0/ok_this_is_really_wholesome/","imageRemote":"https://preview.redd.it/8p5mt7fsq1z51.jpg?width=640&crop=smart&auto=webp&s=aa4d59f616d7a36aeefc9e6443d8a5e8bbeb0804","video":null,"channel":"MadeMeSmile","channelUrl":"https://www.reddit.com/r/MadeMeSmile","author":"french_onion_salad","authorUrl":"https://www.reddit.com/user/french_onion_salad","authorImage":null,"authorSlug":"french_onion_salad","score":96904,"views":null,"sharedCount":null,"likeCount":null,"sharedContent":null,"parent":{"__typename":"RedditJson","localize":[{"title":"好的，这真的很有益健康","the_new_excerpt":null,"locale":"zh"},{"title":"好的，這真的很有益健康","the_new_excerpt":null,"locale":"zh-Hant"}]}},{"__typename":"SocialMediaPost","id":"RedditPost-jteit6","excerpt":"","slug":"/reddit/r/MadeMeSmile/comments/jteit6/the_perks_of_being_an_amputee/","title":"The perks of being an amputee","date":"November 13, 2020","dateISO":"2020-11-13T10:01:58.000Z","datetime":"2020-11-13 10:01","tags":["MadeMeSmile","reddit"],"image":null,"imageAlt":null,"provider":"Reddit","thirdPartyId":"jteit6","url":"https://www.reddit.com/r/MadeMeSmile/comments/jteit6/the_perks_of_being_an_amputee/","originalUrl":"https://www.reddit.com/r/MadeMeSmile/comments/jteit6/the_perks_of_being_an_amputee/","imageRemote":null,"video":{"url":"https://www.reddit.com/mediaembed/jteit6","embed":true,"width":608,"height":1080},"channel":"MadeMeSmile","channelUrl":"https://www.reddit.com/r/MadeMeSmile","author":"australiughhh","authorUrl":"https://www.reddit.com/user/australiughhh","authorImage":null,"authorSlug":"australiughhh","score":72195,"views":null,"sharedCount":null,"likeCount":null,"sharedContent":null,"parent":{"__typename":"RedditJson","localize":[{"title":"截肢者的福利","the_new_excerpt":null,"locale":"zh"},{"title":"截肢者的福利","the_new_excerpt":null,"locale":"zh-Hant"}]}},{"__typename":"SocialMediaPost","id":"RedditPost-jt3281","excerpt":"","slug":"/reddit/r/MadeMeSmile/comments/jt3281/just_something_cute/","title":"Just something cute :)","date":"November 12, 2020","dateISO":"2020-11-12T20:57:37.000Z","datetime":"2020-11-12 20:57","tags":["MadeMeSmile","reddit"],"image":null,"imageAlt":"Reddit Image","provider":"Reddit","thirdPartyId":"jt3281","url":"https://www.reddit.com/r/MadeMeSmile/comments/jt3281/just_something_cute/","originalUrl":"https://www.reddit.com/r/MadeMeSmile/comments/jt3281/just_something_cute/","imageRemote":"https://preview.redd.it/q1a0v2wshvy51.jpg?width=1080&crop=smart&auto=webp&s=54fdc3bf4763b34f282a41f27e64fadd774e24fc","video":null,"channel":"MadeMeSmile","channelUrl":"https://www.reddit.com/r/MadeMeSmile","author":"unexpecteddelight","authorUrl":"https://www.reddit.com/user/unexpecteddelight","authorImage":null,"authorSlug":"unexpecteddelight","score":81862,"views":null,"sharedCount":null,"likeCount":null,"sharedContent":null,"parent":{"__typename":"RedditJson","localize":[{"title":"只是一些可爱的东西：)","the_new_excerpt":null,"locale":"zh"},{"title":"只是壹些可愛的東西：)","the_new_excerpt":null,"locale":"zh-Hant"}]}}]}},"pageContext":{"basePath":"/","pageType":"tag","tag":"MadeMeSmile","tagsFilter":{"id":{"glob":"!*Post-1"}},"filter":{"id":{"glob":"!*Post-1"},"tags":{"eq":"MadeMeSmile"}},"limit":25,"skip":300,"total":304,"totalPages":13,"currentPage":13,"maxWidth":1024,"maxHeight":512,"locale":"zh-Hant","hrefLang":"zh-Hant","originalPath":"/tags/made-me-smile/page/13","dateFormat":"YYYY-MM-DD"}},"staticQueryHashes":["1239077767","2506312863","2744905544","3025052997","3493603132","3493603132","3513215887","386998304"]}