{"componentChunkName":"component---node-modules-gatsby-theme-buzzing-src-gatsby-theme-timeline-templates-posts-query-js","path":"/en/tags/aww/page/16","result":{"data":{"site":{"siteMetadata":{"title":"Reddit 热门","description":"用中文浏览Reddit热门内容","social":[{"name":"Reddit","url":"https://www.reddit.com","external":true,"prefetch":null},{"name":"Buzzing","url":"https://www.buzzing.cc/","external":true,"prefetch":null}],"menuLinks":[{"name":"每周精选","url":"/issues","external":null,"prefetch":null}],"localize":[{"locale":"en","title":"Buzzing on Reddit","description":"See what's buzzing on Reddit in your native language","social":[{"name":"Reddit","url":"https://www.reddit.com/","external":true,"prefetch":null}],"menuLinks":[{"name":"Weekly Selection","url":"/en/issues","external":null,"prefetch":null}]},{"locale":"zh-Hant","title":"Reddit 熱門","description":"用中文瀏覽Reddit熱門內容","social":null,"menuLinks":[{"name":"每週精選","url":"/zh-Hant/issues","external":null,"prefetch":null}]},{"locale":"ja","title":"Reddit 人気の記事","description":"人気のReddit記事を日本語で閲覧","social":null,"menuLinks":[]}]}},"tagsGroup":{"group":[{"fieldValue":"ABoringDystopia","totalCount":3},{"fieldValue":"AOC","totalCount":1},{"fieldValue":"AbruptChaos","totalCount":1},{"fieldValue":"AmongUs","totalCount":2},{"fieldValue":"AnimalsBeingBros","totalCount":1},{"fieldValue":"Art","totalCount":1},{"fieldValue":"AskReddit","totalCount":43},{"fieldValue":"Bad_Cop_No_Donut","totalCount":2},{"fieldValue":"BeAmazed","totalCount":4},{"fieldValue":"BikiniBottomTwitter","totalCount":7},{"fieldValue":"BlackPeopleTwitter","totalCount":87},{"fieldValue":"Bossfight","totalCount":1},{"fieldValue":"CapitolConsequences","totalCount":1},{"fieldValue":"Conservative","totalCount":1},{"fieldValue":"Coronavirus","totalCount":2},{"fieldValue":"Cringetopia","totalCount":11},{"fieldValue":"Damnthatsinteresting","totalCount":80},{"fieldValue":"DunderMifflin","totalCount":1},{"fieldValue":"FuckYouKaren","totalCount":7},{"fieldValue":"FunnyandSad","totalCount":1},{"fieldValue":"Futurology","totalCount":5},{"fieldValue":"GetMotivated","totalCount":1},{"fieldValue":"HolUp","totalCount":100},{"fieldValue":"HumansBeingBros","totalCount":13},{"fieldValue":"IdiotsInCars","totalCount":22},{"fieldValue":"IsTodayFridayThe13th","totalCount":1},{"fieldValue":"JusticeServed","totalCount":4},{"fieldValue":"KamikazeByWords","totalCount":1},{"fieldValue":"KidsAreFuckingStupid","totalCount":5},{"fieldValue":"LeopardsAteMyFace","totalCount":11},{"fieldValue":"LifeProTips","totalCount":25},{"fieldValue":"MadeMeSmile","totalCount":297},{"fieldValue":"Minecraft","totalCount":23},{"fieldValue":"MovieDetails","totalCount":3},{"fieldValue":"MurderedByAOC","totalCount":5},{"fieldValue":"MurderedByWords","totalCount":106},{"fieldValue":"Music","totalCount":2},{"fieldValue":"NatureIsFuckingLit","totalCount":10},{"fieldValue":"NoStupidQuestions","totalCount":1},{"fieldValue":"OldSchoolCool","totalCount":4},{"fieldValue":"PoliticalHumor","totalCount":54},{"fieldValue":"PrequelMemes","totalCount":23},{"fieldValue":"PublicFreakout","totalCount":105},{"fieldValue":"SelfAwarewolves","totalCount":2},{"fieldValue":"ShitPostCrusaders","totalCount":1},{"fieldValue":"ShittyLifeProTips","totalCount":3},{"fieldValue":"Showerthoughts","totalCount":11},{"fieldValue":"StarWars","totalCount":1},{"fieldValue":"TIHI","totalCount":4},{"fieldValue":"ThatsInsane","totalCount":6},{"fieldValue":"TheBoys","totalCount":1},{"fieldValue":"TheRightCantMeme","totalCount":1},{"fieldValue":"TikTokCringe","totalCount":3},{"fieldValue":"Tinder","totalCount":5},{"fieldValue":"ToiletPaperUSA","totalCount":2},{"fieldValue":"TwoXChromosomes","totalCount":2},{"fieldValue":"Unexpected","totalCount":135},{"fieldValue":"UpliftingNews","totalCount":5},{"fieldValue":"WTF","totalCount":1},{"fieldValue":"WallStreetbetsELITE","totalCount":1},{"fieldValue":"WatchPeopleDieInside","totalCount":65},{"fieldValue":"Wellthatsucks","totalCount":32},{"fieldValue":"Whatcouldgowrong","totalCount":17},{"fieldValue":"WhitePeopleTwitter","totalCount":280},{"fieldValue":"WinStupidPrizes","totalCount":1},{"fieldValue":"agedlikemilk","totalCount":2},{"fieldValue":"announcements","totalCount":1},{"fieldValue":"assholedesign","totalCount":4},{"fieldValue":"awfuleverything","totalCount":7},{"fieldValue":"aww","totalCount":386},{"fieldValue":"blackmagicfuckery","totalCount":6},{"fieldValue":"blog","totalCount":2},{"fieldValue":"blursedimages","totalCount":7},{"fieldValue":"canada","totalCount":1},{"fieldValue":"clevercomebacks","totalCount":2},{"fieldValue":"comedyheaven","totalCount":10},{"fieldValue":"confidentlyincorrect","totalCount":2},{"fieldValue":"coolguides","totalCount":5},{"fieldValue":"cursedcomments","totalCount":53},{"fieldValue":"cyberpunkgame","totalCount":3},{"fieldValue":"dankmemes","totalCount":443},{"fieldValue":"dataisbeautiful","totalCount":6},{"fieldValue":"dndmemes","totalCount":1},{"fieldValue":"dogecoin","totalCount":1},{"fieldValue":"europe","totalCount":1},{"fieldValue":"facepalm","totalCount":141},{"fieldValue":"funny","totalCount":331},{"fieldValue":"gaming","totalCount":249},{"fieldValue":"gatekeeping","totalCount":1},{"fieldValue":"gifs","totalCount":49},{"fieldValue":"harrypotter","totalCount":1},{"fieldValue":"iamatotalpieceofshit","totalCount":15},{"fieldValue":"insanepeoplefacebook","totalCount":9},{"fieldValue":"instant_regret","totalCount":8},{"fieldValue":"instantkarma","totalCount":1},{"fieldValue":"interestingasfuck","totalCount":431},{"fieldValue":"intermittentfasting","totalCount":1},{"fieldValue":"lotrmemes","totalCount":1},{"fieldValue":"madlads","totalCount":9},{"fieldValue":"marvelstudios","totalCount":2},{"fieldValue":"me_irl","totalCount":17},{"fieldValue":"memes","totalCount":1068},{"fieldValue":"mildlyinfuriating","totalCount":23},{"fieldValue":"mildlyinteresting","totalCount":98},{"fieldValue":"movies","totalCount":11},{"fieldValue":"natureismetal","totalCount":3},{"fieldValue":"nevertellmetheodds","totalCount":3},{"fieldValue":"news","totalCount":127},{"fieldValue":"nextfuckinglevel","totalCount":581},{"fieldValue":"nottheonion","totalCount":20},{"fieldValue":"oddlysatisfying","totalCount":46},{"fieldValue":"pcmasterrace","totalCount":11},{"fieldValue":"perfectlycutscreams","totalCount":1},{"fieldValue":"pics","totalCount":366},{"fieldValue":"politics","totalCount":186},{"fieldValue":"povertyfinance","totalCount":1},{"fieldValue":"quityourbullshit","totalCount":2},{"fieldValue":"rareinsults","totalCount":15},{"fieldValue":"rarepuppers","totalCount":1},{"fieldValue":"reddit","totalCount":7048},{"fieldValue":"sadcringe","totalCount":1},{"fieldValue":"science","totalCount":23},{"fieldValue":"shittymoviedetails","totalCount":2},{"fieldValue":"space","totalCount":9},{"fieldValue":"specializedtools","totalCount":1},{"fieldValue":"sports","totalCount":2},{"fieldValue":"starterpacks","totalCount":11},{"fieldValue":"stocks","totalCount":1},{"fieldValue":"suspiciouslyspecific","totalCount":1},{"fieldValue":"technicallythetruth","totalCount":12},{"fieldValue":"technology","totalCount":16},{"fieldValue":"teenagers","totalCount":19},{"fieldValue":"therewasanattempt","totalCount":3},{"fieldValue":"tifu","totalCount":1},{"fieldValue":"todayilearned","totalCount":104},{"fieldValue":"toptalent","totalCount":2},{"fieldValue":"trashy","totalCount":2},{"fieldValue":"trippinthroughtime","totalCount":2},{"fieldValue":"videos","totalCount":4},{"fieldValue":"wallstreetbets","totalCount":176},{"fieldValue":"wholesomememes","totalCount":118},{"fieldValue":"woahdude","totalCount":1},{"fieldValue":"worldnews","totalCount":107},{"fieldValue":"youseeingthisshit","totalCount":1}]},"allBlogPost":{"nodes":[{"__typename":"SocialMediaPost","id":"RedditPost-jumav6","excerpt":"","slug":"/reddit/r/aww/comments/jumav6/his_name_is_giggles/","title":"His name is Giggles.","date":"November 16, 2020","dateISO":"2020-11-16T00:00:00.000Z","datetime":"2020-11-16 00:00","tags":["aww","reddit"],"image":null,"imageAlt":"Reddit Image","provider":"Reddit","thirdPartyId":"jumav6","url":"https://www.reddit.com/r/aww/comments/jumav6/his_name_is_giggles/","originalUrl":"https://www.reddit.com/r/aww/comments/jumav6/his_name_is_giggles/","imageRemote":"https://preview.redd.it/op40xazcuez51.jpg?width=1080&crop=smart&auto=webp&s=301abeb80d9e2b56265a4cf4717973dce0c836b4","video":null,"channel":"aww","channelUrl":"https://www.reddit.com/r/aww","author":"mac_is_crack","authorUrl":"https://www.reddit.com/user/mac_is_crack","authorImage":null,"authorSlug":"mac_is_crack","score":80083,"views":null,"sharedCount":null,"likeCount":null,"sharedContent":null,"parent":{"__typename":"RedditJson","localize":[{"title":"他的名字是傻笑。","the_new_excerpt":null,"locale":"zh"},{"title":"他的名字是傻笑。","the_new_excerpt":null,"locale":"zh-Hant"}]}},{"__typename":"SocialMediaPost","id":"RedditPost-ju6qlt","excerpt":"","slug":"/reddit/r/aww/comments/ju6qlt/my_neighborhoods_14yearold_dog_ajax_and_his_sign/","title":"My neighborhood's 14-year-old dog Ajax and his sign","date":"November 15, 2020","dateISO":"2020-11-15T18:26:59.000Z","datetime":"2020-11-15 18:26","tags":["aww","reddit"],"image":null,"imageAlt":"Reddit Image","provider":"Reddit","thirdPartyId":"ju6qlt","url":"https://www.reddit.com/r/aww/comments/ju6qlt/my_neighborhoods_14yearold_dog_ajax_and_his_sign/","originalUrl":"https://www.reddit.com/r/aww/comments/ju6qlt/my_neighborhoods_14yearold_dog_ajax_and_his_sign/","imageRemote":"https://preview.redd.it/mv8wbcd529z51.jpg?width=1080&crop=smart&auto=webp&s=513e5a77269822b73497581d1ee06e710ab1699f","video":null,"channel":"aww","channelUrl":"https://www.reddit.com/r/aww","author":"headoverheels14","authorUrl":"https://www.reddit.com/user/headoverheels14","authorImage":null,"authorSlug":"headoverheels14","score":68959,"views":null,"sharedCount":null,"likeCount":null,"sharedContent":null,"parent":{"__typename":"RedditJson","localize":[{"title":"我家附近14岁的狗阿贾克斯和他的牌子","the_new_excerpt":null,"locale":"zh"},{"title":"我家附近14歲的狗阿賈克斯和他的牌子","the_new_excerpt":null,"locale":"zh-Hant"}]}},{"__typename":"SocialMediaPost","id":"RedditPost-jug5g2","excerpt":"","slug":"/reddit/r/aww/comments/jug5g2/his_favorite_spot_since_he_was_a_baby/","title":"His favorite spot since he was a baby.","date":"November 15, 2020","dateISO":"2020-11-15T04:38:15.000Z","datetime":"2020-11-15 04:38","tags":["aww","reddit"],"image":null,"imageAlt":null,"provider":"Reddit","thirdPartyId":"jug5g2","url":"https://www.reddit.com/r/aww/comments/jug5g2/his_favorite_spot_since_he_was_a_baby/","originalUrl":"https://www.reddit.com/r/aww/comments/jug5g2/his_favorite_spot_since_he_was_a_baby/","imageRemote":null,"video":{"url":"https://www.reddit.com/mediaembed/jug5g2","embed":true,"width":496,"height":720},"channel":"aww","channelUrl":"https://www.reddit.com/r/aww","author":"Pedrica1","authorUrl":"https://www.reddit.com/user/Pedrica1","authorImage":null,"authorSlug":"Pedrica1","score":88871,"views":null,"sharedCount":null,"likeCount":null,"sharedContent":null,"parent":{"__typename":"RedditJson","localize":[{"title":"他从小就最喜欢的地方。","the_new_excerpt":null,"locale":"zh"},{"title":"他從小就最喜歡的地方。","the_new_excerpt":null,"locale":"zh-Hant"}]}},{"__typename":"SocialMediaPost","id":"RedditPost-jufly3","excerpt":"","slug":"/reddit/r/aww/comments/jufly3/18_years_ago_i_agreed_to_foster_tuna_until_he/","title":"18 years ago I agreed to foster Tuna until he found a home. My best friend is now 20 years old and still going strong.","date":"November 15, 2020","dateISO":"2020-11-15T03:58:04.000Z","datetime":"2020-11-15 03:58","tags":["aww","reddit"],"image":null,"imageAlt":"Reddit Image","provider":"Reddit","thirdPartyId":"jufly3","url":"https://www.reddit.com/r/aww/comments/jufly3/18_years_ago_i_agreed_to_foster_tuna_until_he/","originalUrl":"https://www.reddit.com/r/aww/comments/jufly3/18_years_ago_i_agreed_to_foster_tuna_until_he/","imageRemote":"https://preview.redd.it/ti4lpxgmubz51.jpg?width=1080&crop=smart&auto=webp&s=e9c215e2381f80e21be3122a3ed32252aef88e43","video":null,"channel":"aww","channelUrl":"https://www.reddit.com/r/aww","author":"ShiteKing","authorUrl":"https://www.reddit.com/user/ShiteKing","authorImage":null,"authorSlug":"ShiteKing","score":83750,"views":null,"sharedCount":null,"likeCount":null,"sharedContent":null,"parent":{"__typename":"RedditJson","localize":[{"title":"18年前，我同意饲养金枪鱼，直到它找到家。我最好的朋友现在20岁了，仍然很健壮。","the_new_excerpt":null,"locale":"zh"},{"title":"18年前，我同意飼養金槍魚，直到它找到家。我最好的朋友現在20歲了，仍然很健壯。","the_new_excerpt":null,"locale":"zh-Hant"}]}},{"__typename":"SocialMediaPost","id":"RedditPost-ju8g7a","excerpt":"","slug":"/reddit/r/aww/comments/ju8g7a/i_cant_believe_i_wasted_so_many_years_of_my_life/","title":"I can’t believe I wasted so many years of my life thinking I only liked dogs","date":"November 14, 2020","dateISO":"2020-11-14T20:14:15.000Z","datetime":"2020-11-14 20:14","tags":["aww","reddit"],"image":null,"imageAlt":null,"provider":"Reddit","thirdPartyId":"ju8g7a","url":"https://www.reddit.com/r/aww/comments/ju8g7a/i_cant_believe_i_wasted_so_many_years_of_my_life/","originalUrl":"https://www.reddit.com/r/aww/comments/ju8g7a/i_cant_believe_i_wasted_so_many_years_of_my_life/","imageRemote":null,"video":{"url":"https://www.reddit.com/mediaembed/ju8g7a","embed":true,"width":271,"height":480},"channel":"aww","channelUrl":"https://www.reddit.com/r/aww","author":"rubyl0ve","authorUrl":"https://www.reddit.com/user/rubyl0ve","authorImage":null,"authorSlug":"rubyl0ve","score":70207,"views":null,"sharedCount":null,"likeCount":null,"sharedContent":null,"parent":{"__typename":"RedditJson","localize":[{"title":"我真不敢相信我浪费了这么多年的时间以为我只喜欢狗","the_new_excerpt":null,"locale":"zh"},{"title":"我真不敢相信我浪費了這麽多年的時間以為我只喜歡狗","the_new_excerpt":null,"locale":"zh-Hant"}]}},{"__typename":"SocialMediaPost","id":"RedditPost-ju3r31","excerpt":"","slug":"/reddit/r/aww/comments/ju3r31/rescued_junkyard_dog_became_huge_fan_of_warm_and/","title":"Rescued junkyard dog became HUGE fan of warm and dry towels and blankets.","date":"November 14, 2020","dateISO":"2020-11-14T15:37:01.000Z","datetime":"2020-11-14 15:37","tags":["aww","reddit"],"image":null,"imageAlt":null,"provider":"Reddit","thirdPartyId":"ju3r31","url":"https://www.reddit.com/r/aww/comments/ju3r31/rescued_junkyard_dog_became_huge_fan_of_warm_and/","originalUrl":"https://www.reddit.com/r/aww/comments/ju3r31/rescued_junkyard_dog_became_huge_fan_of_warm_and/","imageRemote":null,"video":{"url":"https://www.reddit.com/mediaembed/ju3r31","embed":true,"width":607,"height":1080},"channel":"aww","channelUrl":"https://www.reddit.com/r/aww","author":"dbsgirl","authorUrl":"https://www.reddit.com/user/dbsgirl","authorImage":null,"authorSlug":"dbsgirl","score":76496,"views":null,"sharedCount":null,"likeCount":null,"sharedContent":null,"parent":{"__typename":"RedditJson","localize":[{"title":"获救的垃圾场狗成了温暖干燥的毛巾和毯子的铁杆粉丝。","the_new_excerpt":null,"locale":"zh"},{"title":"獲救的垃圾場狗成了溫暖幹燥的毛巾和毯子的鐵桿粉絲。","the_new_excerpt":null,"locale":"zh-Hant"}]}},{"__typename":"SocialMediaPost","id":"RedditPost-ju246j","excerpt":"","slug":"/reddit/r/aww/comments/ju246j/team_work_to_defeat_dad_lets_do_this/","title":"team work to defeat dad, lets do this!","date":"November 14, 2020","dateISO":"2020-11-14T13:43:16.000Z","datetime":"2020-11-14 13:43","tags":["aww","reddit"],"image":null,"imageAlt":null,"provider":"Reddit","thirdPartyId":"ju246j","url":"https://www.reddit.com/r/aww/comments/ju246j/team_work_to_defeat_dad_lets_do_this/","originalUrl":"https://www.reddit.com/r/aww/comments/ju246j/team_work_to_defeat_dad_lets_do_this/","imageRemote":null,"video":{"url":"https://www.reddit.com/mediaembed/ju246j","embed":true,"width":480,"height":360},"channel":"aww","channelUrl":"https://www.reddit.com/r/aww","author":"Drgatz","authorUrl":"https://www.reddit.com/user/Drgatz","authorImage":null,"authorSlug":"Drgatz","score":81224,"views":null,"sharedCount":null,"likeCount":null,"sharedContent":null,"parent":{"__typename":"RedditJson","localize":[{"title":"团队合作打败爸爸，让我们开始吧！","the_new_excerpt":null,"locale":"zh"},{"title":"團隊合作打敗爸爸，讓我們開始吧！","the_new_excerpt":null,"locale":"zh-Hant"}]}},{"__typename":"SocialMediaPost","id":"RedditPost-jtmml4","excerpt":"","slug":"/reddit/r/aww/comments/jtmml4/woofer_and_sub_woofers/","title":"Woofer and sub woofers","date":"November 13, 2020","dateISO":"2020-11-13T19:39:15.000Z","datetime":"2020-11-13 19:39","tags":["aww","reddit"],"image":null,"imageAlt":null,"provider":"Reddit","thirdPartyId":"jtmml4","url":"https://www.reddit.com/r/aww/comments/jtmml4/woofer_and_sub_woofers/","originalUrl":"https://www.reddit.com/r/aww/comments/jtmml4/woofer_and_sub_woofers/","imageRemote":null,"video":{"url":"https://www.reddit.com/mediaembed/jtmml4","embed":true,"width":607,"height":1080},"channel":"aww","channelUrl":"https://www.reddit.com/r/aww","author":"TreKs","authorUrl":"https://www.reddit.com/user/TreKs","authorImage":null,"authorSlug":"TreKs","score":80216,"views":null,"sharedCount":null,"likeCount":null,"sharedContent":null,"parent":{"__typename":"RedditJson","localize":[{"title":"低音和低音扬声器","the_new_excerpt":null,"locale":"zh"},{"title":"低音和低音揚聲器","the_new_excerpt":null,"locale":"zh-Hant"}]}},{"__typename":"SocialMediaPost","id":"RedditPost-jtednv","excerpt":"","slug":"/reddit/r/aww/comments/jtednv/just_a_kitten_wearing_a_cardigan_nothing_more/","title":"Just a kitten wearing a cardigan, nothing more","date":"November 13, 2020","dateISO":"2020-11-13T09:47:54.000Z","datetime":"2020-11-13 09:47","tags":["aww","reddit"],"image":null,"imageAlt":"Reddit Image","provider":"Reddit","thirdPartyId":"jtednv","url":"https://www.reddit.com/r/aww/comments/jtednv/just_a_kitten_wearing_a_cardigan_nothing_more/","originalUrl":"https://www.reddit.com/r/aww/comments/jtednv/just_a_kitten_wearing_a_cardigan_nothing_more/","imageRemote":"https://preview.redd.it/oc8q1lx7bzy51.jpg?width=640&crop=smart&auto=webp&s=5263aaeab3b260264bca2e48b2192019b14ea405","video":null,"channel":"aww","channelUrl":"https://www.reddit.com/r/aww","author":"KingMushroomIV","authorUrl":"https://www.reddit.com/user/KingMushroomIV","authorImage":null,"authorSlug":"KingMushroomIV","score":99057,"views":null,"sharedCount":null,"likeCount":null,"sharedContent":null,"parent":{"__typename":"RedditJson","localize":[{"title":"只有一只穿羊毛衫的小猫，没别的了","the_new_excerpt":null,"locale":"zh"},{"title":"只有壹只穿羊毛衫的小貓，沒別的了","the_new_excerpt":null,"locale":"zh-Hant"}]}},{"__typename":"SocialMediaPost","id":"RedditPost-jta0uc","excerpt":"","slug":"/reddit/r/aww/comments/jta0uc/such_fearless/","title":"Such fearless !","date":"November 13, 2020","dateISO":"2020-11-13T03:49:11.000Z","datetime":"2020-11-13 03:49","tags":["aww","reddit"],"image":null,"imageAlt":null,"provider":"Reddit","thirdPartyId":"jta0uc","url":"https://www.reddit.com/r/aww/comments/jta0uc/such_fearless/","originalUrl":"https://www.reddit.com/r/aww/comments/jta0uc/such_fearless/","imageRemote":null,"video":{"url":"https://www.reddit.com/mediaembed/jta0uc","embed":true,"width":720,"height":720},"channel":"aww","channelUrl":"https://www.reddit.com/r/aww","author":"nimblemind","authorUrl":"https://www.reddit.com/user/nimblemind","authorImage":null,"authorSlug":"nimblemind","score":72878,"views":null,"sharedCount":null,"likeCount":null,"sharedContent":null,"parent":{"__typename":"RedditJson","localize":[{"title":"如此无畏！","the_new_excerpt":null,"locale":"zh"},{"title":"如此無畏！","the_new_excerpt":null,"locale":"zh-Hant"}]}},{"__typename":"SocialMediaPost","id":"RedditPost-jt7hjc","excerpt":"","slug":"/reddit/r/aww/comments/jt7hjc/maternity_shoot_for_my_pregnant_foster_dog/","title":"Maternity shoot for my pregnant foster dog","date":"November 13, 2020","dateISO":"2020-11-13T01:05:39.000Z","datetime":"2020-11-13 01:05","tags":["aww","reddit"],"image":null,"imageAlt":"Reddit Image","provider":"Reddit","thirdPartyId":"jt7hjc","url":"https://www.reddit.com/r/aww/comments/jt7hjc/maternity_shoot_for_my_pregnant_foster_dog/","originalUrl":"https://www.reddit.com/r/aww/comments/jt7hjc/maternity_shoot_for_my_pregnant_foster_dog/","imageRemote":"https://preview.redd.it/x3rra8r1qwy51.jpg?width=1080&crop=smart&auto=webp&s=a6623f2943ae059fb229635f1a6a2c5591c9c555","video":null,"channel":"aww","channelUrl":"https://www.reddit.com/r/aww","author":"caitiesfosterfam","authorUrl":"https://www.reddit.com/user/caitiesfosterfam","authorImage":null,"authorSlug":"caitiesfosterfam","score":97246,"views":null,"sharedCount":null,"likeCount":null,"sharedContent":null,"parent":{"__typename":"RedditJson","localize":[{"title":"为我怀孕的寄养狗拍摄孕妇照","the_new_excerpt":null,"locale":"zh"},{"title":"為我懷孕的寄養狗拍攝孕婦照","the_new_excerpt":null,"locale":"zh-Hant"}]}}]}},"pageContext":{"basePath":"/","pageType":"tag","tag":"aww","tagsFilter":{"id":{"glob":"!*Post-1"}},"filter":{"id":{"glob":"!*Post-1"},"tags":{"eq":"aww"}},"limit":25,"skip":375,"total":386,"totalPages":16,"currentPage":16,"maxWidth":1024,"maxHeight":512,"locale":"en","hrefLang":"en-US","originalPath":"/tags/aww/page/16","dateFormat":"MM/DD/YYYY"}},"staticQueryHashes":["1239077767","2506312863","2744905544","3025052997","3493603132","3493603132","3513215887","386998304"]}